system_design/flanger/flanger_lfo_test_100mHz.csv

#Digilent WaveForms Oscilloscope Acquisition
#Device Name: Discovery2
#Serial Number: SN:210321B053D5
#Date Time: 2025-04-29 10:57:18.671
#Sample rate: 219.037Hz
#Samples: 8192
#Trigger: Source: Channel 1 Type: Edge Condition: Rising Level: 0 V Hyst.: Auto HoldOff: 0 s
#Channel 1: Range: 500 mV/div Offset: 0 V Sample Mode: Average
#Wavegen Channel 1: Enabled
#Mode: Simple
#Type: Sine
#Frequency: 400 Hz
#Period: 2.5 ms
#Amplitude: 500 mV
#Offset: 0 V
#Symmetry: 50 %
#Phase: 0 °

Time (s),Channel 1 (V)
-17.96044116803499,-0.03891530379928534
-17.95587572803499,-0.03725521095293083
-17.95131028803499,-0.03526309953730541
-17.94674484803499,-0.03327098812167999
-17.94217940803499,-0.03127887670605457
-17.93761396803499,-0.02961878385970006
-17.93304852803499,-0.02795869101334464
-17.92848308803499,-0.02596657959771907
-17.92391764803499,-0.02364244961282486
-17.91935220803499,-0.02198235676647005
-17.91478676803499,-0.02032226392011478
-17.91022132803499,-0.01866217107376026
-17.90565588803499,-0.01633804108886394
-17.90109044803499,-0.01434592967323852
-17.89652500803499,-0.01268583682688401
-17.89195956803499,-0.01102574398052949
-17.88739412803499,-0.009033632564903171
-17.88282868803499,-0.007041521149277904
-17.87826324803499,-0.005381428302924898
-17.87369780803499,-0.003721335456570384
-17.86913236803499,-0.001729224040944212
-17.86456692803499,0.0005949059439521089
-17.86000148803499,0.002254998790306624
-17.85543604803499,0.003915091636661138
-17.85087060803499,0.005907203052286556
-17.84630516803499,0.007899314467912729
-17.84173972803499,0.009559407314267394
-17.83717428803499,0.011551518729891
-17.83260884803499,0.01321161157624567
-17.82804340803499,0.01520372299187184
-17.82347796803499,0.01719583440749725
-17.81891252803499,0.01885592725385177
-17.81434708803499,0.02051602010020628
-17.80978164803499,0.0225081315158317
-17.80521620803499,0.02483226150072802
-17.80065076803499,0.0264923543470833
-17.79608532803499,0.02815244719343781
-17.79151988803499,0.02981254003979081
-17.78695444803499,0.03213667002468684
-17.78238900803499,0.03379676287104241
-17.77782356803499,0.03545685571739692
-17.77325812803499,0.03711694856375143
-17.76869268803499,0.03944107854864775
-17.76412724803499,0.04143318996427317
-17.75956180803499,0.04309328281062769
-17.75499636803499,0.04475337565698311
-17.75043092803499,0.04674548707260867
-17.74586548803499,0.04906961705750288
-17.74130004803499,0.05072970990385769
-17.73673460803499,0.05238980275021297
-17.73216916803499,0.05404989559656748
-17.72760372803499,0.0563740255814638
-17.72303828803499,0.05803411842781832
-17.71847284803499,0.06002622984344373
-17.71390740803499,0.06135430412052734
-17.70934196803499,0.06334641553615382
-17.70477652803499,0.06567054552104984
-17.70021108803499,0.06733063836740286
-17.69564564803499,0.06899073121375736
-17.69108020803499,0.07065082406011262
-17.68651476803499,0.07297495404500895
-17.68194932803499,0.07463504689136347
-17.67738388803499,0.07629513973771798
-17.67281844803499,0.0779552325840725
-17.66825300803499,0.08027936256896971
-17.66368756803499,0.08227147398459485
-17.65912212803499,0.08359954826167723
-17.65455668803499,0.08492762253876085
-17.64999124803499,0.08691973395438687
-17.64542580803499,0.0892438639392832
-17.64086036803499,0.0909039567856377
-17.63629492803499,0.09256404963199222
-17.63172948803499,0.09422414247834673
-17.62716404803499,0.09654827246324306
-17.62259860803499,0.09820836530959832
-17.61803316803499,0.09986845815595299
-17.61346772803499,0.1018605695715766
-17.60890228803499,0.1041846995564728
-17.60433684803499,0.1061768109720992
-17.59977140803499,0.1078369038184538
-17.59520596803499,0.1094969966648083
-17.59064052803499,0.1111570895111628
-17.58607508803499,0.1134812194960591
-17.58150964803499,0.1151413123424136
-17.57694420803499,0.1171334237580396
-17.57237876803499,0.1184614980351237
-17.56781332803499,0.1207856280200179
-17.56324788803499,0.1227777394356435
-17.55868244803499,0.1244378322819989
-17.55411700803499,0.1260979251283534
-17.54955156803499,0.1280900365439788
-17.54498612803499,0.1300821479596043
-17.54042068803499,0.1317422408059588
-17.53585524803499,0.1334023336523133
-17.53128980803499,0.1350624264986688
-17.52672436803499,0.1373865564835649
-17.52215892803499,0.1390466493299179
-17.51759348803499,0.1410387607455431
-17.51302804803499,0.1423668350226276
-17.50846260803499,0.1443589464382531
-17.50389716803499,0.1466830764231494
-17.49933172803499,0.1483431692695039
-17.49476628803499,0.1496712435465875
-17.49020084803499,0.151663354962214
-17.48563540803499,0.15398748494711
-17.48106996803499,0.155647577793463
-17.47650452803499,0.1573076706398176
-17.47193908803499,0.1589677634861728
-17.46737364803499,0.1609598749017982
-17.46280820803499,0.1629519863174236
-17.45824276803499,0.1642800605945073
-17.45367732803499,0.1662721720101327
-17.44911188803499,0.1679322648564872
-17.44454644803499,0.1699243762721133
-17.43998100803499,0.1715844691184679
-17.43541556803499,0.1732445619648209
-17.43085012803499,0.1749046548111754
-17.42628468803499,0.1772287847960725
-17.42171924803499,0.178888877642427
-17.41715380803499,0.1805489704887815
-17.41258836803499,0.1818770447658651
-17.40802292803499,0.1842011747507614
-17.40345748803499,0.1861932861663869
-17.39889204803499,0.1875213604434712
-17.39432660803499,0.1891814532898259
-17.38976116803499,0.1911735647054495
-17.38519572803499,0.1931656761210749
-17.38063028803499,0.1948257689674303
-17.37606484803499,0.1964858618137849
-17.37149940803499,0.1978139360908684
-17.36693396803499,0.2001380660757648
-17.36236852803499,0.2017981589221193
-17.35780308803499,0.2034582517684744
-17.35323764803499,0.2047863260455585
-17.34867220803499,0.2071104560304545
-17.34410676803499,0.2087705488768075
-17.33954132803499,0.210430641723162
-17.33497588803499,0.2120907345695173
-17.33041044803499,0.2137508274158718
-17.32584500803499,0.2160749574007681
-17.32127956803499,0.2174030316778517
-17.31671412803499,0.2190631245242062
-17.31214868803499,0.2207232173705618
-17.30758324803499,0.2230473473554578
-17.30301780803499,0.2247074402018109
-17.29845236803499,0.2260355144788946
-17.29388692803499,0.2276956073252497
-17.28932148803499,0.2296877187408751
-17.28475604803499,0.2316798301565006
-17.28019060803499,0.2330079044335842
-17.27562516803499,0.2346679972799387
-17.27105972803499,0.2363280901262932
-17.26649428803499,0.2386522201111901
-17.26192884803499,0.2399802943882739
-17.25736340803499,0.2416403872346269
-17.25279796803499,0.2433004800809814
-17.24823252803499,0.2452925914966076
-17.24366708803499,0.2469526843429621
-17.23910164803499,0.2486127771893166
-17.23453620803499,0.2502728700356711
-17.22997076803499,0.2522649814512966
-17.22540532803499,0.2542570928669219
-17.22083988803499,0.2555851671440064
-17.21627444803499,0.2572452599903609
-17.21170900803499,0.2589053528367138
-17.20714356803499,0.2608974642523391
-17.20257812803499,0.2625575570986945
-17.19801268803499,0.2638856313757781
-17.19344724803499,0.2655457242221327
-17.18888180803499,0.2675378356377581
-17.18431636803499,0.2695299470533835
-17.17975092803499,0.2708580213304679
-17.17518548803499,0.2725181141768224
-17.17062004803499,0.274178207023177
-17.16605460803499,0.2761703184388007
-17.16148916803499,0.2778304112851553
-17.15692372803499,0.2788264669929688
-17.15235828803499,0.2801545412700524
-17.14779284803499,0.2821466526856778
-17.14322740803499,0.2841387641013032
-17.13866196803499,0.2854668383783868
-17.13409652803499,0.2871269312247421
-17.12953108803499,0.2887870240710967
-17.12496564803499,0.2907791354867204
-17.12040020803499,0.2921072097638043
-17.11583476803499,0.2937673026101594
-17.11126932803499,0.2957594140257848
-17.10670388803499,0.2977515254414103
-17.10213844803499,0.2994116182877647
-17.09757300803499,0.3007396925648484
-17.09300756803499,0.3023997854112029
-17.08844212803499,0.3043918968268291
-17.08387668803499,0.3060519896731834
-17.07931124803499,0.3073800639502658
-17.07474580803499,0.3087081382273494
-17.07018036803499,0.3107002496429755
-17.06561492803499,0.31236034248933
-17.06104948803499,0.3140204353356845
-17.05648404803499,0.3153485096127681
-17.05191860803499,0.3170086024591226
-17.04735316803499,0.319000713874748
-17.04278772803499,0.3206608067211031
-17.03822228803499,0.3219888809981868
-17.03365684803499,0.3233169552752692
-17.02909140803499,0.3253090666908943
-17.02452596803499,0.3269691595372497
-17.01996052803499,0.3286292523836042
-17.01539508803499,0.3299573266606878
-17.01082964803499,0.3312854009377714
-17.00626420803499,0.3336095309226678
-17.00169876803499,0.334937605199752
-16.99713332803499,0.3362656794768356
-16.99256788803499,0.337593753753918
-16.98800244803499,0.3395858651695431
-16.98343700803499,0.3412459580158977
-16.97887156803499,0.3425740322929822
-16.97430612803499,0.3442341251393367
-16.96974068803499,0.3458942179856912
-16.96517524803499,0.3475543108320457
-16.96060980803499,0.3488823851091293
-16.95604436803499,0.3502104593862137
-16.95147892803499,0.3518705522325683
-16.94691348803499,0.353862663648192
-16.94234804803499,0.3551907379252758
-16.93778260803499,0.3565188122023601
-16.93321716803499,0.3578468864794437
-16.92865172803499,0.3598389978950691
-16.92408628803499,0.3614990907414236
-16.91952084803499,0.3628271650185072
-16.91495540803499,0.3641552392955908
-16.91038996803499,0.3658153321419462
-16.90582452803499,0.3678074435575714
-16.90125908803499,0.3691355178346538
-16.89669364803499,0.3704635921117374
-16.89212820803499,0.3717916663888216
-16.88756276803499,0.373783777804447
-16.88299732803499,0.3751118520815306
-16.87843188803499,0.3764399263586142
-16.87386644803499,0.3777680006356979
-16.86930100803499,0.3794280934820524
-16.86473556803499,0.3810881863284075
-16.86017012803499,0.3824162606054911
-16.85560468803499,0.3837443348825735
-16.85103924803499,0.3850724091596571
-16.84647380803499,0.3870645205752831
-16.84190836803499,0.3883925948523668
-16.83734292803499,0.3897206691294504
-16.83277748803499,0.3910487434065339
-16.82821204803499,0.3927088362528885
-16.82364660803499,0.3943689290992436
-16.81908116803499,0.3956970033763272
-16.81451572803499,0.3970250776534096
-16.80995028803499,0.3983531519304933
-16.80538484803499,0.4003452633461184
-16.80081940803499,0.4013413190539319
-16.79625396803499,0.4026693933310156
-16.79168852803499,0.4039974676080992
-16.78712308803499,0.4059895790237246
-16.78255764803499,0.4073176533008082
-16.77799220803499,0.4086457275778925
-16.77342676803499,0.4099738018549762
-16.76886132803499,0.4116338947013292
-16.76429588803499,0.4132939875476837
-16.75973044803499,0.4142900432554972
-16.75516500803499,0.4156181175325808
-16.75059956803499,0.4169461918096644
-16.74603412803499,0.4189383032252898
-16.74146868803499,0.4199343589331025
-16.73690324803499,0.4212624332101861
-16.73233780803499,0.4225905074872705
-16.72777236803499,0.4242506003336249
-16.72320692803499,0.4255786746107073
-16.71864148803499,0.4269067488877909
-16.71407604803499,0.4282348231648751
-16.70951060803499,0.4295628974419587
-16.70494516803499,0.4312229902883132
-16.70037972803499,0.4325510645653968
-16.69581428803499,0.4335471202732096
-16.69124884803499,0.4348751945502932
-16.68668340803499,0.4368673059659191
-16.68211796803499,0.4378633616737319
-16.67755252803499,0.4391914359508143
-16.67298708803499,0.4405195102278979
-16.66842164803499,0.4418475845049821
-16.66385620803499,0.4435076773513366
-16.65929076803499,0.4441717144898785
-16.65472532803499,0.4451677701976912
-16.65015988803499,0.4468278630440456
-16.64559444803499,0.4484879558904006
-16.64102900803499,0.4494840115982135
-16.63646356803499,0.4508120858752959
-16.63189812803499,0.4518081415831088
-16.62733268803499,0.4534682344294637
-16.62276724803499,0.4547963087065474
-16.61820180803499,0.4561243829836309
-16.61363636803499,0.4574524572607145
-16.60907092803499,0.4591125501070691
-16.60450548803499,0.4607726429534236
-16.59994004803499,0.4617686986612368
-16.59537460803499,0.4627647543690496
-16.59080916803499,0.464092828646132
-16.58624372803499,0.4657529214924864
-16.58167828803499,0.4667489772002998
-16.57711284803499,0.4680770514773834
-16.57254740803499,0.4690731071851962
-16.56798196803499,0.4707332000315507
-16.56341652803499,0.4720612743086343
-16.55885108803499,0.473057330016447
-16.55428564803499,0.4740533857242605
-16.54972020803499,0.4757134785706149
-16.54515476803499,0.4770415528476972
-16.54058932803499,0.4780376085555101
-16.53602388803499,0.4793656828325942
-16.53145844803499,0.4803617385404069
-16.52689300803499,0.4820218313867614
-16.52232756803499,0.4830178870945741
-16.51776212803499,0.4843459613716577
-16.51319668803499,0.4850099985101995
-16.50863124803499,0.4866700913565546
-16.50406580803499,0.4879981656336382
-16.49950036803499,0.4893262399107207
-16.49493492803499,0.4903222956185335
-16.49036948803499,0.4913183513263467
-16.48580404803499,0.4929784441727012
-16.48123860803499,0.4939744998805139
-16.47667316803499,0.4949705555883266
-16.47210772803499,0.4959666112961393
-16.46754228803499,0.4976267041424943
-16.46297684803499,0.498622759850307
-16.45841140803499,0.4996188155581188
-16.45384596803499,0.5006148712659314
-16.44928052803499,0.5019429455430156
-16.44471508803499,0.50360303838937
-16.44014964803499,0.5042670755279118
-16.43558420803499,0.5055951498049954
-16.43101876803499,0.5065912055128081
-16.42645332803499,0.5079192797898917
-16.42188788803499,0.508915335497705
-16.41732244803499,0.5099113912055177
-16.41275700803499,0.5109074469133295
-16.40819156803499,0.5125675397596836
-16.40362612803499,0.5135635954674971
-16.39906068803499,0.5145596511753098
-16.39449524803499,0.5155557068831226
-16.38992980803499,0.5168837811602062
-16.38536436803499,0.5182118554372898
-16.38079892803499,0.5188758925758316
-16.37623348803499,0.5198719482836447
-16.37166804803499,0.5208680039914577
-16.36710260803499,0.5225280968378108
-16.36253716803499,0.523192133976353
-16.35797172803499,0.524188189684166
-16.35340628803499,0.5251842453919787
-16.34884084803499,0.5265123196690623
-16.34427540803499,0.5278403939461459
-16.33970996803499,0.5285044310846877
-16.33514452803499,0.5295004867925004
-16.33057908803499,0.5304965425003138
-16.32601364803499,0.5318246167773972
-16.32144820803499,0.532820672485209
-16.31688276803499,0.5338167281930217
-16.31231732803499,0.534480765331564
-16.30775188803499,0.5361408581779185
-16.30318644803499,0.5371369138857313
-16.29862100803499,0.5378009510242731
-16.29405556803499,0.5384649881628149
-16.28949012803499,0.539793062439899
-16.28492468803499,0.5411211367169824
-16.28035924803499,0.5417851738555235
-16.27579380803499,0.5427812295633361
-16.27122836803499,0.5437772852711493
-16.26666292803499,0.5451053595482329
-16.26209748803499,0.5457693966867747
-16.25753204803499,0.5467654523945874
-16.25296660803499,0.5474294895331292
-16.24840116803499,0.5487575638102128
-16.24383572803499,0.5497536195180258
-16.23927028803499,0.5504176566565676
-16.23470484803499,0.5510816937951089
-16.23013940803499,0.5524097680721922
-16.22557396803499,0.5534058237800055
-16.22100852803499,0.5544018794878182
-16.21644308803499,0.55506591662636
-16.21187764803499,0.5557299537649018
-16.20731220803499,0.5573900466112562
-16.20274676803499,0.5580540837497981
-16.19818132803499,0.5587181208883403
-16.19361588803499,0.5593821580268823
-16.18905044803499,0.5607102323039648
-16.18448500803499,0.5617062880117776
-16.17991956803499,0.5623703251503198
-16.17535412803499,0.5630343622888616
-16.17078868803499,0.5640304179966743
-16.16622324803499,0.565358492273758
-16.16165780803499,0.5660225294122998
-16.15709236803499,0.5663545479815707
-16.15252692803499,0.5670185851201131
-16.14796148803499,0.5683466593971964
-16.14339604803499,0.5690106965357375
-16.13883060803499,0.5700067522435501
-16.13426516803499,0.5703387708128215
-16.12969972803499,0.5716668450899052
-16.12513428803499,0.5726629007977179
-16.12056884803499,0.5733269379362597
-16.11600340803499,0.5739909750748015
-16.11143796803499,0.5753190493518855
-16.10687252803499,0.5763151050596982
-16.10230708803499,0.57731116076751
-16.09774164803499,0.5776431793367812
-16.09317620803499,0.5783072164753231
-16.08861076803499,0.5796352907524068
-16.08404532803499,0.5802993278909486
-16.07947988803499,0.5809633650294904
-16.07491444803499,0.5816274021680322
-16.07034900803499,0.5826234578758449
-16.06578356803499,0.5836195135836579
-16.06121812803499,0.5842835507221995
-16.05665268803499,0.5846155692914702
-16.05208724803499,0.5852796064300118
-16.04752180803499,0.5866076807070958
-16.04295636803499,0.5872717178456376
-16.03839092803499,0.5879357549841794
-16.03382548803499,0.5882677735534503
-16.02926004803499,0.589263829261263
-16.02469460803499,0.5902598849690757
-16.02012916803499,0.5909239221076176
-16.01556372803499,0.5912559406768888
-16.01099828803499,0.5922519963847006
-16.00643284803499,0.5932480520925134
-16.00186740803499,0.5939120892310557
-15.99730196803499,0.5942441078003265
-15.99273652803499,0.5949081449388683
-15.98817108803499,0.595904200646681
-15.98360564803499,0.5965682377852228
-15.97904020803499,0.5972322749237646
-15.97447476803499,0.597564293493036
-15.96990932803499,0.5985603492008487
-15.96534388803499,0.5995564049086605
-15.96077844803499,0.5998884234779318
-15.95621300803499,0.6002204420472028
-15.95164756803499,0.6008844791857446
-15.94708212803499,0.6018805348935573
-15.94251668803499,0.6025445720320991
-15.93795124803499,0.6032086091706409
-15.93338580803499,0.6035406277399122
-15.92882036803499,0.6045366834477248
-15.92425492803499,0.605200720586266
-15.91968948803499,0.6055327391555371
-15.91512404803499,0.6058647577248081
-15.91055860803499,0.6065287948633499
-15.90599316803499,0.6075248505711627
-15.90142772803499,0.6078568691404336
-15.89686228803499,0.6085209062789754
-15.89229684803499,0.6088529248482463
-15.88773140803499,0.6098489805560593
-15.88316596803499,0.6105130176946009
-15.87860052803499,0.6108450362638715
-15.87403508803499,0.6111770548331424
-15.86946964803499,0.6121731105409552
-15.86490420803499,0.612837147679497
-15.86033876803499,0.6131691662487679
-15.85577332803499,0.6135011848180388
-15.85120788803499,0.6138332033873098
-15.84664244803499,0.6148292590951225
-15.84207700803499,0.6154932962336644
-15.83751156803499,0.6158253148029353
-15.83294612803499,0.616157333372206
-15.82838068803499,0.6171533890800184
-15.82381524803499,0.6174854076492897
-15.81924980803499,0.6178174262185606
-15.81468436803499,0.6181494447878315
-15.81011892803499,0.6188134819263733
-15.80555348803499,0.6194775190649151
-15.80098804803499,0.619809537634186
-15.79642260803499,0.620141556203457
-15.79185716803499,0.6204735747727282
-15.78729172803499,0.6214696304805402
-15.78272628803499,0.6218016490498114
-15.77816084803499,0.6221336676190824
-15.77359540803499,0.6221336676190824
-15.76902996803499,0.6231297233268951
-15.76446452803499,0.623461741896166
-15.75989908803499,0.6237937604654369
-15.75533364803499,0.6241257790347081
-15.75076820803499,0.6247898161732499
-15.74620276803499,0.625453853311791
-15.74163732803499,0.6257858718810622
-15.73707188803499,0.6261178904503332
-15.73250644803499,0.6261178904503332
-15.72794100803499,0.6271139461581459
-15.72337556803499,0.6274459647274168
-15.71881012803499,0.6274459647274168
-15.71424468803499,0.6277779832966878
-15.70967924803499,0.6284420204352299
-15.70511380803499,0.6291060575737714
-15.70054836803499,0.6291060575737714
-15.69598292803499,0.6294380761430421
-15.69141748803499,0.6297700947123132
-15.68685204803499,0.630434131850855
-15.68228660803499,0.630434131850855
-15.67772116803499,0.6307661504201258
-15.67315572803499,0.6307661504201258
-15.66859028803499,0.6317622061279385
-15.66402484803499,0.6317622061279385
-15.65945940803499,0.6317622061279385
-15.65489396803499,0.6317622061279385
-15.65032852803499,0.63242624326648
-15.64576308803499,0.6327582618357512
-15.64119764803499,0.6327582618357512
-15.63663220803499,0.6330902804050221
-15.63206676803499,0.6330902804050221
