gitfigures/system_design/overdrive/overdrive_non_linear_long_0k6_test.csv

#Digilent WaveForms Oscilloscope Acquisition
#Device Name: Discovery2
#Serial Number: SN:210321B053D5
#Date Time: 2025-05-20 15:25:34.254
#Sample rate: 48169.6Hz
#Samples: 8192
#Trigger: Source: Channel 1 Type: Edge Condition: Rising Level: 0 V Hyst.: Auto HoldOff: 0 s
#Channel 2: Range: 200 mV/div Offset: 0 V Sample Mode: Average
#Wavegen Channel 1: Running
#Mode: Simple
#Type: Sine
#Frequency: 600 Hz
#Period: 1.666666667 ms
#Amplitude: 200 mV
#Offset: 0 V
#Symmetry: 50 %
#Phase: 0 °

Time (s),Channel 2 (V)
-0.08503075148936171,-0.9042938755380044
-0.0850099914893617,-0.8239787992633673
-0.0849892314893617,-0.6012869968655095
-0.08496847148936169,-0.227257695371444
-0.0849477114893617,0.2055144511660739
-0.0849269514893617,0.5646091310386255
-0.0849061914893617,0.7202610763807944
-0.0848854314893617,0.7408376661701643
-0.08486467148936171,0.7451521124163205
-0.0848439114893617,0.7424970685725328
-0.0848231514893617,0.7441564709749013
-0.08480239148936169,0.743492710013954
-0.0847816314893617,0.7438245904944276
-0.08476087148936171,0.742828949053007
-0.0847401114893617,0.7428289490530066
-0.0847193514893617,0.7434927100139539
-0.08469859148936169,0.7424970685725332
-0.0846778314893617,0.7431608295334803
-0.0846570714893617,0.7421651880920591
-0.0846363114893617,0.7418333076115854
-0.0846155514893617,0.7424970685725328
-0.08459479148936171,0.7421651880920592
-0.0845740314893617,0.7421651880920591
-0.0845532714893617,0.7408376661701643
-0.08453251148936169,0.7418333076115854
-0.0845117514893617,0.7418333076115854
-0.08449099148936171,0.7415014271311118
-0.0844702314893617,0.7408376661701643
-0.0844494714893617,0.7405057856896906
-0.08442871148936169,0.7408376661701642
-0.0844079514893617,0.7405057856896906
-0.0843871914893617,0.7401739052092169
-0.0843664314893617,0.7398420247287432
-0.0843456714893617,0.7398420247287432
-0.08432491148936171,0.7401739052092168
-0.0843041514893617,0.7395101442482694
-0.0842833914893617,0.7391782637677957
-0.08426263148936169,0.7395101442482694
-0.0842418714893617,0.7395101442482694
-0.08422111148936171,0.7391782637677958
-0.0842003514893617,0.7385145028068484
-0.0841795914893617,0.738846383287322
-0.08415883148936169,0.7391782637677953
-0.0841380714893617,0.7381826223263747
-0.0841173114893617,0.7335362955997428
-0.0840965514893617,0.6880686697748448
-0.0840757914893617,0.5244515929013069
-0.08405503148936171,0.1972174391543801
-0.0840342714893617,-0.2305765001763779
-0.0840135114893617,-0.6285011962643534
-0.08399275148936169,-0.8724333494125514
-0.0839719914893617,-0.9225473019640584
-0.08395123148936171,-0.9192284971593229
-0.0839304714893617,-0.9238748238859532
-0.0839097114893617,-0.9205560190812162
-0.08388895148936169,-0.9222154214835839
-0.0838681914893617,-0.9205560190812162
-0.0838474314893617,-0.921883541003111
-0.0838266714893617,-0.9212197800421634
-0.0838059114893617,-0.9208878995616899
-0.08378515148936171,-0.9205560190812163
-0.0837643914893617,-0.9202241386007425
-0.0837436314893617,-0.9208878995616899
-0.08372287148936169,-0.9198922581202688
-0.0837021114893617,-0.9198922581202688
-0.0836813514893617,-0.918896616678848
-0.0836605914893617,-0.919560377639795
-0.0836398314893617,-0.919560377639795
-0.08361907148936171,-0.9192284971593214
-0.0835983114893617,-0.9188966166788476
-0.0835775514893617,-0.9192284971593213
-0.0835567914893617,-0.9188966166788473
-0.0835360314893617,-0.9182328557179003
-0.08351527148936171,-0.9182328557179003
-0.0834945114893617,-0.9175690947569528
-0.0834737514893617,-0.9188966166788476
-0.08345299148936169,-0.9175690947569528
-0.0834322314893617,-0.9175690947569528
-0.0834114714893617,-0.9172372142764791
-0.0833907114893617,-0.9175690947569528
-0.0833699514893617,-0.9129227680303209
-0.08334919148936171,-0.8681189031663907
-0.0833284314893617,-0.7098119139804118
-0.0833076714893617,-0.3918704136865999
-0.0832869114893617,0.03426412324182428
-0.0832661514893617,0.4378307874976692
-0.08324539148936171,0.6890643112161516
-0.0832246314893617,0.7448202319358488
-0.0832038714893617,0.7401739052092169
-0.08318311148936169,0.7454839928967949
-0.0831623514893617,0.7424970685725328
-0.0831415914893617,0.7444883514553751
-0.0831208314893617,0.7424970685725328
-0.0831000714893617,0.7431608295334803
-0.08307931148936171,0.7428289490530067
-0.0830585514893617,0.7431608295334803
-0.0830377914893617,0.7428289490530066
-0.0830170314893617,0.742828949053006
-0.0829962714893617,0.7415014271311117
-0.08297551148936171,0.7424970685725324
-0.0829547514893617,0.7421651880920591
-0.0829339914893617,0.7421651880920591
-0.08291323148936169,0.7411695466506383
-0.0828924714893617,0.7418333076115854
-0.0828717114893617,0.7415014271311117
-0.0828509514893617,0.7421651880920591
-0.0828301914893617,0.7408376661701643
-0.08280943148936171,0.7415014271311113
-0.0827886714893617,0.7408376661701643
-0.0827679114893617,0.7408376661701643
-0.08274715148936169,0.7405057856896906
-0.0827263914893617,0.7405057856896906
-0.08270563148936171,0.740173905209217
-0.0826848714893617,0.7398420247287432
-0.0826641114893617,0.7401739052092169
-0.08264335148936169,0.7401739052092166
-0.0826225914893617,0.7395101442482694
-0.0826018314893617,0.7391782637677957
-0.0825810714893617,0.7395101442482694
-0.0825603114893617,0.7395101442482694
-0.08253955148936171,0.7391782637677958
-0.0825187914893617,0.7385145028068484
-0.0824980314893617,0.7391782637677957
-0.08247727148936169,0.7385145028068478
-0.0824565114893617,0.7371869808849535
-0.08243575148936171,0.7023395304352301
-0.0824149914893617,0.5642772505581518
-0.0823942314893617,0.2602747304442357
-0.08237347148936169,-0.1578946749528264
-0.0823527114893617,-0.5767278413104551
-0.0823319514893617,-0.8438916280917897
-0.0823111914893617,-0.913918409471742
-0.0822904314893617,-0.9208878995616899
-0.08226967148936171,-0.9222154214835842
-0.0822489114893617,-0.921883541003111
-0.0822281514893617,-0.921883541003111
-0.08220739148936169,-0.92088789956169
-0.0821866314893617,-0.9212197800421635
-0.08216587148936171,-0.92088789956169
-0.0821451114893617,-0.9212197800421635
-0.0821243514893617,-0.9205560190812162
-0.08210359148936169,-0.9202241386007425
-0.0820828314893617,-0.9202241386007425
-0.0820620714893617,-0.9205560190812162
-0.0820413114893617,-0.919560377639795
-0.0820205514893617,-0.9192284971593213
-0.08199979148936171,-0.9188966166788477
-0.0819790314893617,-0.919560377639795
-0.0819582714893617,-0.9192284971593213
-0.08193751148936169,-0.918564736198374
-0.0819167514893617,-0.918564736198374
-0.08189599148936171,-0.9182328557179004
-0.0818752314893617,-0.9188966166788476
-0.0818544714893617,-0.9179009752374265
-0.08183371148936169,-0.9179009752374262
-0.0818129514893617,-0.9172372142764791
-0.0817921914893617,-0.9182328557179003
-0.0817714314893617,-0.9175690947569528
-0.0817506714893617,-0.9169053337960054
-0.08172991148936171,-0.9165734533155317
-0.0817091514893617,-0.9152459313936369
-0.0816883914893617,-0.8830535247876872
-0.08166763148936169,-0.7476462887542797
-0.0816468714893617,-0.4512770196913935
-0.08162611148936171,-0.03742206054086827
-0.0816053514893617,0.3804154643757178
-0.0815845914893617,0.6585313070126848
-0.08156383148936169,0.7351956980021147
-0.0815430714893617,0.7428289490530066
-0.0815223114893617,0.7444883514553751
-0.0815015514893617,0.7424970685725337
-0.0814807914893617,0.7444883514553751
-0.08146003148936171,0.7428289490530073
-0.0814392714893617,0.7441564709749013
-0.0814185114893617,0.7421651880920591
-0.08139775148936169,0.7434927100139536
-0.0813769914893617,0.7428289490530066
-0.08135623148936171,0.7431608295334802
-0.0813354714893617,0.7421651880920591
-0.0813147114893617,0.7424970685725328
-0.08129395148936171,0.7424970685725328
-0.0812731914893617,0.7424970685725328
-0.0812524314893617,0.7424970685725328
-0.0812316714893617,0.7415014271311121
-0.0812109114893617,0.7424970685725328
-0.08119015148936171,0.7421651880920592
-0.0811693914893617,0.7418333076115854
-0.0811486314893617,0.7411695466506379
-0.08112787148936169,0.7418333076115853
-0.0811071114893617,0.7415014271311117
-0.0810863514893617,0.7408376661701643
-0.0810655914893617,0.7405057856896906
-0.0810448314893617,0.7408376661701643
-0.08102407148936171,0.7408376661701643
-0.0810033114893617,0.7405057856896906
-0.0809825514893617,0.7395101442482694
-0.0809617914893617,0.7405057856896903
-0.0809410314893617,0.7398420247287432
-0.08092027148936171,0.7401739052092168
-0.0808995114893617,0.7391782637677957
-0.0808787514893617,0.7401739052092169
-0.08085799148936169,0.7388463832873223
-0.0808372314893617,0.7395101442482694
-0.0808164714893617,0.7391782637677957
-0.0807957114893617,0.7381826223263747
-0.0807749514893617,0.7278943274316897
-0.08075419148936171,0.6522255778837187
-0.0807334314893617,0.4391583094195641
-0.0807126714893617,0.06712029080853782
-0.0806919114893617,-0.3639924533269744
-0.0806711514893617,-0.7290609818478868
-0.08065039148936171,-0.9029663536160306
-0.0806296314893617,-0.918564736198374
-0.0806088714893617,-0.9212197800421635
-0.08058811148936169,-0.9215516605226369
-0.0805673514893617,-0.9208878995616899
-0.0805465914893617,-0.9212197800421635
-0.0805258314893617,-0.9198922581202688
-0.0805050714893617,-0.9212197800421635
-0.08048431148936171,-0.9202241386007429
-0.0804635514893617,-0.9202241386007425
-0.0804427914893617,-0.919560377639795
-0.08042203148936169,-0.9195603776397954
-0.0804012714893617,-0.9202241386007425
-0.08038051148936171,-0.9192284971593218
-0.0803597514893617,-0.9188966166788476
-0.0803389914893617,-0.9182328557179003
-0.08031823148936169,-0.9188966166788476
-0.0802974714893617,-0.9188966166788476
-0.0802767114893617,-0.9182328557179003
-0.0802559514893617,-0.9182328557179003
-0.0802351914893617,-0.9175690947569528
-0.08021443148936171,-0.9185647361983735
-0.0801936714893617,-0.9179009752374265
-0.0801729114893617,-0.9172372142764791
-0.08015215148936169,-0.9172372142764791
-0.0801313914893617,-0.9172372142764791
-0.08011063148936171,-0.9175690947569527
-0.0800898714893617,-0.9165734533155316
-0.0800691114893617,-0.9165734533155316
-0.08004835148936169,-0.9155778118741031
-0.0800275914893617,-0.8993156683308989
-0.0800068314893617,-0.803734089954471
-0.0799860714893617,-0.5641163830524542
-0.0799653114893617,-0.1788031452224795
-0.07994455148936171,0.2503183160298293
-0.0799237914893617,0.5875088841913113
-0.0799030314893617,0.7335362955997428
-0.07988227148936169,0.7424970685725337
-0.0798615114893617,0.7444883514553751
-0.07984075148936171,0.7441564709749015
-0.0798199914893617,0.7431608295334803
-0.0797992314893617,0.7444883514553751
-0.07977847148936169,0.7431608295334808
-0.0797577114893617,0.7444883514553751
-0.0797369514893617,0.7421651880920591
-0.0797161914893617,0.7441564709749013
-0.0796954314893617,0.7431608295334803
-0.07967467148936171,0.7434927100139538
-0.0796539114893617,0.7421651880920591
-0.0796331514893617,0.7424970685725328
-0.07961239148936169,0.7424970685725328
-0.0795916314893617,0.7424970685725328
-0.07957087148936171,0.7421651880920592
-0.0795501114893617,0.7415014271311117
-0.0795293514893617,0.7421651880920591
-0.07950859148936169,0.742165188092059
-0.0794878314893617,0.7418333076115854
-0.0794670714893617,0.7408376661701643
-0.0794463114893617,0.7418333076115854
-0.0794255514893617,0.7408376661701643
-0.07940479148936171,0.7415014271311113
-0.0793840314893617,0.7398420247287432
-0.0793632714893617,0.7411695466506379
-0.07934251148936169,0.7405057856896905
-0.0793217514893617,0.7401739052092169
-0.07930099148936171,0.7395101442482698
-0.0792802314893617,0.7401739052092169
-0.0792594714893617,0.7398420247287432
-0.07923871148936169,0.7398420247287428
-0.0792179514893617,0.7391782637677957
-0.0791971914893617,0.7391782637677957
-0.0791764314893617,0.7391782637677957
-0.0791556714893617,0.7391782637677957
-0.07913491148936171,0.7381826223263751
-0.0791141514893617,0.7272305664707422
-0.0790933914893617,0.6475792511570524
-0.07907263148936169,0.4222324049152314
-0.0790518714893617,0.04056985237064121
-0.07903111148936171,-0.3925341746473503
-0.0790103514893617,-0.7483100497153619
-0.0789895914893617,-0.9006431902527937
-0.07896883148936171,-0.9172372142764715
-0.0789480714893617,-0.9232110629250059
-0.0789273114893617,-0.9202241386007425
-0.0789065514893617,-0.9215516605226367
-0.0788857914893617,-0.9202241386007425
-0.07886503148936171,-0.9215516605226367
-0.0788442714893617,-0.9212197800421635
-0.0788235114893617,-0.9198922581202688
-0.07880275148936169,-0.9205560190812159
-0.0787819914893617,-0.9198922581202688
-0.0787612314893617,-0.9198922581202688
-0.0787404714893617,-0.9202241386007425
-0.0787197114893617,-0.9192284971593213
-0.07869895148936171,-0.9192284971593213
-0.0786781914893617,-0.918564736198374
-0.0786574314893617,-0.9188966166788476
-0.0786366714893617,-0.9188966166788473
-0.0786159114893617,-0.9182328557179003
-0.07859515148936171,-0.9182328557179003
-0.0785743914893617,-0.9179009752374265
-0.0785536314893617,-0.9188966166788476
-0.07853287148936169,-0.9172372142764794
-0.0785121114893617,-0.9179009752374265
-0.0784913514893617,-0.9169053337960054
-0.0784705914893617,-0.9179009752374265
-0.0784498314893617,-0.9169053337960054
-0.07842907148936171,-0.9169053337960054
-0.0784083114893617,-0.9159096923545843
-0.0783875514893617,-0.9175690947569528
-0.0783667914893617,-0.910931485147454
-0.0783460314893617,-0.8568349668302643
-0.07832527148936171,-0.6762919854526495
-0.0783045114893617,-0.3381057758498592
-0.0782837514893617,0.0920113268440659
-0.07826299148936169,0.4859534571664526
-0.0782422314893617,0.6963656817866875
-0.0782214714893617,0.7401739052092169
-0.0782007114893617,0.7441564709749013
-0.0781799514893617,0.7444883514553751
-0.07815919148936171,0.7444883514553751
-0.0781384314893617,0.7444883514553751
-0.0781176714893617,0.7438245904944276
-0.0780969114893617,0.7441564709749013
-0.0780761514893617,0.7441564709749013
-0.07805539148936171,0.7441564709749013
-0.0780346314893617,0.7438245904944276
-0.0780138714893617,0.7434927100139539
-0.07799311148936169,0.7431608295334806
-0.0779723514893617,0.7438245904944276
-0.0779515914893617,0.7434927100139539
-0.0779308314893617,0.7428289490530066
-0.0779100714893617,0.7431608295334803
-0.07788931148936171,0.7431608295334803
-0.0778685514893617,0.7434927100139539
-0.0778477914893617,0.7431608295334803
-0.07782703148936169,0.7428289490530066
-0.0778062714893617,0.7428289490530066
-0.07778551148936171,0.7428289490530066
-0.0777647514893617,0.7421651880920591
-0.0777439914893617,0.7415014271311117
-0.07772323148936169,0.742165188092059
-0.0777024714893617,0.7418333076115854
-0.0776817114893617,0.7418333076115854
-0.0776609514893617,0.7408376661701643
-0.0776401914893617,0.7418333076115854
-0.07761943148936171,0.7411695466506383
-0.0775986714893617,0.7415014271311117
-0.0775779114893617,0.7401739052092169
-0.07755715148936169,0.7408376661701643
-0.0775363914893617,0.7408376661701643
-0.07751563148936171,0.7405057856896907
-0.0774948714893617,0.7401739052092169
-0.0774741114893617,0.7398420247287432
-0.07745335148936169,0.7381826223263601
-0.0774325914893617,0.7063220962008987
-0.0774118314893617,0.5745655454528368
-0.0773910714893617,0.2821788421555004
-0.0773703114893617,-0.1313442365147393
-0.07734955148936171,-0.5465267175871588
-0.0773287914893617,-0.835594616079947
-0.0773080314893617,-0.918564736198374
-0.07728727148936169,-0.9165734533155339
-0.0772665114893617,-0.9215516605226373
-0.07724575148936171,-0.9182328557179018
-0.0772249914893617,-0.9208878995616899
-0.0772042314893617,-0.9192284971593213
-0.07718347148936169,-0.9195603776397947
-0.0771627114893617,-0.9188966166788476
-0.0771419514893617,-0.918564736198374
-0.0771211914893617,-0.9188966166788476
-0.0771004314893617,-0.9192284971593213
-0.07707967148936171,-0.9182328557179007
-0.0770589114893617,-0.9179009752374265
-0.0770381514893617,-0.9175690947569528
-0.07701739148936169,-0.9182328557178998
-0.0769966314893617,-0.9172372142764791
-0.07697587148936171,-0.9172372142764791
-0.0769551114893617,-0.9172372142764791
-0.0769343514893617,-0.9172372142764791
-0.07691359148936169,-0.9179009752374261
-0.0768928314893617,-0.9169053337960054
-0.0768720714893617,-0.9169053337960054
-0.0768513114893617,-0.916241572835058
-0.0768305514893617,-0.9165734533155316
-0.07680979148936171,-0.9165734533155316
-0.0767890314893617,-0.9159096923545843
-0.0767682714893617,-0.9155778118741106
-0.07674751148936169,-0.9152459313936374
-0.0767267514893617,-0.9165734533155316
-0.07670599148936171,-0.9102677241865341
-0.0766852314893617,-0.8584943692326329
-0.0766644714893617,-0.6825977145815678
-0.07664371148936171,-0.3503853536275374
-0.0766229514893617,0.07906798810559129
-0.0766021914893617,0.4723463574669349
-0.0765814314893617,0.6937106379429209
-0.0765606714893617,0.7444883514553751
-0.07653991148936171,0.743824590494428
-0.0765191514893617,0.7451521124163225
-0.0764983914893617,0.7448202319358488
-0.07647763148936169,0.7451521124163224
-0.0764568714893617,0.7448202319358488
-0.0764361114893617,0.7438245904944276
-0.0764153514893617,0.7444883514553751
-0.0763945914893617,0.7441564709749013
-0.07637383148936171,0.7441564709749013
-0.0763530714893617,0.7444883514553751
-0.0763323114893617,0.7434927100139539
-0.0763115514893617,0.743492710013954
-0.0762907914893617,0.7438245904944276
-0.07627003148936171,0.743492710013954
-0.0762492714893617,0.7431608295334803
-0.0762285114893617,0.7424970685725328
-0.07620775148936169,0.7428289490530066
-0.0761869914893617,0.7428289490530066
-0.0761662314893617,0.7431608295334803
-0.0761454714893617,0.7424970685725328
-0.0761247114893617,0.7418333076115854
-0.07610395148936171,0.742165188092059
-0.0760831914893617,0.7418333076115854
-0.0760624314893617,0.7418333076115854
-0.0760416714893617,0.7421651880920583
-0.0760209114893617,0.7405057856896906
-0.07600015148936171,0.7415014271311112
-0.0759793914893617,0.7411695466506379
-0.0759586314893617,0.7415014271311117
-0.07593787148936169,0.7401739052092173
-0.0759171114893617,0.7411695466506379
-0.0758963514893617,0.7405057856896906
-0.0758755914893617,0.7405057856896906
-0.0758548314893617,0.7401739052092169
-0.07583407148936171,0.7395101442482698
-0.0758133114893617,0.7398420247287432
-0.0757925514893617,0.7398420247287432
-0.0757717914893617,0.7205929568612207
-0.0757510314893617,0.6163824859925239
-0.07573027148936171,0.3561881893012555
-0.0757095114893617,-0.04206838726731199
-0.0756887514893617,-0.4731811314026582
-0.07566799148936169,-0.7917863926574689
-0.0756472314893617,-0.9046257560184782
-0.0756264714893617,-0.9198922581202688
-0.0756057114893617,-0.9202241386007425
-0.0755849514893617,-0.9202241386007425
-0.07556419148936171,-0.9208878995616896
-0.0755434314893617,-0.9198922581202688
-0.0755226714893617,-0.9198922581202688
-0.07550191148936169,-0.9195603776397955
-0.0754811514893617,-0.9205560190812162
-0.07546039148936171,-0.9195603776397955
-0.0754396314893617,-0.9192284971593213
-0.0754188714893617,-0.9188966166788476
-0.07539811148936169,-0.9195603776397945
-0.0753773514893617,-0.9182328557179003
-0.0753565914893617,-0.918564736198374
-0.0753358314893617,-0.9179009752374265
-0.0753150714893617,-0.9179009752374265
-0.07529431148936171,-0.9182328557179001
-0.0752735514893617,-0.9179009752374265
-0.0752527914893617,-0.9179009752374265
-0.07523203148936169,-0.9172372142764794
-0.0752112714893617,-0.9179009752374265
-0.07519051148936171,-0.9172372142764794
-0.0751697514893617,-0.9169053337960054
-0.0751489914893617,-0.9165734533155316
-0.07512823148936169,-0.9165734533155316
-0.0751074714893617,-0.9165734533155316
-0.0750867114893617,-0.9169053337960054
-0.0750659514893617,-0.9152459313936369
-0.0750451914893617,-0.9155778118741106
-0.07502443148936171,-0.8890273734362261
-0.0750036714893617,-0.77320108575089
-0.0749829114893617,-0.4977402869577126
-0.07496215148936169,-0.09118669837722587
-0.0749413914893617,0.3372710019141358
-0.07492063148936171,0.6399460001060195
-0.0748998714893617,0.7335362955997428
-0.0748791114893617,0.7431608295334803
-0.07485835148936169,0.7454839928967955
