system_design/reverb/reverb_c_tests/reverb_early_delay_impulse.csv

#Digilent WaveForms Oscilloscope Acquisition
#Device Name: Discovery2
#Serial Number: SN:210321B053D5
#Date Time: 2025-05-01 14:41:16.436
#Sample rate: 8000Hz
#Samples: 8192
#Trigger: Source: Channel 1 Type: Edge Condition: Rising Level: 0 V Hyst.: Auto HoldOff: 0 s
#Channel 1: Range: 200 mV/div Offset: 0 V Sample Mode: Average
#Channel 2: Range: 200 mV/div Offset: 0 V Sample Mode: Average
#Wavegen Channel 1: Enabled
#Mode: Simple
#Type: Pulse
#Frequency: 1 Hz
#Period: 1 s
#Amplitude: 700 mV
#Offset: 0 V
#Symmetry: 0.1 %
#Phase: 0 °

Time (s),Channel 1 (V),Channel 2 (V)
-0.4383681066176471,-0.00604546544146595,-0.002574610090940783
-0.438243106617647,-0.006377484010736702,-0.002242729610467226
-0.4381181066176471,-0.006045465441466101,-0.002574610090940632
-0.4379931066176471,-0.00604546544146595,-0.002574610090940783
-0.437868106617647,-0.006045465441465648,-0.002574610090940934
-0.4377431066176471,-0.005381428302924144,-0.002906490571414491
-0.4376181066176471,-0.005049409733653241,-0.002906490571414491
-0.4374931066176471,-0.004385372595111737,-0.002574610090940934
-0.4373681066176471,-0.004385372595111435,-0.002574610090940783
-0.437243106617647,-0.004717391164382338,-0.002574610090940934
-0.4371181066176471,-0.004717391164382338,-0.00290649057141434
-0.4369931066176471,-0.004717391164382338,-0.002906490571414491
-0.436868106617647,-0.004385372595111133,-0.002906490571414491
-0.4367431066176471,-0.003721335456569629,-0.002906490571414491
-0.4366181066176471,-0.003721335456569629,-0.002574610090940783
-0.4364931066176471,-0.003057298318028125,-0.00290649057141434
-0.4363681066176471,-0.003057298318027823,-0.002906490571414491
-0.436243106617647,-0.003389316887298726,-0.002574610090940934
-0.4361181066176471,-0.003389316887298726,-0.00290649057141434
-0.4359931066176471,-0.003057298318027823,-0.002574610090940783
-0.435868106617647,-0.003057298318027823,-0.002574610090940934
-0.4357431066176471,-0.003057298318027823,-0.002906490571414491
-0.435618106617647,-0.002393261179486017,-0.002574610090940783
-0.4354931066176471,-0.002061242610215265,-0.00290649057141434
-0.4353681066176471,-0.002393261179486017,-0.002906490571414491
-0.435243106617647,-0.002061242610215115,-0.002906490571414491
-0.4351181066176471,-0.002061242610215115,-0.002906490571414491
-0.4349931066176471,-0.002061242610215115,-0.002906490571414491
-0.434868106617647,-0.002061242610214813,-0.002906490571414491
-0.4347431066176471,-0.001397205471673309,-0.002906490571414491
-0.434618106617647,-0.001397205471673309,-0.002906490571414491
-0.4344931066176471,-0.001065186902402557,-0.002906490571414491
-0.4343681066176471,-0.001065186902402406,-0.002574610090940783
-0.434243106617647,-0.0004011497638604489,-0.002906490571414491
-0.4341181066176471,-6.913119458984787e-05,-0.002906490571414491
-0.4339931066176471,0.000262887374681206,-0.002906490571414491
-0.433868106617647,0.00059490594395226,-0.002574610090940934
-0.4337431066176471,0.0009269245132230119,-0.002906490571414491
-0.433618106617647,0.0009269245132230119,-0.002906490571414491
-0.4334931066176471,0.001258943082493764,-0.002906490571414491
-0.4333681066176471,0.001922980221035721,-0.002906490571414491
-0.433243106617647,0.001922980221035872,-0.002906490571414491
-0.4331181066176471,0.002254998790306473,-0.002906490571414491
-0.4329931066176471,0.002254998790306624,-0.002574610090940783
-0.432868106617647,0.00291903592884843,-0.002574610090940934
-0.4327431066176471,0.00291903592884843,-0.002906490571414491
-0.432618106617647,0.003251054498119332,-0.002574610090940783
-0.4324931066176471,0.003251054498119332,-0.00290649057141434
-0.4323681066176471,0.003583073067390235,-0.002906490571414491
-0.432243106617647,0.003251054498119634,-0.002906490571414491
-0.4321181066176471,0.003915091636660836,-0.002906490571414491
-0.4319931066176471,0.004579128775202944,-0.002906490571414491
-0.431868106617647,0.003915091636661289,-0.002906490571414491
-0.4317431066176471,0.004247110205932042,-0.002906490571414491
-0.431618106617647,0.004247110205932042,-0.002574610090940783
-0.4314931066176471,0.004247110205932042,-0.00290649057141434
-0.4313681066176471,0.004247110205932042,-0.002906490571414491
-0.431243106617647,0.003915091636661289,-0.00290649057141434
-0.4311181066176471,0.004247110205931891,-0.002574610090940934
-0.4309931066176471,0.003915091636661138,-0.002906490571414491
-0.430868106617647,0.003583073067390386,-0.002574610090940783
-0.4307431066176471,0.003915091636661138,-0.002574610090940783
-0.430618106617647,0.003583073067390235,-0.002906490571414491
-0.4304931066176471,0.00424711020593174,-0.002574610090940934
-0.4303681066176471,0.004247110205932042,-0.002906490571414491
-0.430243106617647,0.003583073067390537,-0.002906490571414491
-0.4301181066176471,0.00424711020593174,-0.002906490571414491
-0.4299931066176471,0.003915091636661138,-0.002906490571414491
-0.429868106617647,0.003251054498119182,-0.002574610090940934
-0.4297431066176471,0.00291903592884843,-0.002906490571414491
-0.429618106617647,0.003251054498119332,-0.002574610090940783
-0.4294931066176471,0.00291903592884858,-0.002574610090940783
-0.4293681066176471,0.002587017359577527,-0.002906490571414491
-0.429243106617647,0.002587017359577225,-0.002574610090940783
-0.4291181066176471,0.001922980221036023,-0.002574610090940783
-0.4289931066176471,0.002587017359577527,-0.002574610090940783
-0.428868106617647,0.001590961651764818,-0.002574610090940783
-0.4287431066176471,0.001590961651764818,-0.002574610090940783
-0.428618106617647,0.0009269245132230119,-0.002906490571414491
-0.4284931066176471,0.001258943082493764,-0.002574610090940934
-0.4283681066176471,0.0005949059439521089,-0.002574610090940783
-0.428243106617647,0.000262887374681206,-0.002574610090940783
-0.4281181066176471,0.000262887374681206,-0.002574610090940783
-0.4279931066176471,0.000262887374681206,-0.002574610090940783
-0.427868106617647,-6.913119458954591e-05,-0.002574610090940783
-0.4277431066176471,0.000262887374681206,-0.002574610090940783
-0.427618106617647,-0.0004011497638605998,-0.002574610090940783
-0.4274931066176471,0.0002628873746809041,-0.00290649057141434
-0.4273681066176471,-0.0004011497638605998,-0.002574610090940783
-0.427243106617647,0.000262887374681206,-0.00290649057141434
-0.4271181066176471,0.000262887374681206,-0.002574610090940783
-0.4269931066176471,-0.0004011497638605998,-0.002574610090940783
-0.426868106617647,-6.913119458984788e-05,-0.00290649057141434
-0.4267431066176471,-0.0004011497638605998,-0.002574610090940783
-0.426618106617647,-0.0004011497638605998,-0.002574610090940783
-0.4264931066176471,-0.0004011497638605998,-0.002574610090940783
-0.4263681066176471,-0.001065186902402406,-0.002574610090940783
-0.4262431066176471,-6.913119458969689e-05,-0.002906490571414491
-0.4261181066176471,-0.0004011497638605998,-0.002906490571414491
-0.4259931066176471,-0.0004011497638605998,-0.002906490571414491
-0.4258681066176471,-0.0007331683331315028,-0.002574610090940783
-0.4257431066176471,-0.0007331683331315028,-0.002574610090940783
-0.4256181066176471,-0.001065186902402406,-0.002906490571414491
-0.4254931066176471,-0.0007331683331315028,-0.002906490571414491
-0.4253681066176471,-0.001065186902402406,-0.002574610090940783
-0.4252431066176471,-0.0004011497638605998,-0.002574610090940783
-0.4251181066176471,-0.001397205471673309,-0.002574610090940783
-0.4249931066176471,-0.001065186902402406,-0.002574610090940783
-0.4248681066176471,-0.001729224040944212,-0.002574610090940783
-0.4247431066176471,-0.0007331683331315028,-0.002574610090940783
-0.4246181066176471,-0.001397205471673309,-0.002574610090940783
-0.4244931066176471,-0.001397205471673309,-0.002574610090940783
-0.4243681066176471,-0.001397205471673309,-0.002574610090940783
-0.4242431066176471,-0.002061242610215115,-0.002574610090940783
-0.4241181066176471,-0.001065186902402406,-0.002574610090940783
-0.4239931066176471,-0.002061242610215115,-0.002574610090940783
-0.4238681066176471,-0.002061242610215115,-0.002242729610467075
-0.4237431066176471,-0.002061242610215115,-0.002574610090940783
-0.4236181066176471,-0.001729224040944212,-0.002574610090940783
-0.4234931066176471,-0.002061242610215115,-0.002574610090940783
-0.4233681066176471,-0.00272527974875692,-0.002574610090940783
-0.4232431066176471,-0.002393261179486017,-0.002574610090940783
-0.4231181066176471,-0.002393261179486017,-0.002574610090940783
-0.4229931066176471,-0.002061242610215115,-0.002574610090940783
-0.4228681066176471,-0.00272527974875692,-0.002906490571414491
-0.4227431066176471,-0.002061242610215115,-0.002906490571414491
-0.4226181066176471,-0.002061242610215115,-0.002574610090940783
-0.4224931066176471,-0.002061242610215115,-0.002574610090940783
-0.4223681066176471,-0.002393261179486017,-0.002574610090940783
-0.4222431066176471,-0.002061242610215115,-0.002574610090940783
-0.4221181066176471,-0.002393261179486017,-0.002574610090940783
-0.4219931066176471,-0.00272527974875692,-0.002574610090940783
-0.4218681066176471,-0.002393261179486017,-0.002906490571414491
-0.4217431066176471,-0.002061242610215115,-0.002574610090940783
-0.4216181066176471,-0.002393261179486017,-0.002574610090940783
-0.4214931066176471,-0.00272527974875692,-0.002574610090940783
-0.4213681066176471,-0.00272527974875692,-0.002242729610467075
-0.4212431066176471,-0.003389316887298726,-0.002574610090940783
-0.4211181066176471,-0.003057298318027823,-0.002574610090940783
-0.4209931066176471,-0.003057298318027823,-0.002574610090940783
-0.4208681066176471,-0.003389316887298726,-0.002574610090940783
-0.4207431066176471,-0.003721335456569629,-0.002574610090940783
-0.4206181066176471,-0.003721335456569629,-0.002906490571414491
-0.420493106617647,-0.004053354025840532,-0.002574610090940783
-0.4203681066176471,-0.004385372595111435,-0.002574610090940783
-0.4202431066176471,-0.004717391164382338,-0.002574610090940783
-0.4201181066176471,-0.004717391164382338,-0.002574610090940783
-0.419993106617647,-0.004717391164382338,-0.002574610090940783
-0.4198681066176471,-0.005049409733653241,-0.002574610090940783
-0.4197431066176471,-0.005049409733653241,-0.002906490571414491
-0.4196181066176471,-0.005049409733653241,-0.002574610090940783
-0.419493106617647,-0.00604546544146595,-0.002574610090940783
-0.4193681066176471,-0.00604546544146595,-0.002906490571414491
-0.4192431066176471,-0.005381428302924144,-0.002574610090940783
-0.4191181066176471,-0.00604546544146595,-0.002574610090940783
-0.418993106617647,-0.005381428302924144,-0.002242729610467075
-0.4188681066176471,-0.005381428302924144,-0.002574610090940783
-0.4187431066176471,-0.005713446872195047,-0.002906490571414491
-0.4186181066176471,-0.005713446872195047,-0.002574610090940783
-0.418493106617647,-0.006377484010736852,-0.002574610090940783
-0.4183681066176471,-0.005713446872195047,-0.002242729610467075
-0.4182431066176471,-0.005713446872195047,-0.002574610090940783
-0.4181181066176471,-0.005713446872195047,-0.002574610090940783
-0.417993106617647,-0.006709502580007755,-0.002574610090940783
-0.4178681066176471,-0.00604546544146595,-0.002574610090940783
-0.4177431066176471,-0.00604546544146595,-0.002574610090940783
-0.4176181066176471,-0.005049409733653241,-0.002574610090940783
-0.417493106617647,-0.004717391164382338,-0.002574610090940783
-0.4173681066176471,-0.005713446872195047,-0.002574610090940783
-0.4172431066176471,-0.005381428302924144,-0.002574610090940783
-0.4171181066176471,-0.005381428302924144,-0.002574610090940783
-0.416993106617647,-0.005381428302924144,-0.002906490571414491
-0.4168681066176471,-0.005049409733653241,-0.002574610090940783
-0.4167431066176471,-0.004717391164382338,-0.002574610090940783
-0.4166181066176471,-0.004717391164382338,-0.002574610090940783
-0.416493106617647,-0.004385372595111435,-0.002574610090940783
-0.4163681066176471,-0.004053354025840532,-0.002574610090940783
-0.4162431066176471,-0.003721335456569629,-0.002574610090940783
-0.4161181066176471,-0.003721335456569629,-0.002574610090940783
-0.415993106617647,-0.004053354025840532,-0.002574610090940783
-0.4158681066176471,-0.004053354025840532,-0.002574610090940783
-0.4157431066176471,-0.003389316887298726,-0.002906490571414491
-0.4156181066176471,-0.004053354025840532,-0.002906490571414491
-0.415493106617647,-0.003721335456569629,-0.002574610090940783
-0.4153681066176471,-0.004053354025840532,-0.002574610090940783
-0.4152431066176471,-0.003721335456569629,-0.002906490571414491
-0.4151181066176471,-0.003389316887298726,-0.002574610090940783
-0.414993106617647,-0.003389316887298726,-0.002906490571414491
-0.4148681066176471,-0.00272527974875692,-0.002574610090940783
-0.4147431066176471,-0.002061242610215115,-0.002906490571414491
-0.4146181066176471,-0.002061242610215115,-0.002906490571414491
-0.414493106617647,-0.002061242610215115,-0.002242729610467075
-0.4143681066176471,-0.001729224040944212,-0.002906490571414491
-0.4142431066176471,-0.0004011497638605998,-0.002906490571414491
-0.4141181066176471,-0.001065186902402406,-0.002574610090940783
-0.413993106617647,-0.0007331683331315028,-0.002574610090940783
-0.4138681066176471,-6.913119458969689e-05,-0.002574610090940783
-0.4137431066176471,0.000262887374681206,-0.002574610090940783
-0.4136181066176471,0.000262887374681206,-0.002906490571414491
-0.413493106617647,0.0005949059439521089,-0.002574610090940783
-0.4133681066176471,0.001258943082493915,-0.002906490571414491
-0.4132431066176471,0.001590961651764818,-0.002574610090940783
-0.4131181066176471,0.001922980221035721,-0.002574610090940783
-0.412993106617647,0.002254998790306624,-0.002574610090940783
-0.4128681066176471,0.002587017359577527,-0.002574610090940783
-0.4127431066176471,0.002587017359577527,-0.002906490571414491
-0.4126181066176471,0.00291903592884843,-0.002906490571414491
-0.412493106617647,0.00291903592884843,-0.002906490571414491
-0.4123681066176471,0.002587017359577527,-0.002906490571414491
-0.4122431066176471,0.003251054498119332,-0.002906490571414491
-0.4121181066176471,0.003915091636661138,-0.002906490571414491
-0.411993106617647,0.003251054498119332,-0.002574610090940783
-0.4118681066176471,0.003915091636661138,-0.002574610090940783
-0.4117431066176471,0.004247110205932042,-0.002574610090940783
-0.4116181066176471,0.003915091636661138,-0.002574610090940783
-0.411493106617647,0.004247110205932042,-0.002906490571414491
-0.4113681066176471,0.003915091636661138,-0.002906490571414491
-0.4112431066176471,0.004911147344473847,-0.002574610090940783
-0.4111181066176471,0.004247110205932042,-0.002574610090940783
-0.410993106617647,0.004247110205932042,-0.002906490571414491
-0.4108681066176471,0.003915091636661138,-0.002574610090940783
-0.4107431066176471,0.004247110205932042,-0.002906490571414491
-0.4106181066176471,0.004247110205932042,-0.002574610090940783
-0.4104931066176471,0.004579128775202944,-0.002906490571414491
-0.4103681066176471,0.003583073067390235,-0.002574610090940783
-0.4102431066176471,0.003915091636661138,-0.002574610090940783
-0.4101181066176471,0.003583073067390235,-0.002906490571414491
-0.4099931066176471,0.003583073067390235,-0.002906490571414491
-0.4098681066176471,0.00291903592884843,-0.002906490571414491
-0.4097431066176471,0.003251054498119332,-0.002574610090940783
-0.4096181066176471,0.00291903592884843,-0.002906490571414491
-0.4094931066176471,0.002587017359577527,-0.002574610090940783
-0.4093681066176471,0.001922980221035721,-0.002574610090940783
-0.4092431066176471,0.001590961651764818,-0.002906490571414491
-0.4091181066176471,0.001922980221035721,-0.002906490571414491
-0.4089931066176471,0.001922980221035721,-0.002906490571414491
-0.4088681066176471,0.001258943082493915,-0.002906490571414491
-0.4087431066176471,0.001258943082493915,-0.002906490571414491
-0.4086181066176471,0.001922980221035721,-0.002574610090940783
-0.4084931066176471,0.001258943082493915,-0.002574610090940783
-0.4083681066176471,0.001590961651764818,-0.002906490571414491
-0.4082431066176471,0.001258943082493915,-0.002906490571414491
-0.4081181066176471,0.001258943082493915,-0.002574610090940783
-0.4079931066176471,0.000262887374681206,-0.002906490571414491
-0.4078681066176471,0.0009269245132230119,-0.002906490571414491
-0.4077431066176471,0.000262887374681206,-0.002906490571414491
-0.4076181066176471,0.0005949059439521089,-0.002906490571414491
-0.4074931066176471,-6.913119458969689e-05,-0.002906490571414491
-0.4073681066176471,-6.913119458969689e-05,-0.002574610090940783
-0.4072431066176471,0.000262887374681206,-0.002574610090940783
-0.4071181066176471,0.000262887374681206,-0.002906490571414491
-0.4069931066176471,0.000262887374681206,-0.002574610090940783
-0.4068681066176471,-0.0007331683331315028,-0.002574610090940783
-0.4067431066176471,-6.913119458969689e-05,-0.002574610090940783
-0.4066181066176471,-0.0007331683331315028,-0.002906490571414491
-0.4064931066176471,-0.0004011497638605998,-0.002574610090940783
-0.4063681066176471,-0.001065186902402406,-0.002574610090940783
-0.4062431066176471,-0.001065186902402406,-0.002906490571414491
-0.4061181066176471,-0.0007331683331315028,-0.002574610090940783
-0.4059931066176471,-0.001065186902402406,-0.002906490571414491
-0.4058681066176471,-0.0007331683331315028,-0.002574610090940783
-0.4057431066176471,-0.001397205471673309,-0.002574610090940783
-0.4056181066176471,-0.001397205471673309,-0.002906490571414491
-0.4054931066176471,-0.001397205471673309,-0.002906490571414491
-0.4053681066176471,-0.001065186902402406,-0.002906490571414491
-0.4052431066176471,-0.001397205471673309,-0.002574610090940783
-0.4051181066176471,-0.001065186902402406,-0.002574610090940783
-0.4049931066176471,-0.001729224040944212,-0.002574610090940783
-0.404868106617647,-0.002061242610215115,-0.002574610090940783
-0.4047431066176471,-0.002061242610215115,-0.002906490571414491
-0.4046181066176471,-0.001397205471673309,-0.002906490571414491
-0.4044931066176471,-0.002061242610215115,-0.002574610090940783
-0.404368106617647,-0.002061242610215115,-0.002574610090940783
-0.4042431066176471,-0.002061242610215115,-0.002574610090940783
-0.4041181066176471,-0.002061242610215115,-0.002574610090940783
-0.4039931066176471,-0.001729224040944212,-0.002906490571414491
-0.403868106617647,-0.002061242610215115,-0.002906490571414491
-0.4037431066176471,-0.001729224040944212,-0.002574610090940783
-0.4036181066176471,-0.002061242610215115,-0.002574610090940783
-0.4034931066176471,-0.002061242610215115,-0.002906490571414491
-0.403368106617647,-0.00272527974875692,-0.002574610090940783
-0.4032431066176471,-0.002393261179486017,-0.002574610090940783
-0.4031181066176471,-0.002061242610215115,-0.002574610090940783
-0.4029931066176471,-0.002061242610215115,-0.002574610090940783
-0.402868106617647,-0.002393261179486017,-0.002574610090940783
-0.4027431066176471,-0.002061242610215115,-0.002574610090940783
-0.4026181066176471,-0.002393261179486017,-0.002574610090940783
-0.4024931066176471,-0.00272527974875692,-0.002574610090940783
-0.402368106617647,-0.00272527974875692,-0.002574610090940783
-0.4022431066176471,-0.00272527974875692,-0.002906490571414491
-0.4021181066176471,-0.002393261179486017,-0.002906490571414491
-0.4019931066176471,-0.002061242610215115,-0.002906490571414491
-0.401868106617647,-0.002393261179486017,-0.002906490571414491
-0.4017431066176471,-0.00272527974875692,-0.002906490571414491
-0.4016181066176471,-0.00272527974875692,-0.002574610090940783
-0.4014931066176471,-0.00272527974875692,-0.002574610090940783
-0.401368106617647,-0.003057298318027823,-0.002574610090940783
-0.4012431066176471,-0.003057298318027823,-0.002574610090940783
-0.4011181066176471,-0.00272527974875692,-0.002574610090940783
-0.4009931066176471,-0.003389316887298726,-0.002574610090940783
-0.400868106617647,-0.003057298318027823,-0.002574610090940783
-0.4007431066176471,-0.003057298318027823,-0.002906490571414491
-0.4006181066176471,-0.003389316887298726,-0.002574610090940783
-0.4004931066176471,-0.004385372595111435,-0.002574610090940783
-0.400368106617647,-0.005049409733653241,-0.002574610090940783
-0.4002431066176471,-0.004717391164382338,-0.002574610090940783
