gitfigures/ImplementationTest/12Mhz_clock_before_change.csv

#Digilent WaveForms Oscilloscope Acquisition
#Device Name: Discovery2
#Serial Number: SN:210321B053D5
#Date Time: 2025-05-09 15:35:09.660
#Sample rate: 1e+08Hz
#Samples: 8192
#Trigger: Source: Channel 2 Type: Edge Condition: Rising Level: 280 mV Hyst.: Auto HoldOff: 0 s
#Channel 1: Range: 200 mV/div Offset: 0 V Sample Mode: Average
#Channel 2: Range: 100 mV/div Offset: 0 V Sample Mode: Average
#Wavegen Channel 1: Enabled
#Mode: Simple
#Type: Sine
#Frequency: 1 kHz
#Period: 1 ms
#Amplitude: 250 mV
#Offset: 0 V
#Symmetry: 50 %
#Phase: 0 °

Time (s),Channel 1 (V),Channel 2 (V)
-2.589756097560977e-06,0.001922980221035721,0.2894802127259219
-2.579756097560975e-06,-0.009365651134174979,0.2416894235377081
-2.569756097560974e-06,-0.00172922404094391,0.03891044996827674
-2.559756097560979e-06,-0.001065186902402708,0.04787122294105871
-2.549756097560977e-06,-0.004053354025840532,0.03758292804637784
-2.539756097560976e-06,0.001922980221035721,0.07143473705469602
-2.529756097560974e-06,-0.003721335456569629,0.2831744835969215
-2.519756097560979e-06,-0.002725279748757374,0.2801875592726595
-2.509756097560978e-06,0.002254998790306624,0.2878208103235534
-2.499756097560976e-06,-0.004385372595111435,0.2649210571708676
-2.489756097560974e-06,0.000262887374681206,0.04853498390201019
-2.479756097560973e-06,-0.0007331683331327107,0.04687558149963712
-2.469756097560978e-06,-0.003389316887298726,0.03691916708543043
-2.459756097560976e-06,0.000262887374681206,0.05284943014816839
-2.449756097560975e-06,-0.001729224040944212,0.2698992643779732
-2.439756097560973e-06,-0.003721335456569177,0.2801875592726616
-2.429756097560978e-06,-0.002725279748757374,0.2878208103235499
-2.419756097560977e-06,-6.913119458969689e-05,0.2798556787921844
-2.409756097560975e-06,-0.002061242610215115,0.06446524696474817
-2.399756097560974e-06,-0.001065186902402708,0.04355677669490171
-2.389756097560979e-06,-0.00172922404094391,0.037251047565907
-2.379756097560977e-06,-0.003721335456569629,0.04422053765585199
-2.369756097560976e-06,-0.0007331683331315028,0.2506501965104981
-2.359756097560974e-06,-6.913119458969689e-05,0.2828426031164478
-2.349756097560979e-06,-0.001065186902401953,0.2868251688821304
-2.339756097560978e-06,0.001590961651764818,0.2861614079211849
-2.329756097560976e-06,-0.002061242610215115,0.08935628300027623
-2.319756097560974e-06,-6.913119458969689e-05,0.04123361333158863
-2.309756097560973e-06,0.0002628873746789413,0.03990609140969349
-2.299756097560978e-06,-0.004717391164382338,0.03924233044874638
-2.289756097560976e-06,-0.0004011497638605998,0.2231041166311804
-2.279756097560975e-06,-0.004053354025840532,0.2838382445578689
-2.269756097560973e-06,-0.005381428302919464,0.2841701250383439
-2.259756097560978e-06,0.004911147344469167,0.2871570493626047
-2.249756097560977e-06,-0.003057298318027823,0.1232080920085944
-2.239756097560975e-06,0.001922980221035721,0.04056985237064121
-2.229756097560974e-06,0.001922980221032701,0.04488429861679594
-2.219756097560979e-06,-0.004717391164379319,0.0372510475659076
-2.209756097560977e-06,0.003915091636661138,0.1902479490642834
-2.199756097560975e-06,-0.003057298318027823,0.2858295274407112
-2.189756097560974e-06,-0.005049409733653241,0.2821788421555004
-2.179756097560979e-06,0.003915091636657062,0.2884845712844979
-2.169756097560977e-06,-0.005049409733653241,0.160046825341176
-2.159756097560976e-06,0.00291903592884843,0.03691916708543043
-2.149756097560974e-06,0.003251054498119332,0.04654370101916794
-2.139756097560973e-06,-0.006045465441460514,0.03924233044879739
-2.129756097560978e-06,0.005907203052286556,0.1514179328488596
-2.119756097560976e-06,-0.004053354025840532,0.2864932884016586
-2.109756097560975e-06,-0.004053354025840532,0.2805194397531318
-2.099756097560973e-06,0.001258943082488932,0.2884845712844593
-2.089756097560978e-06,-0.009697669703445882,0.1972174391542312
-2.079756097560977e-06,0.000262887374681206,0.03691916708543043
-2.069756097560975e-06,-0.0004011497638605998,0.04853498390201019
-2.059756097560973e-06,-0.005049409733648259,0.03824668900735891
-2.049756097560979e-06,0.005907203052281574,0.1122560361529284
-2.039756097560977e-06,-0.003389316887298726,0.2888164517649746
-2.029756097560975e-06,-0.004053354025840532,0.2781962763898159
-2.019756097560974e-06,0.003915091636661138,0.2874889298430797
-2.009756097560979e-06,-0.01069372541125195,0.2310692481625751
-1.999756097560977e-06,0.000262887374681206,0.03791480852685155
-1.989756097560976e-06,0.0005949059439521089,0.0488668643824839
-1.979756097560974e-06,-0.004385372595111435,0.03924233044874638
-1.969756097560973e-06,0.003251054498116917,0.08105927098852651
-1.959756097560978e-06,-0.002061242610215115,0.2854976469602374
-1.949756097560976e-06,-0.001397205471673309,0.2778643959093422
-1.939756097560975e-06,0.001258943082493915,0.2891483322454482
-1.929756097560973e-06,-0.004717391164380224,0.2592790890027163
-1.919756097560978e-06,-6.913119458969689e-05,0.04322489621443087
-1.909756097560977e-06,-0.002061242610215115,0.04720746198011536
-1.899756097560975e-06,-0.003389316887298726,0.03857856948779897
-1.889756097560973e-06,-6.913119459075379e-05,0.05815951783584657
-1.879756097560979e-06,-0.002393261179484961,0.2755412325459274
-1.869756097560977e-06,-0.004717391164382338,0.2798556787921844
-1.859756097560975e-06,-0.002061242610215115,0.2884845712845008
-1.849756097560974e-06,-0.0007331683331315028,0.2762049935069736
-1.839756097560979e-06,-0.001397205471673007,0.05749575687489974
-1.829756097560977e-06,-0.0007331683331315028,0.04488429861679941
-1.819756097560976e-06,-0.001729224040944212,0.03857856948779897
-1.809756097560974e-06,-0.003057298318027823,0.04521617909727312
-1.799756097560979e-06,-0.002061242610215568,0.2569559256394023
-1.789756097560978e-06,-0.00272527974875692,0.2821788421555004
-1.779756097560976e-06,-0.004717391164382338,0.2868251688821323
-1.769756097560975e-06,-0.002061242610215115,0.2854976469602374
-1.759756097560973e-06,-0.002393261179485867,0.08139115146888988
-1.749756097560978e-06,-0.002061242610215115,0.04322489621443087
-1.739756097560977e-06,0.0009269245132230119,0.04090173285111492
-1.729756097560975e-06,-0.003721335456569629,0.04056985237064121
-1.719756097560973e-06,0.0002628873746790923,0.2323967700844673
-1.709756097560978e-06,-0.004385372595109321,0.2831744835968984
-1.699756097560977e-06,-0.002393261179486017,0.2864932884016586
-1.689756097560975e-06,0.002587017359577527,0.2878208103235534
-1.679756097560974e-06,-0.006045465441463685,0.1122560361529298
-1.669756097560979e-06,-0.00106518690240467,0.04123361333162091
-1.659756097560977e-06,0.0005949059439521089,0.0445524181363257
-1.649756097560976e-06,-0.005049409733653241,0.03924233044874638
-1.639756097560974e-06,0.001590961651764818,0.1998724829980209
-1.629756097560979e-06,-0.00471739116437947,0.285165766479725
-1.619756097560978e-06,-0.003721335456569629,0.2828426031164478
-1.609756097560976e-06,0.00291903592884843,0.2874889298430797
-1.599756097560974e-06,-0.007705558287820465,0.1461078451612803
-1.589756097560973e-06,-6.913119458954591e-05,0.0392423304487491
-1.579756097560978e-06,0.000262887374681206,0.04521617909727312
-1.569756097560976e-06,-0.007705558287820465,0.03791480852685155
-1.559756097560975e-06,0.002587017359577527,0.163365630145913
-1.549756097560973e-06,-0.004053354025841287,0.2884845712844977
-1.539756097560978e-06,-0.005713446872194292,0.2815150811945561
-1.529756097560977e-06,0.002254998790306624,0.2888164517649746
-1.519756097560975e-06,-0.01036170684198769,0.1846059808962303
-1.509756097560974e-06,-0.0004011497638598449,0.0362554061244886
-1.499756097560979e-06,0.00125894308249316,0.04853498390200461
-1.489756097560977e-06,-0.004717391164382338,0.03824668900732526
-1.479756097560976e-06,0.008231333037182877,0.1235399724890681
-1.469756097560974e-06,-0.005049409733653241,0.2891483322454482
-1.459756097560979e-06,-0.003721335456570233,0.2798556787921886
-1.449756097560978e-06,0.003251054498119332,0.2888164517649746
-1.439756097560976e-06,-0.01069372541125859,0.222440355670233
-1.429756097560974e-06,-0.0004011497638605998,0.03691916708543043
-1.419756097560973e-06,-6.913119459075379e-05,0.04654370101916432
-1.409756097560978e-06,-0.002393261179486017,0.03857856948779897
-1.399756097560976e-06,0.00524316591374475,0.09167944636359218
-1.389756097560975e-06,-0.004385372595111435,0.2864932884016586
-1.379756097560973e-06,-0.003389316887297065,0.2798556787921888
-1.369756097560978e-06,0.000262887374679545,0.2894802127259176
-1.359756097560977e-06,-0.007373539718549561,0.251977718432393
-1.349756097560975e-06,0.0005949059439521089,0.04256113525348346
-1.339756097560974e-06,-0.0007331683331324088,0.04853498390200491
-1.329756097560979e-06,-0.002725279748756014,0.03691916708543571
-1.319756097560977e-06,0.000262887374681206,0.06546088840616929
-1.309756097560976e-06,-0.004717391164382338,0.2798556787921844
-1.299756097560974e-06,-0.005049409733653241,0.2785281568702896
-1.289756097560979e-06,-0.0004011497638627135,0.2864932884016549
-1.279756097560978e-06,-0.003057298318027823,0.2725543082217629
-1.269756097560976e-06,0.0009269245132230119,0.05384507158958952
-1.259756097560974e-06,-0.001065186902402406,0.04720746198011536
-1.249756097560973e-06,-0.003057298318027219,0.03891044996827735
-1.239756097560978e-06,-0.001729224040944212,0.04919874486295761
-1.229756097560976e-06,-0.003057298318027823,0.2639254157294464
-1.219756097560975e-06,-0.00272527974875692,0.281515081194553
-1.209756097560973e-06,-0.003057298318026464,0.2878208103235514
-1.199756097560978e-06,-6.913119459105556e-05,0.2835063640773972
-1.189756097560977e-06,-0.001729224040944212,0.07375790041801197
-1.179756097560975e-06,-0.00272527974875692,0.04422053765585199
-1.169756097560974e-06,-0.002393261179486772,0.04023797189016826
-1.159756097560979e-06,-0.004053354025839778,0.04189737429253528
-1.149756097560977e-06,-0.002393261179486017,0.2406937820962869
-1.139756097560975e-06,-0.002061242610215115,0.2825107226359741
-1.129756097560974e-06,-0.003389316887298726,0.2858295274407112
-1.119756097560979e-06,0.0005949059439502966,0.2864932884016583
-1.109756097560977e-06,-0.003057298318027823,0.100972099816856
-1.099756097560976e-06,-0.003057298318027823,0.04222925477300975
-1.089756097560974e-06,-0.0004011497638605998,0.04222925477300975
-1.079756097560973e-06,-0.005381428302921879,0.03824668900740313
-1.069756097560978e-06,-0.0004011497638605998,0.2094970169317584
-1.059756097560976e-06,-0.004053354025840532,0.28483388599929
-1.049756097560975e-06,-0.004385372595111435,0.2835063640773952
-1.039756097560973e-06,0.001258943082489989,0.2884845712844313
-1.029756097560978e-06,-0.007373539718549561,0.1354876697861216
-1.019756097560977e-06,-6.913119458969689e-05,0.03924233044874638
-1.009756097560975e-06,-6.913119458969689e-05,0.04388865717537829
-9.997560975609734e-07,-0.005713446872190668,0.03957421092928091
-9.897560975609786e-07,0.00391509163665676,0.1733220445600634
-9.79756097560977e-07,-0.004385372595111435,0.2864932884016586
-9.697560975609754e-07,-0.006709502580007755,0.2818469616750267
-9.597560975609738e-07,0.00291903592884843,0.2878208103235534
-9.49756097560979e-07,-0.007705558287815634,0.1759770884039648
-9.397560975609774e-07,-0.0007331683331315028,0.03758292804637784
-9.297560975609758e-07,-0.0004011497638605998,0.04753934246058907
-9.197560975609742e-07,-0.008037576857091368,0.03758292804637784
-9.097560975609726e-07,0.003583073067386763,0.1338282673838237
-8.997560975609778e-07,-0.004053354025840532,0.2891483322454482
-8.897560975609762e-07,-0.002061242610215115,0.2795237983117107
-8.797560975609746e-07,0.000262887374681206,0.2884845712845008
-8.69756097560973e-07,-0.01069372541125285,0.213479582697362
-8.597560975609782e-07,0.001922980221035721,0.03559164516353559
-8.497560975609766e-07,0.001258943082493915,0.04953062534343132
-8.39756097560975e-07,-0.005381428302924144,0.03625540612448301
-8.297560975609734e-07,0.005243165913740674,0.09831705597315221
-8.197560975609785e-07,-0.003721335456565553,0.2871570493625201
-8.097560975609769e-07,-0.002393261179486017,0.2788600373507633
-7.997560975609753e-07,-6.913119458969689e-05,0.2864932884016586
-7.897560975609738e-07,-0.006377484010736852,0.2456719893033925
-7.797560975609789e-07,0.0002628873746781868,0.03924233044884026
-7.697560975609773e-07,-0.0007331683331315028,0.04753934246058907
-7.597560975609757e-07,-0.003389316887298726,0.03758292804637784
-7.497560975609741e-07,0.001590961651764818,0.06977533465232749
-7.397560975609793e-07,-0.002393261179484206,0.2801875592725624
-7.297560975609777e-07,-0.00272527974875692,0.279191917831237
-7.197560975609761e-07,0.000262887374681206,0.2891483322454482
-7.097560975609745e-07,-0.003389316887298726,0.2672442205341836
-6.997560975609729e-07,-0.001729224040945269,0.04919874486295716
-6.897560975609781e-07,-0.004053354025840532,0.04820310342153648
-6.797560975609765e-07,-0.0007331683331315028,0.03924233044874638
-6.697560975609749e-07,-0.002393261179486017,0.05085814726532615
-6.597560975609733e-07,-0.003389316887298575,0.2695673838975046
-6.497560975609785e-07,-0.003057298318027974,0.2808513202336004
-6.397560975609769e-07,-0.001397205471673309,0.2874889298430797
-6.297560975609753e-07,-6.913119458969689e-05,0.281515081194553
-6.197560975609737e-07,-6.913119458984788e-05,0.06745217128900219
-6.097560975609789e-07,-0.0004011497638604489,0.04687558149965101
-5.997560975609773e-07,0.000262887374681206,0.0399060914096938
-5.897560975609757e-07,-0.004053354025840532,0.04322489621443087
-5.797560975609741e-07,-0.002393261179486017,0.2479951526667085
-5.697560975609792e-07,-0.002061242610215265,0.2831744835969055
-5.597560975609776e-07,-0.002061242610215115,0.2851657664797638
-5.49756097560976e-07,0.002254998790306624,0.2861614079211849
-5.397560975609744e-07,-0.001397205471673309,0.09466637068785555
-5.297560975609729e-07,-0.0007331683331308989,0.04388865717537677
-5.19756097560978e-07,0.0005949059439521089,0.04056985237064121
-5.097560975609764e-07,-0.00604546544146595,0.03824668900732526
-4.997560975609748e-07,-0.001397205471673309,0.2174621484631274
-4.897560975609732e-07,-0.001397205471674516,0.2838382445578689
-4.797560975609784e-07,-0.004053354025839325,0.2838382445578689
-4.697560975609768e-07,0.00291903592884843,0.287157049362606
-4.597560975609752e-07,-0.007041521149278658,0.1261950163328578
-4.497560975609736e-07,-0.001729224040943155,0.04023797189016841
-4.397560975609788e-07,0.000594905943951052,0.04222925477300885
-4.297560975609772e-07,-0.007041521149278658,0.03791480852685155
-4.197560975609756e-07,0.003251054498119332,0.1812871760914933
-4.09756097560974e-07,-0.005713446872195047,0.2861614079211849
-3.997560975609792e-07,-0.007373539718548807,0.2825107226359758
-3.897560975609776e-07,0.001258943082493915,0.2884845712845008
-3.79756097560976e-07,-0.009033632564904076,0.1663525544701764
-3.697560975609744e-07,0.001590961651764818,0.03824668900732526
-3.597560975609728e-07,-0.0004011497638643744,0.04621182053869062
-3.49756097560978e-07,-0.008701613995633174,0.03824668900732526
-3.397560975609764e-07,0.003251054498119332,0.144116562278438
-3.297560975609748e-07,-0.005381428302924144,0.2878208103235534
-3.197560975609732e-07,-0.005381428302920218,0.2791919178312414
-3.097560975609783e-07,0.003251054498115407,0.2888164517649702
-2.997560975609767e-07,-0.01036170684198769,0.2048506902051265
-2.897560975609751e-07,0.000262887374681206,0.0359235256440093
-2.797560975609736e-07,0.0009269245132199922,0.0478712229410584
-2.697560975609787e-07,-0.005713446872192027,0.03824668900732964
-2.597560975609771e-07,0.006903258760099265,0.1062821875044353
-2.497560975609755e-07,-0.005713446872195047,0.2891483322454482
-2.397560975609739e-07,-0.002061242610215115,0.2781962763898159
-2.297560975609791e-07,0.001258943082492405,0.2901439736868639
-2.197560975609775e-07,-0.01268583682688401,0.2373749772915499
-2.097560975609759e-07,-0.003057298318027823,0.03857856948779897
-1.997560975609743e-07,-0.001065186902402406,0.04820310342153648
-1.897560975609727e-07,-0.005381428302919313,0.03758292804639535
-1.797560975609779e-07,0.00524316591374475,0.07608106378132792
-1.697560975609763e-07,-0.003389316887298726,0.2835063640773952
-1.597560975609747e-07,-0.002061242610215115,0.2785281568702896
-1.497560975609731e-07,0.002254998790303151,0.2884845712844892
-1.397560975609783e-07,-0.005381428302920672,0.2629297742880369
-1.297560975609767e-07,-6.913119458969689e-05,0.04621182053869424
-1.197560975609751e-07,0.000262887374681206,0.04787122294106278
-1.097560975609735e-07,-0.002393261179484961,0.03758292804638614
-9.975609756097866e-08,-6.913119459075372e-05,0.05583635447242347
-8.975609756097706e-08,-0.003389316887298726,0.271226786299868
-7.975609756097547e-08,-0.004385372595111435,0.2801875592726581
-6.975609756097387e-08,-0.003721335456569629,0.2881526908040271
-5.975609756097905e-08,-0.002725279748757374,0.2772006349483997
-4.975609756097745e-08,0.000262887374681206,0.06247396408190591
-3.975609756097585e-08,-0.003057298318027823,0.04488429861679941
-2.975609756097425e-08,-0.002061242610215115,0.03891044996827267
-1.975609756097265e-08,-0.004053354025839929,0.04355677669499996
-9.75609756097783e-09,-0.00272527974875692,0.2533052403542878
2.439024390237681e-10,-0.00272527974875692,0.2805194397531318
1.024390243902537e-08,-0.004717391164382338,0.28483388599929
2.024390243902696e-08,-0.0004011497638613548,0.2841701250382532
3.024390243902179e-08,-0.002061242610215115,0.0876968805979077
4.024390243902339e-08,-0.001397205471673309,0.04289301573395717
5.024390243902498e-08,-0.001065186902402406,0.03957421092922009
6.024390243902658e-08,-0.00538142830292203,0.04023797189025141
7.02439024390214e-08,-0.0007331683331336164,0.2247635190334651
8.0243902439023e-08,-0.004053354025840532,0.2831744835969215
9.02439024390246e-08,-0.004385372595111435,0.2841701250383426
1.002439024390262e-07,0.002254998790306624,0.2868251688821323
1.10243902439021e-07,-0.006045465441462176,0.1192255262429861
1.202439024390226e-07,-0.002061242610215115,0.04090173285111492
1.302439024390242e-07,-6.913119458969689e-05,0.04388865717537829
1.402439024390258e-07,-0.008701613995633174,0.03824668900732526
1.502439024390206e-07,0.002919035928843145,0.1912435905056349
1.602439024390222e-07,-0.003721335456569629,0.2858295274407112
1.702439024390238e-07,-0.004385372595111435,0.2821788421555004
1.802439024390254e-07,0.000262887374681206,0.2864932884016586
1.90243902439027e-07,-0.01036170684198437,0.1563961400559115
2.002439024390219e-07,-0.003057298318027823,0.03824668900732526
2.102439024390235e-07,-0.0004011497638605998,0.04587994005822053
2.20243902439025e-07,-0.007373539718549561,0.03824668900732526
2.302439024390266e-07,0.006571240190823077,0.1540729766927096
2.402439024390215e-07,-0.005049409733647957,0.2868251688820719
2.502439024390231e-07,-0.004717391164382338,0.2778643959093422
2.602439024390247e-07,0.001590961651764818,0.287157049362606
2.702439024390263e-07,-0.01102574398052949,0.1932348733885467
2.802439024390211e-07,-0.001397205471677687,0.03592352564408083
2.902439024390227e-07,-0.0004011497638605998,0.04521617909727312
3.002439024390243e-07,-0.005381428302924144,0.03791480852685155
3.102439024390259e-07,0.006239221621557459,0.1149110799967517
3.202439024390207e-07,-0.003389316887294348,0.2888164517648955
3.302439024390223e-07,-0.003057298318027823,0.2795237983117107
3.402439024390239e-07,0.003583073067390235,0.2884845712845008
3.502439024390255e-07,-0.008369595426362271,0.2290779652797072
3.602439024390271e-07,-6.913119459045181e-05,0.03691916708543556
3.702439024390219e-07,-0.001729224040944212,0.04820310342153648
3.802439024390235e-07,-0.004717391164382338,0.0359235256440093
3.902439024390251e-07,0.003915091636661138,0.0830505538712758
4.002439024390267e-07,-0.003389316887298273,0.2838382445578662
4.102439024390215e-07,-0.002393261179486471,0.2778643959093449
4.202439024390231e-07,0.0005949059439521089,0.2884845712845008
4.302439024390247e-07,-0.008701613995633174,0.2556284037176038
