gitfigures/ImplementationTest/allfxfiroverdrive_computationtime.csv

#Digilent WaveForms Oscilloscope Acquisition
#Device Name: Discovery2
#Serial Number: SN:210321B053D5
#Date Time: 2025-05-15 15:16:05.458
#Sample rate: 1.42857e+07Hz
#Samples: 8192
#Trigger: Source: Channel 1 Type: Edge Condition: Rising Level: 0 V Hyst.: Auto HoldOff: 0 s
#Channel 1: Range: 1 V/div Offset: 0 V Sample Mode: Average
#Channel 2: Range: 1 V/div Offset: 0 V Sample Mode: Average

Time (s),Channel 1 (V),Channel 2 (V)
-0.0004168343307853843,3.273206997098518,3.271082069127263
-0.0004167643307853843,3.280506323215618,3.271082069127263
-0.0004166943307853843,3.27320699709852,3.267433795457603
-0.0004166243307853843,3.276856660157068,3.267433795457603
-0.0004165543307853843,3.269557334039969,3.271082069127263
-0.0004164843307853843,3.280506323215615,3.274730342796917
-0.0004164143307853843,3.273206997098518,3.263785521787943
-0.0004163443307853843,3.280506323215618,3.267433795457603
-0.0004162743307853843,3.269557334039974,3.271082069127261
-0.0004162043307853843,3.280506323215618,3.267433795457603
-0.0004161343307853843,3.276856660157068,3.271082069127263
-0.0004160643307853843,3.276856660157066,3.267433795457601
-0.0004159943307853843,3.273206997098518,3.263785521787943
-0.0004159243307853843,3.284155986274168,3.271082069127263
-0.0004158543307853843,3.276856660157066,3.267433795457605
-0.0004157843307853843,3.273206997098518,3.271082069127263
-0.0004157143307853843,3.269557334039969,3.267433795457603
-0.0004156443307853843,3.273206997098517,3.267433795457601
-0.0004155743307853843,3.269557334039971,3.263785521787945
-0.0004155043307853843,3.273206997098518,3.260137248118283
-0.0004154343307853843,3.273206997098517,3.260137248118286
-0.0004153643307853843,3.269557334039971,3.2674337954576
-0.0004152943307853843,3.265907670981419,3.263785521787943
-0.0004152243307853843,3.27320699709852,3.263785521787943
-0.0004151543307853843,3.276856660157066,3.263785521787943
-0.0004150843307853843,3.273206997098518,3.267433795457603
-0.0004150143307853843,3.280506323215618,3.27108206912726
-0.0004149443307853843,3.280506323215618,3.263785521787946
-0.0004148743307853843,3.276856660157068,3.274730342796922
-0.0004148043307853843,3.284155986274165,3.263785521787945
-0.0004147343307853843,3.276856660157071,3.267433795457601
-0.0004146643307853843,3.276856660157068,3.260137248118283
-0.0004145943307853843,3.273206997098522,3.267433795457605
-0.0004145243307853843,3.280506323215615,3.271082069127261
-0.0004144543307853843,3.273206997098518,3.263785521787943
-0.0004143843307853843,3.280506323215616,3.263785521787941
-0.0004143143307853843,3.27685666015707,3.260137248118285
-0.0004142443307853843,3.280506323215618,3.263785521787943
-0.0004141743307853843,3.276856660157066,3.263785521787941
-0.0004141043307853843,3.27320699709852,3.260137248118285
-0.0004140343307853843,3.280506323215618,3.271082069127263
-0.0004139643307853843,3.276856660157073,3.256488974448626
-0.0004138943307853843,3.287805649332713,3.26378552178794
-0.0004138243307853843,3.280506323215618,3.267433795457603
-0.0004137543307853843,3.284155986274168,3.263785521787946
-0.0004136843307853843,3.284155986274168,3.27108206912726
-0.0004136143307853843,3.284155986274168,3.271082069127263
-0.0004135443307853843,3.276856660157071,3.267433795457605
-0.0004134743307853843,3.284155986274165,3.271082069127261
-0.0004134043307853843,3.284155986274168,3.278378616466582
-0.0004133343307853843,3.280506323215618,3.278378616466579
-0.0004132643307853843,3.280506323215618,3.271082069127266
-0.0004131943307853843,3.280506323215618,3.274730342796922
-0.0004131243307853843,3.276856660157068,3.267433795457603
-0.0004130543307853843,3.276856660157068,3.267433795457603
-0.0004129843307853843,3.284155986274168,3.267433795457603
-0.0004129143307853843,3.280506323215618,3.271082069127265
-0.0004128443307853843,3.280506323215618,3.274730342796921
-0.0004127743307853843,3.284155986274168,3.274730342796922
-0.0004127043307853843,3.276856660157068,3.278378616466582
-0.0004126343307853843,3.276856660157068,3.267433795457608
-0.0004125643307853843,3.276856660157068,3.267433795457603
-0.0004124943307853843,3.273206997098518,3.267433795457603
-0.0004124243307853843,3.262258007922874,3.267433795457603
-0.0004123543307853843,3.284155986274168,3.267433795457603
-0.0004122843307853843,3.269557334039969,3.263785521787943
-0.0004122143307853843,3.276856660157065,3.27108206912726
-0.0004121443307853843,3.276856660157068,3.271082069127263
-0.0004120743307853843,3.273206997098518,3.274730342796922
-0.0004120043307853843,3.276856660157066,3.271082069127265
-0.0004119343307853843,3.276856660157068,3.274730342796922
-0.0004118643307853843,3.276856660157068,3.274730342796922
-0.0004117943307853843,3.27320699709852,3.271082069127265
-0.0004117243307853843,3.273206997098518,3.267433795457603
-0.0004116543307853843,3.280506323215618,3.278378616466582
-0.0004115843307853843,3.280506323215618,3.274730342796924
-0.0004115143307853843,3.280506323215618,3.274730342796922
-0.0004114443307853843,3.276856660157068,3.271082069127263
-0.0004113743307853843,3.280506323215616,3.274730342796921
-0.0004113043307853843,3.280506323215618,3.278378616466582
-0.0004112343307853843,3.284155986274168,3.274730342796922
-0.0004111643307853843,3.284155986274168,3.274730342796922
-0.0004110943307853843,3.280506323215618,3.274730342796922
-0.0004110243307853843,3.280506323215618,3.282026890136242
-0.0004109543307853843,3.280506323215618,3.26743379545761
-0.0004108843307853843,3.433792171674709,2.063503484469859
-0.0004108143307853843,3.138169463932177,-0.1655917276922961
-0.0004107443307853843,3.207513062044591,-0.08897798062947454
-0.0004106743307853843,3.302404301566917,0.0496564188176338
-0.0004106043307853843,3.302404301566917,0.024118503130015
-0.0004105343307853843,3.280506323215628,-0.01236423356656671
-0.0004104643307853843,2.316995275758477,0.12991843955015
-0.0004103943307853843,-0.08448301676727595,-0.1437020856743371
-0.0004103243307853843,0.01770754887207132,-0.05249524393288289
-0.0004102543307853843,0.04690485334051601,0.01317368212103551
-0.0004101843307853843,0.03960552722341645,-0.01601250723624312
-0.0004101143307853843,0.01405788581357964,-0.02695732824521763
-0.0004100443307853843,0.0177075488721178,-0.03060560191488244
-0.0004099743307853843,0.01405788581356802,-0.02695732824522261
-0.0004099043307853843,0.006758559696471786,-0.03425387558453895
-0.0004098343307853843,0.00310889663791869,-0.03425387558454226
-0.0004097643307853843,0.00310889663791869,-0.04155042292386192
-0.0004096943307853843,-0.004190429479177544,-0.03790214925420375
-0.0004096243307853843,-0.004190429479180863,-0.04155042292386192
-0.0004095543307853843,-0.01148975559628042,-0.03060560191488244
-0.0004094843307853843,-0.004190429479184183,-0.03790214925419878
-0.0004094143307853843,-0.007840092537730639,-0.04155042292386192
-0.0004093443307853843,-0.004190429479180863,-0.03790214925420209
-0.0004092743307853843,-0.0114897555962771,-0.03790214925420209
-0.0004092043307853843,-0.004190429479180863,-0.03060560191488244
-0.0004091343307853843,-0.01148975559628042,-0.03425387558454226
-0.0004090643307853843,-0.0078400925377323,-0.03790214925420043
-0.0004089943307853843,-0.007840092537730639,-0.03790214925420209
-0.0004089243307853843,-0.007840092537730639,-0.04155042292386192
-0.0004088543307853843,-0.01878908171337499,-0.03790214925420375
-0.0004087843307853843,-0.007840092537730639,-0.03425387558454226
-0.0004087143307853843,-0.007840092537730639,-0.03790214925420209
-0.0004086443307853843,-0.007840092537730639,-0.03790214925420209
-0.0004085743307853843,-0.01148975559628042,-0.03425387558454226
-0.0004085043307853843,-0.01513941865483019,-0.03425387558454226
-0.0004084343307853843,-0.007840092537733958,-0.0306056019148841
-0.0004083643307853843,-0.01148975559628042,-0.03425387558454226
-0.0004082943307853843,-0.007840092537730639,-0.03425387558454226
-0.0004082243307853843,-0.007840092537733958,-0.03790214925420043
-0.0004081543307853843,-0.01513941865483019,-0.03425387558454226
-0.0004080843307853843,-0.01148975559628042,-0.03425387558454226
-0.0004080143307853843,-0.01513941865483019,-0.03060560191488742
-0.0004079443307853843,-0.01513941865483019,-0.04155042292386192
-0.0004078743307853843,-0.007840092537730639,-0.03060560191488244
-0.0004078043307853843,-0.004190429479185842,-0.03425387558454392
-0.0004077343307853843,-0.01513941865483019,-0.03790214925420209
-0.0004076643307853843,-0.01148975559628042,-0.03060560191488244
-0.0004075943307853843,-0.01148975559627378,-0.03060560191488244
-0.0004075243307853843,0.00310889663791869,-0.03060560191488244
-0.0004074543307853843,-0.01148975559628042,-0.03425387558454226
-0.0004073843307853843,-0.01148975559628042,-0.0415504229238586
-0.0004073143307853843,-0.01148975559628042,-0.03425387558454226
-0.0004072443307853843,-0.007840092537730639,-0.03425387558454226
-0.0004071743307853843,-0.01513941865482687,-0.03425387558454226
-0.0004071043307853843,-0.007840092537730639,-0.03425387558454226
-0.0004070343307853843,-0.01148975559628042,-0.02695732824522261
-0.0004069643307853843,-0.007840092537727321,-0.02330905457556278
-0.0004068943307853843,-0.0005407664206310866,-0.02330905457556278
-0.0004068243307853843,-0.007840092537730639,-0.03425387558454226
-0.0004067543307853843,-0.01148975559627876,-0.02330905457555946
-0.0004066843307853843,-0.007840092537730639,-0.01601250723624312
-0.0004066143307853843,-0.007840092537730639,-0.02330905457556278
-0.0004065443307853843,-0.01513941865482853,-0.02330905457556112
-0.0004064743307853843,-0.01148975559628042,-0.01966078090590295
-0.0004064043307853843,-0.007840092537730639,-0.01601250723624312
-0.0004063343307853843,2.900941365126577,0.0678977871658417
-0.0004062643307853843,3.200213735927523,-0.1327572646653576
-0.0004061943307853843,3.24036002957157,-0.01966078090590295
-0.0004061243307853843,3.262258007922869,-0.008715959896931759
-0.0004060543307853843,3.262258007922869,-0.02695732824522261
-0.0004059843307853843,3.08707418111248,0.5968974692666081
-0.0004059143307853843,3.441091497791744,3.570240510039224
-0.0004058443307853843,3.298754638508367,3.252840700778964
-0.0004057743307853843,3.24765935568867,3.194468322064406
-0.0004057043307853843,3.276856660157073,3.267433795457606
-0.0004056343307853843,3.287805649332717,3.274730342796922
-0.0004055643307853843,3.287805649332717,3.271082069127263
-0.0004054943307853843,3.295104975449814,3.267433795457603
-0.0004054243307853843,3.287805649332717,3.267433795457603
-0.0004053543307853843,3.287805649332717,3.278378616466582
-0.0004052843307853843,3.287805649332721,3.278378616466584
-0.0004052143307853843,3.295104975449817,3.282026890136242
-0.0004051443307853843,3.295104975449817,3.289323437475562
-0.0004050743307853843,3.295104975449812,3.285675163805904
-0.0004050043307853843,3.284155986274168,3.289323437475562
-0.0004049343307853843,3.291455312391268,3.292971711145221
-0.0004048643307853843,3.291455312391269,3.285675163805902
-0.0004047943307853843,3.295104975449817,3.285675163805902
-0.0004047243307853843,3.291455312391268,3.292971711145221
-0.0004046543307853843,3.287805649332719,3.28932343747556
-0.0004045843307853843,3.291455312391268,3.285675163805902
-0.0004045143307853843,3.287805649332717,3.289323437475562
-0.0004044443307853843,3.295104975449815,3.282026890136244
-0.0004043743307853843,3.291455312391268,3.285675163805902
-0.0004043043307853843,3.291455312391268,3.292971711145221
-0.0004042343307853843,3.295104975449815,3.285675163805905
-0.0004041643307853843,3.291455312391268,3.292971711145221
-0.0004040943307853843,3.295104975449817,3.289323437475562
-0.0004040243307853843,3.287805649332721,3.289323437475559
-0.0004039543307853843,3.295104975449817,3.282026890136242
-0.0004038843307853843,3.284155986274168,3.282026890136242
-0.0004038143307853843,3.287805649332717,3.282026890136249
-0.0004037443307853843,3.287805649332717,3.296619984814875
-0.0004036743307853843,3.280506323215618,3.282026890136242
-0.0004036043307853843,3.28415598627417,3.292971711145217
-0.0004035343307853843,3.287805649332716,3.282026890136247
-0.0004034643307853843,3.287805649332717,3.289323437475562
-0.0004033943307853843,3.287805649332717,3.28932343747556
-0.0004033243307853843,3.287805649332717,3.285675163805904
-0.0004032543307853843,3.291455312391268,3.285675163805902
-0.0004031843307853843,3.284155986274166,3.285675163805902
-0.0004031143307853843,3.28050632321562,3.285675163805902
-0.0004030443307853843,3.284155986274168,3.285675163805902
-0.0004029743307853843,3.273206997098525,3.285675163805899
-0.0004029043307853843,3.287805649332711,3.278378616466585
-0.0004028343307853843,3.284155986274168,3.285675163805902
-0.0004027643307853843,3.295104975449811,3.282026890136242
-0.0004026943307853843,3.280506323215625,3.282026890136242
-0.0004026243307853843,3.284155986274168,3.285675163805902
-0.0004025543307853843,3.287805649332716,3.289323437475562
-0.0004024843307853843,3.28415598627417,3.289323437475562
-0.0004024143307853843,3.284155986274168,3.282026890136242
-0.0004023443307853843,3.28050632321562,3.285675163805902
-0.0004022743307853843,3.284155986274166,3.285675163805902
-0.0004022043307853843,3.287805649332717,3.285675163805902
-0.0004021343307853843,3.284155986274168,3.282026890136245
-0.0004020643307853843,3.284155986274168,3.289323437475559
-0.0004019943307853843,3.280506323215618,3.285675163805902
-0.0004019243307853843,3.28415598627417,3.285675163805905
-0.0004018543307853843,3.287805649332716,3.292971711145218
-0.0004017843307853843,3.287805649332717,3.289323437475562
-0.0004017143307853843,3.28050632321562,3.2856751638059
-0.0004016443307853843,3.284155986274166,3.282026890136244
-0.0004015743307853843,3.284155986274168,3.278378616466582
-0.0004015043307853843,3.284155986274165,3.278378616466582
-0.0004014343307853843,3.276856660157071,3.278378616466582
-0.0004013643307853843,3.280506323215618,3.282026890136242
-0.0004012943307853843,3.291455312391266,3.282026890136247
-0.0004012243307853843,3.287805649332719,3.292971711145217
-0.0004011543307853843,3.287805649332717,3.282026890136242
-0.0004010843307853843,3.291455312391266,3.282026890136242
-0.0004010143307853843,3.287805649332719,3.282026890136242
-0.0004009443307853843,3.284155986274168,3.278378616466582
-0.0004008743307853843,3.284155986274168,3.282026890136242
-0.0004008043307853843,3.284155986274168,3.274730342796925
-0.0004007343307853843,3.284155986274168,3.278378616466582
-0.0004006643307853843,3.280506323215618,3.282026890136242
-0.0004005943307853843,3.280506323215618,3.2856751638059
-0.0004005243307853843,3.291455312391268,3.282026890136242
-0.0004004543307853843,3.284155986274168,3.289323437475562
-0.0004003843307853843,3.291455312391264,3.282026890136245
-0.0004003143307853843,3.287805649332717,3.282026890136242
-0.0004002443307853843,3.287805649332717,3.282026890136242
-0.0004001743307853843,3.28415598627417,3.282026890136242
-0.0004001043307853843,3.284155986274168,3.285675163805902
-0.0004000343307853843,3.284155986274168,3.285675163805902
-0.0003999643307853843,3.28050632321562,3.282026890136244
-0.0003998943307853843,3.284155986274168,3.278378616466582
-0.0003998243307853843,3.280506323215618,3.282026890136242
-0.0003997543307853843,3.284155986274166,3.282026890136242
-0.0003996843307853843,3.276856660157068,3.289323437475562
-0.0003996143307853843,3.276856660157068,3.282026890136242
-0.0003995443307853843,3.276856660157068,3.282026890136242
-0.0003994743307853843,3.273206997098518,3.278378616466582
-0.0003994043307853843,3.273206997098518,3.285675163805902
-0.0003993343307853843,3.280506323215615,3.285675163805902
-0.0003992643307853843,3.284155986274168,3.292971711145221
-0.0003991943307853843,3.284155986274168,3.285675163805902
-0.0003991243307853843,3.291455312391264,3.292971711145218
-0.0003990543307853843,3.295104975449817,3.289323437475562
-0.0003989843307853843,3.287805649332717,3.292971711145221
-0.0003989143307853843,3.28415598627417,3.289323437475564
-0.0003988443307853843,3.287805649332717,3.289323437475562
-0.0003987743307853843,3.287805649332717,3.285675163805902
-0.0003987043307853843,3.291455312391266,3.28932343747556
-0.0003986343307853843,3.291455312391268,3.282026890136242
-0.0003985643307853843,3.287805649332717,3.282026890136242
-0.0003984943307853843,3.287805649332717,3.2856751638059
-0.0003984243307853843,3.280506323215618,3.282026890136242
-0.0003983543307853843,3.276856660157068,3.289323437475562
-0.0003982843307853843,3.284155986274165,3.282026890136245
-0.0003982143307853843,3.280506323215618,3.285675163805902
-0.0003981443307853843,3.280506323215618,3.285675163805902
-0.0003980743307853843,3.287805649332714,3.285675163805902
-0.0003980043307853843,3.287805649332717,3.282026890136242
-0.0003979343307853843,3.287805649332717,3.282026890136242
-0.0003978643307853843,3.287805649332717,3.289323437475559
-0.0003977943307853843,3.284155986274168,3.289323437475562
-0.0003977243307853843,3.295104975449817,3.285675163805902
-0.0003976543307853843,3.284155986274173,3.28932343747556
-0.0003975843307853843,3.287805649332717,3.285675163805902
-0.0003975143307853843,3.295104975449817,3.289323437475562
-0.0003974443307853843,3.291455312391269,3.29297171114522
-0.0003973743307853843,3.284155986274168,3.285675163805902
-0.0003973043307853843,3.287805649332717,3.285675163805902
-0.0003972343307853843,3.28415598627417,3.28932343747556
-0.0003971643307853843,3.291455312391268,3.296619984814881
-0.0003970943307853843,3.291455312391268,3.292971711145221
-0.0003970243307853843,3.295104975449815,3.292971711145221
-0.0003969543307853843,3.287805649332717,3.289323437475562
-0.0003968843307853843,3.291455312391268,3.292971711145221
-0.0003968143307853843,3.291455312391268,3.289323437475564
-0.0003967443307853843,3.287805649332717,3.296619984814881
-0.0003966743307853843,3.287805649332717,3.282026890136242
-0.0003966043307853843,3.298754638508362,3.282026890136242
-0.0003965343307853843,3.298754638508367,3.282026890136242
-0.0003964643307853843,3.298754638508367,3.285675163805902
-0.0003963943307853843,3.29510497544982,3.285675163805904
-0.0003963243307853843,3.302404301566917,3.289323437475562
-0.0003962543307853843,3.295104975449817,3.289323437475562
-0.0003961843307853843,3.29510497544982,3.292971711145221
-0.0003961143307853843,3.302404301566917,3.292971711145221
-0.0003960443307853843,3.298754638508367,3.292971711145221
-0.0003959743307853843,3.29510497544982,3.289323437475564
-0.0003959043307853843,3.302404301566917,3.292971711145221
-0.0003958343307853843,3.295104975449817,3.292971711145221
-0.0003957643307853843,3.298754638508367,3.296619984814883
-0.0003956943307853843,3.298754638508367,3.300268258484541
-0.0003956243307853843,3.295104975449817,3.292971711145221
-0.0003955543307853843,3.295104975449819,3.292971711145223
-0.0003954843307853843,3.298754638508367,3.296619984814881
-0.0003954143307853843,3.306053964625467,3.296619984814881
-0.0003953443307853843,3.298754638508369,3.303916532154196
-0.0003952743307853843,3.302404301566917,3.292971711145221
-0.0003952043307853843,3.298754638508367,3.300268258484541
-0.0003951343307853843,3.295104975449817,3.303916532154199
-0.0003950643307853843,3.295104975449817,3.300268258484541
-0.0003949943307853843,3.302404301566917,3.307564805823861
-0.0003949243307853843,3.306053964625465,3.303916532154201
-0.0003948543307853843,3.302404301566917,3.303916532154201
-0.0003947843307853843,3.309703627684016,3.307564805823861
-0.0003947143307853843,3.298754638508367,3.311213079493518
-0.0003946443307853843,3.298754638508367,3.303916532154201
-0.0003945743307853843,3.306053964625467,3.300268258484541
-0.0003945043307853843,3.298754638508365,3.303916532154201
-0.0003944343307853843,3.295104975449817,3.303916532154201
-0.0003943643307853843,3.295104975449817,3.292971711145221
-0.0003942943307853843,3.298754638508365,3.300268258484538
-0.0003942243307853843,3.295104975449817,3.292971711145221
-0.0003941543307853843,3.298754638508367,3.292971711145221
