gitfigures/ImplementationTest/allfx_computationtime.csv

#Digilent WaveForms Oscilloscope Acquisition
#Device Name: Discovery2
#Serial Number: SN:210321B053D5
#Date Time: 2025-05-15 15:12:32.412
#Sample rate: 1.42857e+07Hz
#Samples: 8192
#Trigger: Source: Channel 1 Type: Edge Condition: Rising Level: 0 V Hyst.: Auto HoldOff: 0 s
#Channel 1: Range: 1 V/div Offset: 0 V Sample Mode: Average
#Channel 2: Range: 1 V/div Offset: 0 V Sample Mode: Average

Time (s),Channel 1 (V),Channel 2 (V)
-0.0004168349316986263,3.280506323215618,3.282026890136242
-0.0004167649316986263,3.280506323215618,3.282026890136242
-0.0004166949316986263,3.291455312391268,3.28932343747556
-0.0004166249316986263,3.291455312391268,3.285675163805902
-0.0004165549316986263,3.295104975449817,3.278378616466582
-0.0004164849316986263,3.287805649332717,3.289323437475565
-0.0004164149316986263,3.287805649332717,3.296619984814881
-0.0004163449316986263,3.280506323215618,3.282026890136242
-0.0004162749316986263,3.287805649332717,3.282026890136242
-0.0004162049316986263,3.287805649332717,3.282026890136242
-0.0004161349316986263,3.287805649332717,3.285675163805902
-0.0004160649316986263,3.284155986274168,3.2856751638059
-0.0004159949316986263,3.284155986274168,3.282026890136242
-0.0004159249316986263,3.287805649332717,3.285675163805902
-0.0004158549316986263,3.284155986274168,3.282026890136244
-0.0004157849316986263,3.284155986274168,3.285675163805902
-0.0004157149316986263,3.287805649332717,3.289323437475562
-0.0004156449316986263,3.284155986274166,3.2856751638059
-0.0004155749316986263,3.28050632321562,3.282026890136244
-0.0004155049316986263,3.284155986274168,3.282026890136242
-0.0004154349316986263,3.284155986274166,3.278378616466585
-0.0004153649316986263,3.28050632321562,3.285675163805899
-0.0004152949316986263,3.276856660157068,3.278378616466582
-0.0004152249316986263,3.280506323215616,3.278378616466582
-0.0004151549316986263,3.27685666015707,3.278378616466582
-0.0004150849316986263,3.284155986274168,3.274730342796922
-0.0004150149316986263,3.276856660157071,3.28202689013624
-0.0004149449316986263,3.284155986274165,3.278378616466584
-0.0004148749316986263,3.269557334039969,3.278378616466582
-0.0004148049316986263,3.276856660157068,3.278378616466585
-0.0004147349316986263,3.276856660157068,3.285675163805899
-0.0004146649316986263,3.280506323215618,3.285675163805902
-0.0004145949316986263,3.273206997098522,3.274730342796922
-0.0004145249316986263,3.280506323215615,3.274730342796922
-0.0004144549316986263,3.276856660157068,3.278378616466582
-0.0004143849316986263,3.273206997098525,3.271082069127265
-0.0004143149316986263,3.287805649332711,3.274730342796921
-0.0004142449316986263,3.287805649332717,3.278378616466582
-0.0004141749316986263,3.28050632321562,3.282026890136242
-0.0004141049316986263,3.284155986274166,3.282026890136242
-0.0004140349316986263,3.284155986274168,3.278378616466582
-0.0004139649316986263,3.280506323215621,3.282026890136244
-0.0004138949316986263,3.287805649332714,3.2856751638059
-0.0004138249316986263,3.284155986274168,3.285675163805902
-0.0004137549316986263,3.280506323215618,3.285675163805904
-0.0004136849316986263,3.280506323215618,3.28932343747556
-0.0004136149316986263,3.280506323215618,3.274730342796922
-0.0004135449316986263,3.280506323215618,3.282026890136244
-0.0004134749316986263,3.280506323215618,3.2856751638059
-0.0004134049316986263,3.280506323215618,3.282026890136242
-0.0004133349316986263,3.280506323215616,3.285675163805904
-0.0004132649316986263,3.27685666015707,3.28932343747556
-0.0004131949316986263,3.276856660157068,3.278378616466582
-0.0004131249316986263,3.280506323215618,3.2856751638059
-0.0004130549316986263,3.280506323215618,3.282026890136244
-0.0004129849316986263,3.280506323215618,3.282026890136242
-0.0004129149316986263,3.27320699709852,3.278378616466585
-0.0004128449316986263,3.276856660157066,3.285675163805899
-0.0004127749316986263,3.280506323215618,3.289323437475562
-0.0004127049316986263,3.273206997098518,3.285675163805902
-0.0004126349316986263,3.276856660157066,3.285675163805902
-0.0004125649316986263,3.273206997098518,3.278378616466582
-0.0004124949316986263,3.280506323215618,3.285675163805902
-0.0004124249316986263,3.284155986274166,3.282026890136244
-0.0004123549316986263,3.276856660157068,3.285675163805902
-0.0004122849316986263,3.273206997098518,3.289323437475562
-0.0004122149316986263,3.280506323215615,3.285675163805904
-0.0004121449316986263,3.280506323215618,3.285675163805902
-0.0004120749316986263,3.273206997098518,3.282026890136242
-0.0004120049316986263,3.284155986274163,3.278378616466584
-0.0004119349316986263,3.276856660157068,3.282026890136242
-0.0004118649316986263,3.276856660157068,3.285675163805902
-0.0004117949316986263,3.280506323215616,3.278378616466585
-0.0004117249316986263,3.276856660157068,3.282026890136242
-0.0004116549316986263,3.284155986274168,3.282026890136242
-0.0004115849316986263,3.284155986274168,3.282026890136242
-0.0004115149316986263,3.280506323215618,3.278378616466582
-0.0004114449316986263,3.273206997098518,3.282026890136242
-0.0004113749316986263,3.273206997098518,3.282026890136242
-0.0004113049316986263,3.284155986274168,3.278378616466582
-0.0004112349316986263,3.280506323215618,3.282026890136242
-0.0004111649316986263,3.291455312391263,3.282026890136242
-0.0004110949316986263,3.284155986274168,3.285675163805902
-0.0004110249316986263,3.284155986274168,3.278378616466582
-0.0004109549316986263,3.276856660157071,3.278378616466582
-0.0004108849316986263,3.280506323215618,3.282026890136242
-0.0004108149316986263,3.280506323215618,3.285675163805902
-0.0004107449316986263,3.287805649332714,3.278378616466585
-0.0004106749316986263,3.276856660157068,3.274730342796922
-0.0004106049316986263,3.280506323215618,3.285675163805902
-0.0004105349316986263,3.280506323215618,3.278378616466585
-0.0004104649316986263,3.287805649332717,3.278378616466582
-0.0004103949316986263,3.280506323215618,3.282026890136242
-0.0004103249316986263,3.280506323215618,3.278378616466584
-0.0004102549316986263,3.273206997098518,3.271082069127263
-0.0004101849316986263,3.273206997098518,3.274730342796922
-0.0004101149316986263,3.269557334039971,3.27837861646658
-0.0004100449316986263,3.269557334039969,3.274730342796922
-0.0004099749316986263,3.276856660157068,3.274730342796922
-0.0004099049316986263,3.276856660157068,3.274730342796922
-0.0004098349316986263,3.276856660157068,3.267433795457603
-0.0004097649316986263,3.269557334039969,3.271082069127263
-0.0004096949316986263,3.273206997098517,3.278378616466579
-0.0004096249316986263,3.276856660157068,3.274730342796922
-0.0004095549316986263,3.276856660157068,3.278378616466582
-0.0004094849316986263,3.280506323215616,3.285675163805899
-0.0004094149316986263,3.280506323215618,3.282026890136242
-0.0004093449316986263,3.284155986274168,3.282026890136242
-0.0004092749316986263,3.287805649332716,3.278378616466584
-0.0004092049316986263,3.284155986274168,3.278378616466582
-0.0004091349316986263,3.284155986274168,3.274730342796922
-0.0004090649316986263,3.284155986274168,3.27837861646658
-0.0004089949316986263,3.280506323215618,3.274730342796922
-0.0004089249316986263,3.291455312391268,3.278378616466582
-0.0004088549316986263,3.287805649332719,3.278378616466582
-0.0004087849316986263,3.291455312391268,3.282026890136242
-0.0004087149316986263,3.284155986274168,3.278378616466582
-0.0004086449316986263,3.430142508616092,2.789509944732388
-0.0004085749316986263,3.101672833346679,-0.380839874202226
-0.0004085049316986263,3.269557334039969,0.02047022946035517
-0.0004084349316986263,3.317002953801094,0.08249088184454406
-0.0004083649316986263,3.287805649332717,-0.001419412557603805
-0.0004082949316986263,3.265907670981419,-0.01966078090590295
-0.0004082249316986263,2.503128091743316,0.1080287975320766
-0.0004081549316986263,-0.1355782995869728,-0.1437020856743371
-0.0004080849316986263,0.03595586416486668,-0.04155042292386192
-0.0004080149316986263,0.05420417945760726,0.02047022946033692
-0.0004079449316986263,0.03595586416486668,-0.01966078090590295
-0.0004078749316986263,0.01405788581356802,-0.03425387558454226
-0.0004078049316986263,0.01040822275501493,-0.03060560191488244
-0.0004077349316986263,0.00310889663791869,-0.03060560191488244
-0.0004076649316986263,0.01040822275501824,-0.03425387558454226
-0.0004075949316986263,0.00310889663791703,-0.03425387558454558
-0.0004075249316986263,-0.0005407664206310866,-0.04155042292386192
-0.0004074549316986263,-0.004190429479180863,-0.03425387558454226
-0.0004073849316986263,-0.004190429479184183,-0.03060560191488244
-0.0004073149316986263,-0.01148975559628042,-0.03060560191488244
-0.0004072449316986263,-0.007840092537730639,-0.03060560191488244
-0.0004071749316986263,-0.01148975559627876,-0.02695732824522759
-0.0004071049316986263,-0.007840092537730639,-0.03790214925420209
-0.0004070349316986263,-0.01513941865483019,-0.03425387558454226
-0.0004069649316986263,-0.004190429479184183,-0.03790214925419878
-0.0004068949316986263,-0.01148975559628042,-0.03060560191488244
-0.0004068249316986263,-0.01513941865483019,-0.03425387558454226
-0.0004067549316986263,-0.01148975559627876,-0.02695732824522427
-0.0004066849316986263,-0.007840092537730639,-0.03060560191488244
-0.0004066149316986263,-0.01513941865483019,-0.02695732824522261
-0.0004065449316986263,-0.01513941865483019,-0.03060560191487912
-0.0004064749316986263,-0.01513941865483019,-0.02330905457556278
-0.0004064049316986263,-0.01148975559628042,-0.01966078090590295
-0.0004063349316986263,-0.01513941865482853,-0.01601250723624478
-0.0004062649316986263,-0.01148975559628042,-0.01966078090590295
-0.0004061949316986263,-0.01148975559628042,-0.02330905457556278
-0.0004061249316986263,-0.01148975559628042,-0.01601250723624312
-0.0004060549316986263,-0.01148975559628042,-0.01601250723624312
-0.0004059849316986263,-0.004190429479180863,-0.02330905457556278
-0.0004059149316986263,-0.004190429479175885,-0.01601250723624478
-0.0004058449316986263,0.006758559696468467,-0.01966078090590295
-0.0004057749316986263,-0.0005407664206310866,-0.01601250723624312
-0.0004057049316986263,-0.004190429479177544,-0.02330905457556112
-0.0004056349316986263,0.00310889663791869,-0.01966078090590295
-0.0004055649316986263,-0.004190429479180863,-0.01966078090590295
-0.0004054949316986263,-0.0005407664206327463,-0.01966078090590461
-0.0004054249316986263,-0.004190429479180863,-0.02330905457556278
-0.0004053549316986263,-0.0005407664206310866,-0.02330905457556278
-0.0004052849316986263,-0.004190429479184183,-0.01966078090590295
-0.0004052149316986263,-0.01148975559628042,-0.01966078090590295
-0.0004051449316986263,-0.0005407664206310866,-0.01601250723624312
-0.0004050749316986263,-0.004190429479182523,-0.01966078090590295
-0.0004050049316986263,-0.007840092537730639,-0.01966078090590295
-0.0004049349316986263,-0.0005407664206310866,-0.01966078090590295
-0.0004048649316986263,-0.0005407664206310866,-0.01966078090590129
-0.0004047949316986263,-0.0005407664206310866,-0.01601250723624312
-0.0004047249316986263,-0.007840092537730639,-0.01966078090590295
-0.0004046549316986263,-0.004190429479182523,-0.02330905457556278
-0.0004045849316986263,-0.007840092537730639,-0.02330905457556278
-0.0004045149316986263,0.006758559696468467,-0.02330905457556278
-0.0004044449316986263,-0.007840092537727321,-0.02330905457556278
-0.0004043749316986263,-0.0005407664206310866,-0.02330905457556278
-0.0004043049316986263,-0.0005407664206310866,-0.02695732824522261
-0.0004042349316986263,-0.007840092537730639,-0.01601250723624644
-0.0004041649316986263,-0.007840092537730639,-0.02330905457556278
-0.0004040949316986263,-0.0005407664206310866,-0.02695732824522261
-0.0004040249316986263,0.003108896637915371,-0.02695732824522427
-0.0004039549316986263,-0.004190429479180863,-0.03060560191488244
-0.0004038849316986263,-0.0005407664206310866,-0.02330905457556278
-0.0004038149316986263,-0.0005407664206294269,-0.02695732824522095
-0.0004037449316986263,0.00310889663791703,-0.02330905457556444
-0.0004036749316986263,0.006758559696468467,-0.02695732824522261
-0.0004036049316986263,0.006758559696470126,-0.01966078090590129
-0.0004035349316986263,0.01040822275501658,-0.01601250723624478
-0.0004034649316986263,0.00310889663791869,-0.01966078090590295
-0.0004033949316986263,-0.0005407664206294269,-0.01966078090590461
-0.0004033249316986263,0.00310889663791703,-0.02330905457556112
-0.0004032549316986263,-0.0005407664206310866,-0.01966078090590295
-0.0004031849316986263,-0.0005407664206294269,-0.02695732824521929
-0.0004031149316986263,0.00310889663791703,-0.01966078090590627
-0.0004030449316986263,-0.004190429479180863,-0.02330905457556278
-0.0004029749316986263,0.006758559696461828,-0.01966078090590295
-0.0004029049316986263,-0.007840092537724001,-0.01966078090590295
-0.0004028349316986263,-0.004190429479180863,-0.02330905457556278
-0.0004027649316986263,-0.007840092537730639,-0.02330905457556278
-0.0004026949316986263,-0.007840092537730639,-0.02330905457556278
-0.0004026249316986263,-0.01148975559628042,-0.02695732824522261
-0.0004025549316986263,-0.007840092537728979,-0.01966078090590295
-0.0004024849316986263,-0.004190429479182523,-0.01966078090590295
-0.0004024149316986263,-0.007840092537730639,-0.02330905457556278
-0.0004023449316986263,-0.01148975559628042,-0.01236423356658827
-0.0004022749316986263,-0.01148975559628042,-0.02330905457555781
-0.0004022049316986263,-0.004190429479180863,-0.01236423356658329
-0.0004021349316986263,-0.007840092537728979,-0.01601250723624146
-0.0004020649316986263,-0.004190429479182523,-0.01236423356658495
-0.0004019949316986263,-0.004190429479180863,-0.01966078090590295
-0.0004019249316986263,-0.004190429479182523,-0.01236423356658827
-0.0004018549316986263,-0.007840092537728979,-0.02330905457555781
-0.0004017849316986263,-0.01148975559628042,-0.01966078090590295
-0.0004017149316986263,-0.000540766420634406,-0.02330905457556278
-0.0004016449316986263,-0.007840092537727319,-0.02330905457556278
-0.0004015749316986263,0.7476401605820732,-0.1437020856743371
-0.0004015049316986263,3.411894193323335,0.1116770712017961
-0.0004014349316986263,3.247659355688745,-0.008715959896868714
-0.0004013649316986263,3.222111714278822,-0.05614351760250124
-0.0004012949316986263,3.247659355688675,-0.01966078090589963
-0.0004012249316986263,3.258608344864315,-0.01236423356658661
-0.0004011549316986263,3.284155986274168,2.162006873550675
-0.0004010849316986263,3.203863398986122,3.168930406376862
-0.0004010149316986263,3.313353290742516,3.333102721511405
-0.0004009449316986263,3.287805649332717,3.260137248118283
-0.0004008749316986263,3.273206997098518,3.241895879769984
-0.0004008049316986263,3.276856660157066,3.252840700778959
-0.0004007349316986263,3.280506323215618,3.267433795457603
-0.0004006649316986263,3.284155986274168,3.271082069127263
-0.0004005949316986263,3.287805649332716,3.278378616466579
-0.0004005249316986263,3.287805649332717,3.282026890136242
-0.0004004549316986263,3.287805649332717,3.282026890136242
-0.0004003849316986263,3.291455312391266,3.274730342796925
-0.0004003149316986263,3.287805649332717,3.282026890136242
-0.0004002449316986263,3.287805649332717,3.282026890136242
-0.0004001749316986263,3.287805649332717,3.2856751638059
-0.0004001049316986263,3.287805649332717,3.292971711145221
-0.0004000349316986263,3.295104975449817,3.285675163805902
-0.0003999649316986263,3.298754638508365,3.285675163805902
-0.0003998949316986263,3.291455312391268,3.285675163805902
-0.0003998249316986263,3.284155986274168,3.292971711145221
-0.0003997549316986263,3.287805649332716,3.285675163805905
-0.0003996849316986263,3.284155986274168,3.282026890136242
-0.0003996149316986263,3.284155986274168,3.289323437475562
-0.0003995449316986263,3.28050632321562,3.282026890136245
-0.0003994749316986263,3.276856660157068,3.285675163805902
-0.0003994049316986263,3.284155986274168,3.292971711145221
-0.0003993349316986263,3.284155986274168,3.289323437475564
-0.0003992649316986263,3.284155986274168,3.292971711145221
-0.0003991949316986263,3.287805649332717,3.285675163805902
-0.0003991249316986263,3.291455312391266,3.28932343747556
-0.0003990549316986263,3.287805649332717,3.289323437475562
-0.0003989849316986263,3.284155986274168,3.289323437475562
-0.0003989149316986263,3.284155986274168,3.282026890136245
-0.0003988449316986263,3.280506323215618,3.289323437475562
-0.0003987749316986263,3.280506323215618,3.300268258484541
-0.0003987049316986263,3.280506323215618,3.285675163805909
-0.0003986349316986263,3.284155986274168,3.285675163805902
-0.0003985649316986263,3.280506323215618,3.285675163805902
-0.0003984949316986263,3.27685666015707,3.292971711145218
-0.0003984249316986263,3.284155986274168,3.285675163805902
-0.0003983549316986263,3.276856660157068,3.282026890136242
-0.0003982849316986263,3.287805649332713,3.289323437475559
-0.0003982149316986263,3.276856660157068,3.285675163805902
-0.0003981449316986263,3.276856660157068,3.285675163805902
-0.0003980749316986263,3.280506323215616,3.28932343747556
-0.0003980049316986263,3.276856660157068,3.292971711145221
-0.0003979349316986263,3.276856660157068,3.285675163805902
-0.0003978649316986263,3.27320699709852,3.282026890136244
-0.0003977949316986263,3.280506323215618,3.274730342796922
-0.0003977249316986263,3.273206997098518,3.282026890136242
-0.0003976549316986263,3.280506323215615,3.2856751638059
-0.0003975849316986263,3.280506323215618,3.285675163805902
-0.0003975149316986263,3.280506323215618,3.285675163805902
-0.0003974449316986263,3.280506323215618,3.282026890136244
-0.0003973749316986263,3.280506323215618,3.285675163805902
-0.0003973049316986263,3.280506323215618,3.292971711145221
-0.0003972349316986263,3.284155986274166,3.282026890136247
-0.0003971649316986263,3.276856660157068,3.282026890136242
-0.0003970949316986263,3.280506323215618,3.292971711145221
-0.0003970249316986263,3.280506323215618,3.289323437475564
-0.0003969549316986263,3.273206997098518,3.289323437475562
-0.0003968849316986263,3.287805649332717,3.289323437475562
-0.0003968149316986263,3.291455312391266,3.29297171114522
-0.0003967449316986263,3.284155986274168,3.289323437475562
-0.0003966749316986263,3.280506323215618,3.278378616466582
-0.0003966049316986263,3.291455312391263,3.285675163805899
-0.0003965349316986263,3.284155986274168,3.278378616466582
-0.0003964649316986263,3.284155986274168,3.282026890136242
-0.0003963949316986263,3.295104975449814,3.274730342796927
-0.0003963249316986263,3.287805649332717,3.285675163805902
-0.0003962549316986263,3.284155986274168,3.285675163805902
-0.0003961849316986263,3.284155986274166,3.278378616466584
-0.0003961149316986263,3.280506323215618,3.282026890136242
-0.0003960449316986263,3.280506323215618,3.282026890136242
-0.0003959749316986263,3.287805649332717,3.282026890136242
-0.0003959049316986263,3.287805649332717,3.282026890136242
-0.0003958349316986263,3.287805649332717,3.282026890136242
-0.0003957649316986263,3.295104975449814,3.278378616466582
-0.0003956949316986263,3.287805649332717,3.278378616466582
-0.0003956249316986263,3.284155986274168,3.278378616466582
-0.0003955549316986263,3.280506323215621,3.278378616466579
-0.0003954849316986263,3.287805649332717,3.271082069127263
-0.0003954149316986263,3.287805649332717,3.278378616466582
-0.0003953449316986263,3.284155986274166,3.271082069127265
-0.0003952749316986263,3.280506323215618,3.274730342796922
-0.0003952049316986263,3.287805649332717,3.274730342796922
-0.0003951349316986263,3.287805649332717,3.278378616466584
-0.0003950649316986263,3.287805649332717,3.282026890136242
-0.0003949949316986263,3.287805649332717,3.285675163805902
-0.0003949249316986263,3.284155986274173,3.278378616466584
-0.0003948549316986263,3.295104975449817,3.282026890136242
-0.0003947849316986263,3.291455312391268,3.282026890136242
-0.0003947149316986263,3.284155986274171,3.278378616466584
-0.0003946449316986263,3.291455312391268,3.282026890136242
-0.0003945749316986263,3.287805649332717,3.282026890136242
-0.0003945049316986263,3.287805649332719,3.289323437475557
-0.0003944349316986263,3.291455312391268,3.278378616466582
