gitfigures/ImplementationTest/allfx_computationtime.csv

#Digilent WaveForms Oscilloscope Acquisition
#Device Name: Discovery2
#Serial Number: SN:210321B053D5
#Date Time: 2025-05-15 15:19:24.210
#Sample rate: 1.42857e+07Hz
#Samples: 8192
#Trigger: Source: Channel 1 Type: Edge Condition: Rising Level: 0 V Hyst.: Auto HoldOff: 0 s
#Channel 1: Range: 1 V/div Offset: 0 V Sample Mode: Average
#Channel 2: Range: 1 V/div Offset: 0 V Sample Mode: Average

Time (s),Channel 1 (V),Channel 2 (V)
-0.0004168335816625773,3.295104975449817,3.292971711145221
-0.0004167635816625773,3.298754638508367,3.296619984814881
-0.0004166935816625773,3.30240430156691,3.289323437475564
-0.0004166235816625773,3.287805649332717,3.292971711145221
-0.0004165535816625773,3.287805649332717,3.285675163805902
-0.0004164835816625773,3.306053964625463,3.285675163805904
-0.0004164135816625773,3.298754638508367,3.289323437475562
-0.0004163435816625773,3.298754638508367,3.292971711145221
-0.0004162735816625773,3.295104975449815,3.285675163805902
-0.0004162035816625773,3.291455312391268,3.285675163805902
-0.0004161335816625773,3.295104975449817,3.292971711145221
-0.0004160635816625773,3.295104975449815,3.296619984814878
-0.0004159935816625773,3.291455312391268,3.289323437475562
-0.0004159235816625773,3.295104975449817,3.289323437475562
-0.0004158535816625773,3.302404301566912,3.289323437475567
-0.0004157835816625773,3.291455312391268,3.300268258484541
-0.0004157135816625773,3.295104975449817,3.292971711145221
-0.0004156435816625773,3.298754638508365,3.296619984814881
-0.0004155735816625773,3.295104975449819,3.296619984814881
-0.0004155035816625773,3.302404301566917,3.300268258484541
-0.0004154335816625773,3.298754638508365,3.303916532154196
-0.0004153635816625773,3.295104975449819,3.292971711145226
-0.0004152935816625773,3.302404301566917,3.296619984814881
-0.0004152235816625773,3.298754638508364,3.296619984814881
-0.0004151535816625773,3.291455312391271,3.296619984814881
-0.0004150835816625773,3.295104975449817,3.296619984814881
-0.0004150135816625773,3.295104975449817,3.303916532154199
-0.0004149435816625773,3.295104975449817,3.300268258484543
-0.0004148735816625773,3.291455312391268,3.296619984814881
-0.0004148035816625773,3.298754638508367,3.296619984814884
-0.0004147335816625773,3.298754638508367,3.303916532154198
-0.0004146635816625773,3.291455312391268,3.311213079493521
-0.0004145935816625773,3.29510497544982,3.303916532154201
-0.0004145235816625773,3.302404301566914,3.303916532154201
-0.0004144535816625773,3.302404301566917,3.292971711145221
-0.0004143835816625773,3.298754638508369,3.292971711145223
-0.0004143135816625773,3.302404301566915,3.29661998481488
-0.0004142435816625773,3.302404301566917,3.303916532154201
-0.0004141735816625773,3.29875463850837,3.296619984814881
-0.0004141035816625773,3.306053964625463,3.296619984814881
-0.0004140335816625773,3.302404301566917,3.300268258484541
-0.0004139635816625773,3.306053964625465,3.303916532154201
-0.0004138935816625773,3.302404301566919,3.303916532154201
-0.0004138235816625773,3.298754638508367,3.300268258484541
-0.0004137535816625773,3.302404301566919,3.296619984814883
-0.0004136835816625773,3.306053964625465,3.30026825848454
-0.0004136135816625773,3.306053964625467,3.300268258484541
-0.0004135435816625773,3.302404301566917,3.303916532154199
-0.0004134735816625773,3.302404301566917,3.300268258484543
-0.0004134035816625773,3.298754638508367,3.303916532154201
-0.0004133335816625773,3.306053964625465,3.307564805823861
-0.0004132635816625773,3.302404301566919,3.307564805823861
-0.0004131935816625773,3.302404301566917,3.307564805823861
-0.0004131235816625773,3.306053964625465,3.307564805823859
-0.0004130535816625773,3.302404301566919,3.303916532154203
-0.0004129835816625773,3.302404301566917,3.300268258484541
-0.0004129135816625773,3.302404301566919,3.303916532154199
-0.0004128435816625773,3.306053964625465,3.300268258484543
-0.0004127735816625773,3.309703627684016,3.300268258484541
-0.0004127035816625773,3.302404301566917,3.292971711145221
-0.0004126335816625773,3.302404301566917,3.303916532154196
-0.0004125635816625773,3.295104975449817,3.311213079493521
-0.0004124935816625773,3.302404301566917,3.303916532154201
-0.0004124235816625773,3.29510497544982,3.300268258484543
-0.0004123535816625773,3.302404301566917,3.311213079493521
-0.0004122835816625773,3.306053964625467,3.303916532154201
-0.0004122135816625773,3.302404301566919,3.307564805823859
-0.0004121435816625773,3.309703627684016,3.307564805823861
-0.0004120735816625773,3.298754638508367,3.307564805823861
-0.0004120035816625773,3.302404301566915,3.307564805823861
-0.0004119335816625773,3.306053964625467,3.311213079493521
-0.0004118635816625773,3.306053964625467,3.303916532154201
-0.0004117935816625773,3.306053964625467,3.300268258484543
-0.0004117235816625773,3.298754638508367,3.300268258484541
-0.0004116535816625773,3.295104975449817,3.307564805823861
-0.0004115835816625773,3.302404301566914,3.311213079493519
-0.0004115135816625773,3.302404301566917,3.303916532154201
-0.0004114435816625773,3.306053964625467,3.303916532154201
-0.0004113735816625773,3.309703627684014,3.303916532154201
-0.0004113035816625773,3.306053964625467,3.307564805823861
-0.0004112335816625773,3.302404301566917,3.307564805823861
-0.0004111635816625773,3.302404301566917,3.307564805823861
-0.0004110935816625773,3.306053964625467,3.296619984814881
-0.0004110235816625773,3.302404301566917,3.311213079493521
-0.0004109535816625773,3.306053964625465,3.303916532154204
-0.0004108835816625773,3.302404301566917,3.307564805823861
-0.0004108135816625773,3.309703627684016,3.303916532154201
-0.0004107435816625773,3.306053964625468,3.307564805823859
-0.0004106735816625773,3.302404301566917,3.303916532154201
-0.0004106035816625773,3.306053964625467,3.303916532154201
-0.0004105335816625773,3.306053964625467,3.303916532154201
-0.0004104635816625773,3.302404301566917,3.300268258484541
-0.0004103935816625773,3.306053964625467,3.300268258484541
-0.0004103235816625773,3.306053964625467,3.300268258484541
-0.0004102535816625773,3.302404301566917,3.296619984814881
-0.0004101835816625773,3.302404301566917,3.292971711145221
-0.0004101135816625773,3.309703627684013,3.300268258484538
-0.0004100435816625773,3.306053964625467,3.303916532154201
-0.0004099735816625773,3.302404301566917,3.300268258484541
-0.0004099035816625773,3.306053964625465,3.311213079493516
-0.0004098335816625773,3.295104975449817,3.307564805823861
-0.0004097635816625773,3.306053964625467,3.307564805823861
-0.0004096935816625773,3.29875463850837,3.307564805823861
-0.0004096235816625773,3.302404301566917,3.307564805823861
-0.0004095535816625773,3.302404301566917,3.307564805823861
-0.0004094835816625773,3.302404301566917,3.300268258484544
-0.0004094135816625773,3.302404301566917,3.307564805823861
-0.0004093435816625773,3.302404301566917,3.307564805823861
-0.0004092735816625773,3.302404301566917,3.303916532154203
-0.0004092035816625773,3.306053964625467,3.303916532154201
-0.0004091335816625773,3.306053964625467,3.307564805823861
-0.0004090635816625773,3.309703627684014,3.303916532154203
-0.0004089935816625773,3.302404301566917,3.307564805823861
-0.0004089235816625773,3.302404301566917,3.303916532154201
-0.0004088535816625773,3.302404301566917,3.303916532154201
-0.0004087835816625773,3.306053964625467,3.311213079493521
-0.0004087135816625773,3.306053964625467,3.303916532154201
-0.0004086435816625773,3.302404301566919,3.303916532154201
-0.0004085735816625773,3.306053964625467,3.303916532154201
-0.0004085035816625773,3.306053964625467,3.307564805823861
-0.0004084335816625773,3.302404301566919,3.300268258484544
-0.0004083635816625773,3.302404301566917,3.303916532154201
-0.0004082935816625773,3.306053964625467,3.303916532154201
-0.0004082235816625772,3.298754638508367,3.296619984814888
-0.0004081535816625773,3.298754638508367,3.311213079493521
-0.0004080835816625773,3.309703627684016,3.311213079493521
-0.0004080135816625772,3.30240430156692,3.303916532154198
-0.0004079435816625773,3.309703627684016,3.296619984814881
-0.0004078735816625773,3.306053964625467,3.300268258484541
-0.0004078035816625772,3.306053964625468,3.303916532154201
-0.0004077335816625773,3.309703627684016,3.303916532154201
-0.0004076635816625773,3.309703627684016,3.307564805823861
-0.0004075935816625772,3.313353290742564,3.296619984814884
-0.0004075235816625773,3.309703627684016,3.303916532154201
-0.0004074535816625773,3.313353290742566,3.300268258484541
-0.0004073835816625772,3.302404301566917,3.307564805823859
-0.0004073135816625773,3.302404301566917,3.303916532154201
-0.0004072435816625773,3.302404301566917,3.303916532154201
-0.0004071735816625772,3.302404301566919,3.307564805823859
-0.0004071035816625773,3.306053964625467,3.303916532154201
-0.0004070335816625773,3.306053964625467,3.307564805823861
-0.0004069635816625772,3.298754638508365,3.300268258484543
-0.0004068935816625773,3.295104975449817,3.303916532154201
-0.0004068235816625773,3.298754638508367,3.311213079493521
-0.0004067535816625772,3.298754638508367,3.300268258484544
-0.0004066835816625773,3.298754638508367,3.307564805823861
-0.0004066135816625773,3.302404301566917,3.303916532154201
-0.0004065435816625772,3.295104975449817,3.303916532154199
-0.0004064735816625773,3.295104975449817,3.300268258484541
-0.0004064035816625773,3.295104975449817,3.307564805823861
-0.0004063335816625772,3.298754638508365,3.311213079493519
-0.0004062635816625773,3.295104975449817,3.307564805823861
-0.0004061935816625773,3.295104975449817,3.307564805823861
-0.0004061235816625772,3.229411040395997,0.8413318051335114
-0.0004060535816625773,3.397295541089211,0.1700494499164082
-0.0004059835816625773,3.25130901874722,-0.07073661228114056
-0.0004059135816625772,3.287805649332722,-0.0123642335665667
-0.0004058435816625773,3.298754638508367,0.024118503130015
-0.0004057735816625773,3.302404301566917,0.005877134781715853
-0.0004057035816625772,0.7658884758745282,-0.07073661228106921
-0.0004056335816625773,0.1198981145115115,0.0861391555142321
-0.0004055635816625773,0.006758559696468467,-0.04884697026318158
-0.0004054935816625773,0.0104082227550199,-0.03790214925419214
-0.0004054235816625773,0.01405788581356802,-0.01601250723624312
-0.0004053535816625773,0.00310889663791869,-0.03060560191488244
-0.0004052835816625773,0.00310889663791869,-0.02695732824522593
-0.0004052135816625773,0.00310889663791869,-0.03425387558454226
-0.0004051435816625773,-0.004190429479180863,-0.03790214925420209
-0.0004050735816625773,-0.004190429479179204,-0.0415504229238586
-0.0004050035816625773,-0.0005407664206310866,-0.03425387558454226
-0.0004049335816625773,-0.004190429479180863,-0.03425387558454226
-0.0004048635816625773,-0.01878908171337665,-0.04155042292386192
-0.0004047935816625773,-0.01148975559628042,-0.04155042292386192
-0.0004047235816625773,-0.007840092537730639,-0.03790214925420209
-0.0004046535816625773,-0.01513941865482687,-0.03790214925420209
-0.0004045835816625773,-0.007840092537730639,-0.03790214925420209
-0.0004045135816625773,-0.01513941865483019,-0.03790214925420209
-0.0004044435816625773,-0.01513941865483185,-0.04155042292386192
-0.0004043735816625773,-0.01878908171337997,-0.04155042292386192
-0.0004043035816625773,-0.01878908171337997,-0.03790214925420209
-0.0004042335816625773,-0.01878908171337665,-0.04155042292386026
-0.0004041635816625773,-0.01148975559628042,-0.03790214925420209
-0.0004040935816625773,-0.01148975559628042,-0.03790214925420209
-0.0004040235816625773,-0.0114897555962771,-0.03790214925420209
-0.0004039535816625773,-0.004190429479180863,-0.03790214925420209
-0.0004038835816625773,-0.01148975559628042,-0.03425387558454226
-0.0004038135816625773,-0.01878908171337831,-0.03790214925420209
-0.0004037435816625773,-0.01513941865483185,-0.03790214925420209
-0.0004036735816625773,-0.007840092537730639,-0.03425387558454226
-0.0004036035816625773,-0.004190429479184183,-0.03060560191488742
-0.0004035335816625773,-0.0114897555962771,-0.04155042292385695
-0.0004034635816625773,-0.007840092537730639,-0.03790214925420209
-0.0004033935816625773,-0.01148975559627876,-0.0306056019148841
-0.0004033235816625773,-0.0078400925377323,-0.03425387558454061
-0.0004032535816625773,-0.007840092537730639,-0.02695732824522261
-0.0004031835816625773,-0.01148975559627876,-0.0306056019148841
-0.0004031135816625773,-0.0078400925377323,-0.03425387558454061
-0.0004030435816625773,-0.01148975559628042,-0.03060560191488244
-0.0004029735816625773,-0.01148975559627876,-0.03425387558454226
-0.0004029035816625773,-0.0078400925377323,-0.03425387558454226
-0.0004028335816625773,-0.01148975559628042,-0.03425387558454226
-0.0004027635816625773,-0.000540766420634406,-0.02695732824522759
-0.0004026935816625773,-0.007840092537727319,-0.03790214925419712
-0.0004026235816625773,-0.0005407664206310866,-0.03060560191488244
-0.0004025535816625773,-0.0005407664206327463,-0.03060560191488244
-0.0004024835816625773,-0.004190429479179204,-0.03060560191488244
-0.0004024135816625773,-0.004190429479180863,-0.02695732824522261
-0.0004023435816625773,0.006758559696465148,-0.02330905457556278
-0.0004022735816625773,-0.0005407664206277677,-0.02330905457556278
-0.0004022035816625773,0.00310889663791869,-0.03060560191488244
-0.0004021335816625773,-0.0005407664206294269,-0.02695732824522427
-0.0004020635816625773,0.00310889663791703,-0.03060560191488078
-0.0004019935816625773,0.01040822275501824,-0.02330905457556278
-0.0004019235816625773,-0.004190429479174224,-0.01966078090590295
-0.0004018535816625773,0.01040822275501161,-0.01966078090590295
-0.0004017835816625773,-0.0005407664206310866,-0.02330905457556278
-0.0004017135816625773,0.003108896638091296,-0.01966078090592452
-0.0004016435816625773,0.3826738547269229,-0.06708833861145916
-0.0004015735816625773,3.484887454494406,0.06424951349627311
-0.0004015035816625773,3.222111714278824,-0.04519869659352507
-0.0004014335816625773,3.22576137733737,-0.0524952439328381
-0.0004013635816625773,3.269557334039969,-0.01236423356658329
-0.0004012935816625773,3.265907670981442,-0.01236423356550823
-0.0004012235816625773,3.317002953801093,2.351717104371911
-0.0004011535816625773,3.185615083693324,3.154337311698148
-0.0004010835816625773,3.317002953801101,3.31850962683282
-0.0004010135816625773,3.284155986274183,3.274730342796942
-0.0004009435816625773,3.284155986274168,3.260137248118283
-0.0004008735816625773,3.276856660157068,3.274730342796922
-0.0004008035816625773,3.280506323215616,3.274730342796922
-0.0004007335816625773,3.284155986274168,3.285675163805902
-0.0004006635816625773,3.284155986274168,3.292971711145221
-0.0004005935816625773,3.284155986274168,3.292971711145221
-0.0004005235816625773,3.284155986274168,3.296619984814881
-0.0004004535816625773,3.280506323215618,3.296619984814881
-0.0004003835816625773,3.291455312391263,3.292971711145223
-0.0004003135816625773,3.287805649332717,3.296619984814881
-0.0004002435816625773,3.284155986274168,3.289323437475562
-0.0004001735816625773,3.295104975449812,3.300268258484536
-0.0004001035816625773,3.291455312391268,3.296619984814881
-0.0004000335816625773,3.284155986274168,3.289323437475562
-0.0003999635816625773,3.284155986274168,3.296619984814878
-0.0003998935816625773,3.287805649332717,3.289323437475562
-0.0003998235816625773,3.287805649332717,3.292971711145221
-0.0003997535816625773,3.28415598627417,3.292971711145221
-0.0003996835816625773,3.284155986274168,3.289323437475562
-0.0003996135816625773,3.291455312391268,3.296619984814881
-0.0003995435816625773,3.284155986274171,3.30026825848454
-0.0003994735816625773,3.291455312391268,3.296619984814881
-0.0003994035816625773,3.280506323215618,3.289323437475562
-0.0003993335816625773,3.284155986274166,3.29297171114522
-0.0003992635816625773,3.280506323215618,3.289323437475562
-0.0003991935816625773,3.276856660157068,3.285675163805902
-0.0003991235816625773,3.284155986274165,3.282026890136244
-0.0003990535816625773,3.291455312391268,3.289323437475562
-0.0003989835816625773,3.276856660157068,3.282026890136242
-0.0003989135816625773,3.280506323215616,3.2856751638059
-0.0003988435816625773,3.284155986274168,3.285675163805902
-0.0003987735816625773,3.276856660157068,3.289323437475562
-0.0003987035816625773,3.291455312391261,3.289323437475562
-0.0003986335816625773,3.284155986274168,3.282026890136242
-0.0003985635816625773,3.287805649332717,3.285675163805902
-0.0003984935816625773,3.287805649332717,3.285675163805902
-0.0003984235816625773,3.284155986274168,3.278378616466582
-0.0003983535816625773,3.284155986274168,3.282026890136242
-0.0003982835816625773,3.284155986274168,3.282026890136242
-0.0003982135816625773,3.291455312391268,3.285675163805902
-0.0003981435816625773,3.280506323215618,3.282026890136242
-0.0003980735816625773,3.287805649332714,3.2856751638059
-0.0003980035816625773,3.287805649332717,3.282026890136242
-0.0003979335816625773,3.284155986274168,3.282026890136242
-0.0003978635816625773,3.284155986274168,3.282026890136242
-0.0003977935816625773,3.287805649332717,3.274730342796922
-0.0003977235816625773,3.291455312391268,3.274730342796922
-0.0003976535816625773,3.284155986274171,3.27837861646658
-0.0003975835816625773,3.287805649332717,3.271082069127263
-0.0003975135816625773,3.280506323215618,3.271082069127263
-0.0003974435816625773,3.284155986274166,3.278378616466579
-0.0003973735816625773,3.291455312391268,3.274730342796922
-0.0003973035816625773,3.284155986274168,3.271082069127263
-0.0003972335816625773,3.287805649332716,3.282026890136237
-0.0003971635816625773,3.280506323215618,3.274730342796922
-0.0003970935816625773,3.280506323215618,3.274730342796922
-0.0003970235816625773,3.287805649332714,3.267433795457606
-0.0003969535816625773,3.276856660157068,3.274730342796922
-0.0003968835816625773,3.280506323215618,3.278378616466582
-0.0003968135816625773,3.27685666015707,3.274730342796924
-0.0003967435816625773,3.276856660157068,3.271082069127263
-0.0003966735816625773,3.287805649332717,3.274730342796922
-0.0003966035816625773,3.280506323215621,3.271082069127265
-0.0003965335816625773,3.273206997098518,3.278378616466582
-0.0003964635816625773,3.276856660157068,3.274730342796922
-0.0003963935816625772,3.28050632321562,3.27837861646658
-0.0003963235816625773,3.284155986274168,3.274730342796922
-0.0003962535816625773,3.280506323215618,3.278378616466582
-0.0003961835816625772,3.27320699709852,3.274730342796922
-0.0003961135816625773,3.276856660157068,3.274730342796922
-0.0003960435816625773,3.280506323215618,3.271082069127263
-0.0003959735816625772,3.269557334039969,3.271082069127263
-0.0003959035816625773,3.269557334039969,3.271082069127263
-0.0003958335816625773,3.273206997098518,3.271082069127263
-0.0003957635816625772,3.276856660157068,3.274730342796922
-0.0003956935816625773,3.276856660157068,3.274730342796922
-0.0003956235816625773,3.276856660157068,3.278378616466582
-0.0003955535816625772,3.273206997098517,3.274730342796922
-0.0003954835816625773,3.269557334039969,3.274730342796922
-0.0003954135816625773,3.280506323215618,3.271082069127263
-0.0003953435816625772,3.273206997098517,3.274730342796922
-0.0003952735816625773,3.269557334039969,3.274730342796922
-0.0003952035816625773,3.276856660157068,3.278378616466582
-0.0003951335816625772,3.273206997098522,3.267433795457606
-0.0003950635816625773,3.280506323215618,3.274730342796922
-0.0003949935816625773,3.269557334039969,3.278378616466582
-0.0003949235816625772,3.273206997098515,3.274730342796922
-0.0003948535816625773,3.265907670981419,3.274730342796922
-0.0003947835816625773,3.276856660157068,3.267433795457603
-0.0003947135816625772,3.269557334039974,3.278378616466577
-0.0003946435816625773,3.280506323215618,3.267433795457603
-0.0003945735816625773,3.276856660157068,3.271082069127263
-0.0003945035816625772,3.269557334039971,3.274730342796922
-0.0003944335816625773,3.273206997098518,3.274730342796922
-0.0003943635816625773,3.276856660157068,3.278378616466582
-0.0003942935816625772,3.27320699709852,3.278378616466577
-0.0003942235816625773,3.276856660157068,3.267433795457603
-0.0003941535816625773,3.280506323215618,3.278378616466582
