gitfigures/ImplementationTest/chorus_computationtime.csv

#Digilent WaveForms Oscilloscope Acquisition
#Device Name: Discovery2
#Serial Number: SN:210321B053D5
#Date Time: 2025-05-15 15:11:39.437
#Sample rate: 1.42857e+07Hz
#Samples: 8192
#Trigger: Source: Channel 1 Type: Edge Condition: Rising Level: 0 V Hyst.: Auto HoldOff: 0 s
#Channel 1: Range: 1 V/div Offset: 0 V Sample Mode: Average
#Channel 2: Range: 1 V/div Offset: 0 V Sample Mode: Average

Time (s),Channel 1 (V),Channel 2 (V)
-0.0004168313163709699,3.298754638508367,3.31850962683284
-0.0004167613163709699,3.302404301566917,3.32945444784182
-0.0004166913163709699,3.306053964625465,3.322157900502499
-0.0004166213163709699,3.302404301566917,3.31850962683284
-0.0004165513163709699,3.306053964625467,3.32580617417216
-0.0004164813163709699,3.302404301566917,3.329454447841818
-0.0004164113163709699,3.302404301566917,3.32580617417216
-0.0004163413163709699,3.302404301566917,3.32580617417216
-0.0004162713163709699,3.302404301566915,3.329454447841818
-0.0004162013163709699,3.298754638508367,3.32580617417216
-0.0004161313163709699,3.302404301566917,3.3221579005025
-0.0004160613163709699,3.298754638508364,3.322157900502502
-0.0004159913163709699,3.291455312391268,3.32580617417216
-0.0004159213163709699,3.295104975449817,3.3221579005025
-0.0004158513163709699,3.295104975449817,3.314861353163185
-0.0004157813163709699,3.295104975449817,3.32580617417216
-0.0004157113163709699,3.298754638508367,3.31850962683284
-0.0004156413163709699,3.298754638508367,3.314861353163182
-0.0004155713163709699,3.298754638508367,3.318509626832839
-0.0004155013163709699,3.291455312391268,3.314861353163181
-0.0004154313163709699,3.295104975449812,3.318509626832837
-0.0004153613163709699,3.284155986274173,3.311213079493524
-0.0004152913163709699,3.291455312391268,3.32580617417216
-0.0004152213163709699,3.415543856381825,3.004758091240547
-0.0004151513163709699,3.119921148639563,-0.3990812425489771
-0.0004150813163709699,3.298754638508367,0.07519433450525261
-0.0004150113163709699,3.331601606035295,0.08613915551420058
-0.0004149413163709699,3.287805649332737,0.01682195579072686
-0.0004148713163709699,3.280506323215618,0.005877134781715853
-0.0004148013163709699,3.287805649332721,0.01682195579069368
-0.0004147313163709699,3.295104975449814,0.01317368212103717
-0.0004146613163709699,3.287805649332717,0.01317368212103551
-0.0004145913163709699,3.287805649332717,0.005877134781714193
-0.0004145213163709699,3.287805649332717,0.002228861112057683
-0.0004144513163709699,3.291455312391268,-0.001419412557603805
-0.0004143813163709699,3.291455312391269,-0.001419412557603805
-0.0004143113163709699,3.295104975449815,-0.001419412557603805
-0.0004142413163709699,3.291455312391268,-0.001419412557603805
-0.0004141713163709699,3.298754638508364,-0.001419412557603805
-0.0004141013163709699,3.291455312391271,-0.001419412557603805
-0.0004140313163709699,3.291455312391268,0.005877134781715853
-0.0004139613163709699,3.291455312391268,-0.01236423356657997
-0.0004138913163709699,3.291455312391268,-0.005067686227266952
-0.0004138213163709699,3.291455312391268,-0.001419412557603805
-0.0004137513163709699,3.291455312391264,-0.008715959896923463
-0.0004136813163709699,3.284155986274171,-0.008715959896923463
-0.0004136113163709699,3.291455312391268,-0.005067686227263634
-0.0004135413163709699,3.295104975449812,-0.005067686227263634
-0.0004134713163709699,3.284155986274173,-0.005067686227263634
-0.0004134013163709699,3.295104975449817,-0.005067686227263634
-0.0004133313163709699,3.287805649332722,-0.008715959896920145
-0.0004132613163709699,3.298754638508362,-0.001419412557607123
-0.0004131913163709699,3.295104975449817,-0.01236423356658329
-0.0004131213163709699,3.295104975449815,-0.008715959896921805
-0.0004130513163709699,3.291455312391269,-0.005067686227265293
-0.0004129813163709699,3.295104975449817,-0.005067686227263634
-0.0004129113163709699,3.298754638508364,-0.001419412557607123
-0.0004128413163709699,3.291455312391271,-0.008715959896920145
-0.0004127713163709699,3.291455312391268,0.002228861112056024
-0.0004127013163709699,3.298754638508367,-0.001419412557603805
-0.0004126313163709699,3.295104975449819,-0.005067686227261975
-0.0004125613163709699,3.298754638508367,-0.005067686227263634
-0.0004124913163709699,3.291455312391268,-0.005067686227263634
-0.0004124213163709699,3.298754638508364,-0.008715959896921805
-0.0004123513163709699,3.291455312391268,-0.01601250723624312
-0.0004122813163709699,3.298754638508367,-0.008715959896923463
-0.0004122113163709699,3.306053964625463,-0.001419412557607123
-0.0004121413163709699,3.302404301566917,-0.008715959896923463
-0.0004120713163709699,3.302404301566917,-0.01236423356658329
-0.0004120013163709699,3.302404301566917,-0.005067686227266952
-0.0004119313163709699,3.309703627684016,-0.001419412557603805
-0.0004118613163709699,3.295104975449817,-0.005067686227263634
-0.0004117913163709699,3.298754638508365,0.002228861112052706
-0.0004117213163709699,3.298754638508367,-0.005067686227263634
-0.0004116513163709699,3.306053964625467,0.002228861112056024
-0.0004115813163709699,3.29875463850837,-0.001419412557602146
-0.0004115113163709699,3.306053964625467,-0.008715959896923463
-0.0004114413163709699,3.298754638508367,-0.001419412557603805
-0.0004113713163709699,3.306053964625463,-0.001419412557603805
-0.0004113013163709699,3.306053964625467,-0.001419412557603805
-0.0004112313163709699,3.298754638508367,0.002228861112056024
-0.0004111613163709699,3.302404301566915,0.002228861112056024
-0.0004110913163709699,3.302404301566917,-0.008715959896923463
-0.0004110213163709699,3.302404301566917,-0.005067686227263634
-0.0004109513163709699,3.298754638508369,-0.005067686227263634
-0.0004108813163709699,3.306053964625467,-0.001419412557603805
-0.0004108113163709699,3.295104975449817,0.002228861112056024
-0.0004107413163709699,3.306053964625462,0.002228861112056024
-0.0004106713163709699,3.306053964625467,0.005877134781715853
-0.0004106013163709699,3.298754638508367,0.002228861112056024
-0.0004105313163709699,3.302404301566915,0.009525408451372366
-0.0004104613163709699,3.302404301566917,0.005877134781715853
-0.0004103913163709699,3.298754638508367,0.002228861112056024
-0.0004103213163709699,3.302404301566915,0.002228861112056024
-0.0004102513163709699,3.302404301566917,0.005877134781715853
-0.0004101813163709699,3.295104975449817,0.002228861112056024
-0.0004101113163709699,3.302404301566914,0.009525408451372366
-0.0004100413163709699,3.306053964625467,0.009525408451375682
-0.0004099713163709699,3.302404301566917,0.009525408451375682
-0.0004099013163709699,3.302404301566917,0.002228861112059341
-0.0004098313163709699,3.302404301566917,0.002228861112056024
-0.0004097613163709699,3.302404301566917,0.002228861112056024
-0.0004096913163709699,3.298754638508369,0.005877134781714194
-0.0004096213163709699,3.302404301566917,0.005877134781715853
-0.0004095513163709699,3.298754638508367,0.002228861112056024
-0.0004094813163709699,3.302404301566915,0.009525408451372366
-0.0004094113163709699,3.302404301566917,0.002228861112056024
-0.0004093413163709699,3.302404301566917,0.005877134781715853
-0.0004092713163709699,3.306053964625465,0.005877134781715853
-0.0004092013163709699,3.302404301566917,0.005877134781715853
-0.0004091313163709699,3.306053964625467,0.002228861112056024
-0.0004090613163709699,3.306053964625467,0.009525408451372366
-0.0004089913163709699,3.313353290742566,-0.001419412557603805
-0.0004089213163709699,3.298754638508367,0.009525408451375682
-0.0004088513163709699,3.309703627684011,0.009525408451375682
-0.0004087813163709699,3.298754638508367,0.002228861112056024
-0.0004087113163709699,3.302404301566917,-0.001419412557603805
-0.0004086413163709699,3.309703627684013,0.002228861112054365
-0.0004085713163709699,3.306053964625467,0.002228861112056024
-0.0004085013163709699,3.313353290742566,-0.005067686227263634
-0.0004084313163709699,3.313353290742566,-0.001419412557605464
-0.0004083613163709699,1.112606466437051,0.01682195579069534
-0.0004082913163709699,0.1563947450970093,0.01317368212103551
-0.0004082213163709698,0.0104082227550282,-0.05249524393282316
-0.0004081513163709699,0.03230620110631691,-0.01236423356658329
-0.0004080813163709699,0.03960552722341645,0.005877134781715853
-0.0004080113163709698,0.02865653804776547,-0.001419412557605464
-0.0004079413163709699,0.02500687498921735,-0.005067686227263634
-0.0004078713163709699,0.02500687498921735,-0.005067686227263634
-0.0004078013163709698,0.0177075488721178,-0.008715959896925122
-0.0004077313163709699,0.0177075488721178,-0.01236423356658329
-0.0004076613163709699,0.01040822275501824,-0.01236423356658329
-0.0004075913163709698,0.01770754887211282,-0.008715959896925122
-0.0004075213163709699,0.006758559696468467,-0.01236423356658329
-0.0004074513163709699,0.006758559696468467,-0.008715959896923463
-0.0004073813163709698,0.006758559696468467,-0.01236423356658495
-0.0004073113163709699,0.006758559696468467,-0.01601250723624312
-0.0004072413163709699,-0.007840092537730639,-0.01601250723624312
-0.0004071713163709698,0.01040822275501161,-0.01236423356658329
-0.0004071013163709699,-0.004190429479180863,-0.01236423356658329
-0.0004070313163709699,-0.0005407664206310866,-0.005067686227263634
-0.0004069613163709698,-0.0005407664206327463,-0.01601250723624146
-0.0004068913163709699,-0.004190429479180863,-0.01236423356658329
-0.0004068213163709699,-0.007840092537730639,-0.008715959896923463
-0.0004067513163709698,-0.007840092537728979,-0.008715959896923463
-0.0004066813163709699,-0.004190429479180863,-0.008715959896923463
-0.0004066113163709699,-0.01148975559628042,-0.008715959896923463
-0.0004065413163709699,-0.0005407664206327463,-0.008715959896921805
-0.0004064713163709699,-0.004190429479180863,-0.005067686227263634
-0.0004064013163709699,0.00310889663791869,-0.001419412557603805
-0.0004063313163709699,0.00310889663792035,-0.001419412557603805
-0.0004062613163709699,0.006758559696468467,-0.001419412557603805
-0.0004061913163709699,0.00310889663791869,-0.005067686227263634
-0.0004061213163709699,-0.0005407664206327463,-0.001419412557603805
-0.0004060513163709699,-0.004190429479180863,-0.001419412557603805
-0.0004059813163709699,0.00310889663791869,-0.005067686227263634
-0.0004059113163709699,-0.004190429479175885,-0.005067686227265293
-0.0004058413163709699,0.006758559696468467,-0.008715959896923463
-0.0004057713163709699,0.00310889663791869,-0.001419412557603805
-0.0004057013163709699,-0.0005407664206294269,0.002228861112052706
-0.0004056313163709699,0.00310889663791869,-0.005067686227263634
-0.0004055613163709699,0.006758559696468467,-0.001419412557603805
-0.0004054913163709699,0.01040822275501658,0.002228861112057683
-0.0004054213163709699,0.006758559696468467,0.005877134781715853
-0.0004053513163709699,0.00310889663791869,0.002228861112056024
-0.0004052813163709699,0.00310889663792035,-0.005067686227261975
-0.0004052113163709699,0.006758559696468467,-0.001419412557603805
-0.0004051413163709699,0.01040822275501824,0.002228861112056024
-0.0004050713163709699,0.006758559696468467,0.002228861112057683
-0.0004050013163709699,0.006758559696468467,0.005877134781715853
-0.0004049313163709699,0.006758559696468467,0.005877134781715853
-0.0004048613163709699,0.01040822275501658,-0.001419412557603805
-0.0004047913163709699,0.006758559696468467,-0.001419412557603805
-0.0004047213163709699,0.01040822275501824,-0.005067686227263634
-0.0004046513163709699,0.006758559696466808,-0.001419412557605464
-0.0004045813163709699,0.00310889663791869,-0.005067686227263634
-0.0004045113163709699,0.00310889663791869,-0.005067686227263634
-0.0004044413163709699,-0.004190429479175885,-0.005067686227263634
-0.0004043713163709699,0.006758559696468467,-0.005067686227263634
-0.0004043013163709699,0.01040822275501824,0.005877134781715853
-0.0004042313163709699,0.006758559696470126,-0.008715959896923463
-0.0004041613163709699,0.01040822275501824,-0.008715959896923463
-0.0004040913163709699,0.006758559696468467,0.002228861112056024
-0.0004040213163709699,0.00310889663792035,-0.005067686227265293
-0.0004039513163709699,0.006758559696468467,-0.008715959896923463
-0.0004038813163709699,0.01040822275501824,-0.001419412557603805
-0.0004038113163709699,0.006758559696468467,-0.008715959896921805
-0.0004037413163709699,0.006758559696468467,-0.005067686227265293
-0.0004036713163709699,0.00310889663791869,-0.008715959896923463
-0.0004036013163709699,-0.0005407664206294269,-0.005067686227263634
-0.0004035313163709699,0.00310889663791703,-0.005067686227263634
-0.0004034613163709699,-0.004190429479180863,-0.005067686227263634
-0.0004033913163709699,-0.0005407664206294269,-0.01236423356658329
-0.0004033213163709699,0.00310889663791703,-0.01236423356658329
-0.0004032513163709699,0.00310889663791869,-0.01601250723624312
-0.0004031813163709699,0.006758559696470126,-0.01236423356657997
-0.0004031113163709699,0.01040822275501658,-0.005067686227266952
-0.0004030413163709699,0.01040822275501824,-0.008715959896923463
-0.0004029713163709699,0.00310889663792035,-0.008715959896923463
-0.0004029013163709699,0.006758559696466807,-0.008715959896923463
-0.0004028313163709699,0.006758559696468467,-0.008715959896923463
-0.0004027613163709699,0.0140578858135647,-0.001419412557603805
-0.0004026913163709699,0.006758559696471786,-0.001419412557603805
-0.0004026213163709699,0.006758559696468467,-0.008715959896923463
-0.0004025513163709699,0.00310889663792035,-0.005067686227261975
-0.0004024813163709699,0.006758559696466807,-0.001419412557605464
-0.0004024113163709699,0.01040822275501824,-0.008715959896923463
-0.0004023413163709699,0.00310889663791703,-0.001419412557603805
-0.0004022713163709699,-0.0005407664206294269,-0.001419412557603805
-0.0004022013163709699,0.00310889663791869,0.002228861112056024
-0.0004021313163709699,0.003108896637915371,0.005877134781715853
-0.0004020613163709699,-0.004190429479177544,0.005877134781715853
-0.0004019913163709699,0.00310889663791869,0.009525408451375682
-0.0004019213163709699,0.00310889663791869,0.009525408451372364
-0.0004018513163709699,0.00310889663791869,0.002228861112059341
-0.0004017813163709699,0.00310889663791869,0.009525408451375682
-0.0004017113163709699,-0.004190429479177544,0.005877134781714193
-0.0004016413163709699,0.003108896637915371,0.002228861112057683
-0.0004015713163709699,0.006758559696468467,0.002228861112056024
-0.0004015013163709699,0.003108896637922009,0.002228861112054365
-0.0004014313163709699,0.01040822275501492,-0.001419412557602146
-0.0004013613163709699,0.01040822275501824,-0.005067686227263634
-0.0004012913163709699,0.003108896637915371,-0.001419412557602146
-0.0004012213163709699,-0.004190429479177544,0.002228861112054365
-0.0004011513163709699,0.006758559696468467,0.005877134781715853
-0.0004010813163709699,0.01405788581356636,0.005877134781714193
-0.0004010113163709699,0.0104082227550199,0.002228861112057683
-0.0004009413163709699,0.00310889663791869,-0.001419412557603805
-0.0004008713163709699,0.006758559696468467,0.002228861112056024
-0.0004008013163709699,0.00310889663792035,-0.001419412557602146
-0.0004007313163709699,-0.0005407664206310866,-0.001419412557603805
-0.0004006613163709699,0.01405788581356802,-0.001419412557603805
-0.0004005913163709699,0.01770754887211614,-0.001419412557603805
-0.0004005213163709699,0.00310889663791869,-0.001419412557603805
-0.0004004513163709699,0.01040822275501824,0.002228861112056024
-0.0004003813163709699,0.006758559696470127,-0.001419412557602146
-0.0004003113163709699,0.00310889663791869,-0.001419412557603805
-0.0004002413163709699,0.01040822275501824,-0.001419412557603805
-0.0004001713163709699,0.003108896637922009,0.002228861112054365
-0.0004001013163709699,0.00310889663791869,0.002228861112056024
-0.0004000313163709699,0.00310889663791869,-0.001419412557603805
-0.0003999613163709699,0.00310889663791869,-0.005067686227261975
-0.0003998913163709699,0.00310889663791869,-0.001419412557603805
-0.0003998213163709699,-0.004190429479180863,0.005877134781715853
-0.0003997513163709699,0.01040822275501161,-0.001419412557600488
-0.0003996813163709699,0.00310889663791869,-0.005067686227263634
-0.0003996113163709699,0.006758559696468467,0.005877134781715853
-0.0003995413163709699,0.00310889663792035,-0.001419412557600488
-0.0003994713163709699,0.006758559696468467,-0.001419412557603805
-0.0003994013163709699,0.006758559696468467,-0.005067686227263634
-0.0003993313163709699,0.01040822275501658,-0.001419412557605464
-0.0003992613163709699,-0.0005407664206310866,0.002228861112056024
-0.0003991913163709699,0.006758559696468467,-0.001419412557603805
-0.0003991213163709699,0.006758559696468467,0.002228861112054365
-0.0003990513163709699,0.01405788581356802,-0.001419412557603805
-0.0003989813163709699,0.00310889663791869,-0.001419412557603805
-0.0003989113163709699,-0.0005407664206294269,-0.001419412557603805
-0.0003988413163709699,0.00310889663791869,0.005877134781715853
-0.0003987713163709699,0.006758559696468467,-0.008715959896923463
-0.0003987013163709699,0.01040822275501658,-0.005067686227265293
-0.0003986313163709699,0.00310889663791869,-0.005067686227263634
-0.0003985613163709699,0.00310889663791869,-0.005067686227263634
-0.0003984913163709699,0.006758559696466807,0.005877134781710877
-0.0003984213163709699,-0.0005407664206310866,-0.008715959896923463
-0.0003983513163709699,0.006758559696468467,-0.005067686227263634
-0.0003982813163709699,-0.004190429479175885,-0.001419412557605464
-0.0003982113163709699,0.006758559696468467,-0.008715959896923463
-0.0003981413163709699,0.01040822275501824,-0.005067686227263634
-0.0003980713163709699,0.006758559696470127,-0.001419412557605464
-0.0003980013163709699,0.006758559696468467,-0.001419412557603805
-0.0003979313163709699,0.00310889663791869,0.002228861112056024
-0.0003978613163709699,0.006758559696466807,0.002228861112056024
-0.0003977913163709699,-0.004190429479180863,-0.001419412557603805
-0.0003977213163709699,0.00310889663791869,0.002228861112056024
-0.0003976513163709699,-0.0005407664206294269,-0.001419412557602146
-0.0003975813163709699,-0.0005407664206310866,-0.001419412557603805
-0.0003975113163709699,-0.004190429479180863,0.002228861112056024
-0.0003974413163709699,0.006758559696463489,0.005877134781714194
-0.0003973713163709699,-0.004190429479180863,0.01317368212103551
-0.0003973013163709699,-0.004190429479180863,-0.005067686227263634
-0.0003972313163709699,-0.0005407664206327463,0.009525408451369045
-0.0003971613163709699,-0.004190429479180863,-0.001419412557603805
-0.0003970913163709699,-0.004190429479180863,0.002228861112056024
-0.0003970213163709699,0.003108896637915371,0.005877134781714194
-0.0003969513163709699,0.00310889663791869,0.005877134781715853
-0.0003968813163709699,-0.004190429479180863,0.002228861112056024
-0.0003968113163709699,0.4629664420149781,-0.06708833861144921
-0.0003967413163709699,3.488537117552955,0.09708397652321157
-0.0003966713163709699,3.25130901874722,-0.01236423356658329
-0.0003966013163709699,3.25130901874722,-0.03060560191487414
-0.0003965313163709699,3.291455312391268,0.009525408451375682
-0.0003964613163709699,3.291455312391268,0.002228861112056024
-0.0003963913163709698,3.26590767098143,1.913924264014424
-0.0003963213163709699,3.291455312391268,3.271082069127263
-0.0003962513163709699,3.357149247445163,3.373233731877738
-0.0003961813163709698,3.309703627684008,3.289323437475562
-0.0003961113163709699,3.291455312391268,3.289323437475562
-0.0003960413163709699,3.313353290742566,3.314861353163181
-0.0003959713163709698,3.302404301566922,3.314861353163185
-0.0003959013163709699,3.313353290742566,3.32580617417216
-0.0003958313163709699,3.317002953801116,3.3221579005025
-0.0003957613163709698,3.320652616859659,3.325806174172163
-0.0003956913163709699,3.306053964625467,3.33310272151148
-0.0003956213163709699,3.309703627684016,3.3403992688508
-0.0003955513163709698,3.317002953801111,3.336750995181136
-0.0003954813163709699,3.306053964625467,3.32945444784182
-0.0003954113163709699,3.317002953801116,3.33310272151148
-0.0003953413163709698,3.309703627684016,3.333102721511483
