gitfigures/ImplementationTest/debug_allfx_computationtime.csv

#Digilent WaveForms Oscilloscope Acquisition
#Device Name: Discovery2
#Serial Number: SN:210321B053D5
#Date Time: 2025-05-15 15:36:45.645
#Sample rate: 1.42857e+07Hz
#Samples: 8192
#Trigger: Source: Channel 1 Type: Edge Condition: Rising Level: 0 V Hyst.: Auto HoldOff: 0 s
#Channel 1: Range: 1 V/div Offset: 0 V Sample Mode: Average
#Channel 2: Range: 1 V/div Offset: 0 V Sample Mode: Average

Time (s),Channel 1 (V),Channel 2 (V)
-0.0004168283065429601,0.01040822275501824,-0.02695732824522261
-0.0004167583065429601,0.006758559696468467,-0.01966078090590295
-0.00041668830654296,0.0140578858135647,-0.02330905457556278
-0.0004166183065429601,0.006758559696468467,-0.02330905457556278
-0.0004165483065429601,-0.0005407664206310866,-0.02330905457556278
-0.00041647830654296,0.00310889663791703,-0.01966078090590129
-0.0004164083065429601,-0.0005407664206310866,-0.01601250723624312
-0.0004163383065429601,-0.004190429479180863,-0.01966078090590295
-0.00041626830654296,0.006758559696468467,-0.01966078090590295
-0.0004161983065429601,0.006758559696468467,-0.01966078090590295
-0.0004161283065429601,0.01040822275501824,-0.01966078090590295
-0.00041605830654296,-0.0005407664206277672,-0.01966078090590461
-0.0004159883065429601,0.006758559696468467,-0.02330905457556278
-0.0004159183065429601,-0.0005407664206310866,-0.02330905457556278
-0.00041584830654296,0.00310889663791703,-0.01601250723624644
-0.0004157783065429601,-0.0005407664206310866,-0.02330905457556278
-0.0004157083065429601,0.00310889663791869,-0.02330905457556278
-0.00041563830654296,0.006758559696466808,-0.01966078090590295
-0.0004155683065429601,0.00310889663792035,-0.01966078090590295
-0.0004154983065429601,0.006758559696468467,-0.02330905457556278
-0.00041542830654296,-0.0005407664206277672,-0.02330905457556278
-0.0004153583065429601,0.006758559696465148,-0.02330905457556278
-0.0004152883065429601,0.00310889663791869,-0.01966078090590295
-0.00041521830654296,-0.007840092537727321,-0.02695732824522261
-0.0004151483065429601,-0.0005407664206344065,-0.02695732824522261
-0.0004150783065429601,-0.0005407664206310866,-0.02695732824522261
-0.00041500830654296,0.003108896637915371,-0.02695732824521929
-0.0004149383065429601,-0.004190429479177544,-0.01966078090590627
-0.0004148683065429601,0.00310889663791869,-0.02330905457556278
-0.00041479830654296,0.01040822275501493,-0.01966078090590461
-0.0004147283065429601,0.003108896637922009,-0.02330905457556112
-0.0004146583065429601,0.006758559696468467,-0.01601250723624312
-0.00041458830654296,0.00310889663792035,-0.02330905457556444
-0.0004145183065429601,0.006758559696466807,-0.02695732824522095
-0.0004144483065429601,0.00310889663791869,-0.02695732824522261
-0.00041437830654296,0.003108896637922009,-0.01966078090590295
-0.0004143083065429601,0.01040822275501492,-0.01966078090590295
-0.0004142383065429601,0.00310889663791869,-0.02695732824522261
-0.00041416830654296,0.006758559696468467,-0.01966078090590461
-0.0004140983065429601,0.006758559696468467,-0.02330905457556112
-0.0004140283065429601,0.00310889663791869,-0.02330905457556278
-0.00041395830654296,-0.004190429479177544,-0.02330905457556444
-0.0004138883065429601,0.003108896637915371,-0.02695732824522095
-0.0004138183065429601,0.00310889663791869,-0.02695732824522261
-0.00041374830654296,0.00310889663791869,-0.03425387558454061
-0.0004136783065429601,0.00310889663791869,-0.0306056019148841
-0.0004136083065429601,-0.0005407664206310866,-0.03060560191488244
-0.00041353830654296,0.00310889663791869,-0.03060560191488078
-0.0004134683065429601,0.00310889663791869,-0.02695732824522427
-0.0004133983065429601,0.006758559696468467,-0.03425387558454226
-0.00041332830654296,0.006758559696466808,-0.03060560191487746
-0.0004132583065429601,0.00310889663792035,-0.01966078090590793
-0.0004131883065429601,0.006758559696468467,-0.02695732824522261
-0.00041311830654296,0.00310889663791703,-0.03060560191488244
-0.0004130483065429601,-0.0005407664206294269,-0.03060560191488244
-0.0004129783065429601,-0.007840092537730639,-0.02695732824522261
-0.00041290830654296,-0.007840092537727321,-0.02695732824521763
-0.0004128383065429601,-0.0005407664206344065,-0.0160125072362481
-0.0004127683065429601,-0.0005407664206310866,-0.01966078090590295
-0.00041269830654296,-0.0005407664206310866,-0.01601250723624312
-0.0004126283065429601,-0.004190429479179204,-0.01601250723624312
-0.0004125583065429601,-0.004190429479180863,-0.01601250723624312
-0.00041248830654296,0.00310889663791869,-0.02695732824522261
-0.0004124183065429601,-0.0005407664206294269,-0.02330905457556444
-0.0004123483065429601,-0.0005407664206310866,-0.01966078090590295
-0.00041227830654296,0.00310889663791869,-0.01966078090590295
-0.0004122083065429601,0.00310889663791869,-0.01601250723624478
-0.0004121383065429601,0.00310889663791869,-0.01966078090590295
-0.00041206830654296,0.006758559696468467,-0.02330905457556278
-0.0004119983065429601,0.00310889663792035,-0.02330905457556278
-0.0004119283065429601,-0.007840092537730639,-0.01966078090590295
-0.00041185830654296,0.00310889663791869,-0.02695732824522261
-0.0004117883065429601,-0.007840092537725661,-0.0160125072362481
-0.0004117183065429601,-0.004190429479180863,-0.01601250723624312
-0.00041164830654296,-0.007840092537730639,-0.02330905457556278
-0.0004115783065429601,-0.004190429479182523,-0.01966078090590461
-0.0004115083065429601,-0.0005407664206310866,-0.01966078090590295
-0.00041143830654296,-0.007840092537730639,-0.02330905457556278
-0.0004113683065429601,-0.004190429479182523,-0.02695732824522095
-0.0004112983065429601,-0.0005407664206310866,-0.02695732824522261
-0.00041122830654296,-0.007840092537730639,-0.02330905457556278
-0.0004111583065429601,-0.0005407664206344065,-0.03060560191487912
-0.0004110883065429601,0.00310889663791869,-0.03060560191488244
-0.00041101830654296,0.00310889663791869,-0.02330905457556278
-0.0004109483065429601,-0.007840092537725661,-0.03060560191487912
-0.0004108783065429601,0.00310889663791869,-0.03060560191488244
-0.00041080830654296,-0.0005407664206310866,-0.02330905457556278
-0.0004107383065429601,-0.007840092537727319,-0.03060560191487912
-0.0004106683065429601,-0.0005407664206310866,-0.02695732824522261
-0.00041059830654296,-0.0005407664206310866,-0.03425387558454226
-0.0004105283065429601,-0.007840092537727319,-0.02330905457556776
-0.0004104583065429601,-0.007840092537730639,-0.02330905457556278
-0.00041038830654296,-0.0005407664206310866,-0.02330905457556278
-0.0004103183065429601,-0.01148975559627544,-0.02330905457556278
-0.0004102483065429601,-0.007840092537730639,-0.03060560191488244
-0.00041017830654296,-0.007840092537730639,-0.02695732824522261
-0.0004101083065429601,-0.007840092537730639,-0.03060560191488078
-0.0004100383065429601,-0.01148975559628042,-0.02330905457556278
-0.00040996830654296,-0.007840092537730639,-0.02330905457556278
-0.0004098983065429601,-0.007840092537730639,-0.02330905457556278
-0.0004098283065429601,-0.01148975559628042,-0.02695732824522261
-0.00040975830654296,-0.007840092537730639,-0.02330905457556278
-0.0004096883065429601,-0.01148975559627876,-0.01601250723624644
-0.0004096183065429601,-0.01513941865483019,-0.01966078090590295
-0.00040954830654296,-0.007840092537730639,-0.01601250723624312
-0.0004094783065429601,-0.01513941865482687,-0.02330905457555946
-0.0004094083065429601,-0.0005407664206310866,-0.01966078090590295
-0.00040933830654296,-0.004190429479180863,-0.02695732824522261
-0.0004092683065429601,-0.0114897555962771,-0.02695732824522261
-0.0004091983065429601,-0.007840092537730639,-0.02695732824522261
-0.00040912830654296,-0.004190429479180863,-0.02330905457556278
-0.0004090583065429601,-0.007840092537728979,-0.02330905457556278
-0.0004089883065429601,-0.007840092537730639,-0.02330905457556278
-0.00040891830654296,-0.004190429479180863,-0.03060560191488244
-0.0004088483065429601,1.368082880534911,-0.1546469066832602
-0.0004087783065429601,3.258608344864319,0.08249088184457226
-0.00040870830654296,3.269557334039969,0.01682195579069534
-0.0004086383065429601,3.244009692630132,-0.04519869659349356
-0.0004085683065429601,3.25130901874722,-0.03425387558454226
-0.00040849830654296,3.269557334039969,-0.01966078090590295
-0.0004084283065429601,3.36444857356222,2.774916850052255
-0.0004083583065429601,3.145468790049276,3.074075290965632
-0.00040828830654296,3.291455312391268,3.289323437475562
-0.00040821830654296,3.298754638508357,3.282026890136231
-0.0004081483065429601,3.276856660157068,3.256488974448623
-0.00040807830654296,3.276856660157068,3.271082069127263
-0.00040800830654296,3.287805649332717,3.274730342796924
-0.0004079383065429601,3.287805649332717,3.278378616466582
-0.00040786830654296,3.284155986274168,3.274730342796922
-0.00040779830654296,3.280506323215618,3.278378616466585
-0.0004077283065429601,3.280506323215618,3.285675163805902
-0.00040765830654296,3.284155986274168,3.289323437475562
-0.00040758830654296,3.287805649332716,3.292971711145221
-0.0004075183065429601,3.284155986274168,3.292971711145221
-0.00040744830654296,3.284155986274168,3.296619984814881
-0.00040737830654296,3.284155986274168,3.289323437475562
-0.0004073083065429601,3.284155986274168,3.289323437475562
-0.00040723830654296,3.284155986274168,3.289323437475562
-0.00040716830654296,3.27685666015707,3.289323437475562
-0.0004070983065429601,3.280506323215618,3.289323437475562
-0.00040702830654296,3.284155986274168,3.289323437475562
-0.00040695830654296,3.287805649332719,3.29661998481488
-0.0004068883065429601,3.291455312391268,3.292971711145221
-0.00040681830654296,3.295104975449817,3.292971711145221
-0.00040674830654296,3.28415598627417,3.289323437475565
-0.0004066783065429601,3.287805649332717,3.296619984814881
-0.00040660830654296,3.284155986274168,3.285675163805902
-0.00040653830654296,3.284155986274171,3.289323437475562
-0.0004064683065429601,3.291455312391268,3.289323437475562
-0.0004063983065429601,3.287805649332717,3.292971711145221
-0.00040632830654296,3.287805649332719,3.282026890136245
-0.0004062583065429601,3.291455312391268,3.289323437475562
-0.0004061883065429601,3.291455312391268,3.285675163805902
-0.00040611830654296,3.287805649332716,3.2856751638059
-0.0004060483065429601,3.284155986274168,3.282026890136242
-0.0004059783065429601,3.287805649332717,3.278378616466582
-0.00040590830654296,3.280506323215621,3.282026890136244
-0.0004058383065429601,3.287805649332717,3.285675163805902
-0.0004057683065429601,3.291455312391268,3.285675163805902
-0.00040569830654296,3.295104975449817,3.2856751638059
-0.0004056283065429601,3.295104975449817,3.282026890136242
-0.0004055583065429601,3.287805649332717,3.289323437475562
-0.00040548830654296,3.284155986274171,3.292971711145218
-0.0004054183065429601,3.291455312391268,3.285675163805902
-0.0004053483065429601,3.284155986274168,3.278378616466582
-0.00040527830654296,3.284155986274166,3.282026890136244
-0.0004052083065429601,3.280506323215618,3.285675163805902
-0.0004051383065429601,3.284155986274168,3.292971711145221
-0.00040506830654296,3.287805649332717,3.2856751638059
-0.0004049983065429601,3.287805649332717,3.282026890136242
-0.0004049283065429601,3.284155986274168,3.285675163805902
-0.00040485830654296,3.280506323215621,3.289323437475565
-0.0004047883065429601,3.287805649332717,3.296619984814881
-0.0004047183065429601,3.291455312391268,3.292971711145221
-0.00040464830654296,3.284155986274168,3.29661998481488
-0.0004045783065429601,3.284155986274168,3.292971711145221
-0.0004045083065429601,3.276856660157068,3.292971711145221
-0.00040443830654296,3.28050632321562,3.29297171114522
-0.0004043683065429601,3.284155986274168,3.289323437475562
-0.0004042983065429601,3.291455312391268,3.289323437475562
-0.00040422830654296,3.280506323215621,3.292971711145217
-0.0004041583065429601,3.287805649332717,3.282026890136242
-0.0004040883065429601,3.284155986274168,3.292971711145221
-0.00040401830654296,3.295104975449814,3.292971711145221
-0.0004039483065429601,3.287805649332717,3.292971711145221
-0.0004038783065429601,3.287805649332717,3.292971711145221
-0.00040380830654296,3.295104975449814,3.289323437475567
-0.0004037383065429601,3.287805649332721,3.300268258484536
-0.0004036683065429601,3.295104975449817,3.292971711145221
-0.00040359830654296,3.291455312391271,3.29297171114522
-0.0004035283065429601,3.298754638508364,3.289323437475564
-0.0004034583065429601,3.295104975449817,3.285675163805902
-0.00040338830654296,3.295104975449817,3.296619984814877
-0.0004033183065429601,3.295104975449817,3.285675163805907
-0.0004032483065429601,3.295104975449817,3.285675163805902
-0.00040317830654296,3.295104975449812,3.282026890136242
-0.0004031083065429601,3.284155986274173,3.282026890136242
-0.0004030383065429601,3.291455312391268,3.289323437475562
-0.00040296830654296,3.291455312391266,3.2856751638059
-0.0004028983065429601,3.287805649332719,3.282026890136244
-0.0004028283065429601,3.287805649332717,3.285675163805902
-0.00040275830654296,3.284155986274171,3.285675163805902
-0.0004026883065429601,3.291455312391264,3.285675163805902
-0.0004026183065429601,3.287805649332717,3.282026890136242
-0.00040254830654296,3.291455312391269,3.29297171114522
-0.0004024783065429601,3.295104975449815,3.289323437475564
-0.0004024083065429601,3.295104975449817,3.285675163805902
-0.00040233830654296,3.291455312391269,3.289323437475564
-0.0004022683065429601,3.295104975449815,3.29297171114522
-0.0004021983065429601,3.291455312391268,3.285675163805902
-0.00040212830654296,3.295104975449817,3.292971711145221
-0.0004020583065429601,3.295104975449817,3.292971711145221
-0.0004019883065429601,3.298754638508367,3.292971711145221
-0.00040191830654296,3.295104975449817,3.292971711145218
-0.0004018483065429601,3.295104975449817,3.285675163805905
-0.0004017783065429601,3.291455312391268,3.292971711145221
-0.00040170830654296,3.298754638508367,3.289323437475565
-0.0004016383065429601,3.298754638508367,3.296619984814878
-0.0004015683065429601,3.295104975449817,3.285675163805902
-0.00040149830654296,3.298754638508364,3.285675163805904
-0.0004014283065429601,3.291455312391271,3.28932343747556
-0.0004013583065429601,3.295104975449817,3.285675163805902
-0.00040128830654296,3.295104975449817,3.282026890136245
-0.0004012183065429601,3.295104975449817,3.289323437475559
-0.0004011483065429601,3.295104975449817,3.289323437475562
-0.00040107830654296,3.295104975449817,3.296619984814881
-0.0004010083065429601,3.295104975449817,3.296619984814881
-0.0004009383065429601,3.298754638508367,3.292971711145221
-0.00040086830654296,3.298754638508367,3.296619984814881
-0.0004007983065429601,3.298754638508367,3.292971711145223
-0.0004007283065429601,3.306053964625467,3.300268258484541
-0.00040065830654296,3.298754638508367,3.292971711145221
-0.0004005883065429601,3.295104975449819,3.29661998481488
-0.0004005183065429601,3.302404301566917,3.292971711145221
-0.00040044830654296,3.306053964625467,3.300268258484541
-0.0004003783065429601,3.309703627684014,3.296619984814883
-0.0004003083065429601,3.302404301566917,3.296619984814881
-0.00040023830654296,3.306053964625467,3.292971711145221
-0.0004001683065429601,3.302404301566919,3.29661998481488
-0.0004000983065429601,3.302404301566917,3.300268258484541
-0.00040002830654296,3.298754638508367,3.289323437475562
-0.0003999583065429601,3.302404301566915,3.300268258484536
-0.0003998883065429601,3.298754638508367,3.292971711145221
-0.00039981830654296,3.306053964625467,3.300268258484541
-0.0003997483065429601,3.29875463850837,3.292971711145225
-0.0003996783065429601,3.295104975449817,3.296619984814881
-0.00039960830654296,3.295104975449817,3.296619984814881
-0.0003995383065429601,3.295104975449817,3.30026825848454
-0.0003994683065429601,3.291455312391268,3.292971711145221
-0.00039939830654296,3.291455312391268,3.300268258484541
-0.0003993283065429601,3.291455312391268,3.303916532154199
-0.0003992583065429601,3.302404301566917,3.292971711145221
-0.00039918830654296,3.302404301566917,3.285675163805902
-0.0003991183065429601,3.302404301566917,3.296619984814877
-0.0003990483065429601,3.291455312391268,3.307564805823861
-0.00039897830654296,3.291455312391268,3.296619984814881
-0.0003989083065429601,3.287805649332719,3.30026825848454
-0.0003988383065429601,3.302404301566917,3.307564805823861
-0.00039876830654296,3.298754638508367,3.303916532154201
-0.0003986983065429601,3.295104975449819,3.300268258484543
-0.0003986283065429601,3.298754638508367,3.303916532154201
-0.00039855830654296,3.298754638508367,3.303916532154201
-0.0003984883065429601,3.302404301566915,3.300268258484543
-0.0003984183065429601,3.295104975449817,3.300268258484541
-0.00039834830654296,3.309703627684016,3.296619984814881
-0.0003982783065429601,3.306053964625468,3.296619984814881
-0.0003982083065429601,3.302404301566917,3.303916532154201
-0.00039813830654296,3.298754638508367,3.300268258484541
-0.0003980683065429601,3.306053964625463,3.303916532154199
-0.0003979983065429601,3.298754638508367,3.303916532154201
-0.00039792830654296,3.302404301566917,3.296619984814881
-0.0003978583065429601,3.302404301566917,3.30026825848454
-0.0003977883065429601,3.306053964625467,3.300268258484541
-0.00039771830654296,3.306053964625467,3.292971711145221
-0.0003976483065429601,3.29875463850837,3.300268258484538
-0.0003975783065429601,3.306053964625467,3.303916532154201
-0.00039750830654296,3.302404301566917,3.296619984814881
-0.0003974383065429601,3.298754638508369,3.296619984814881
-0.0003973683065429601,3.302404301566917,3.300268258484541
-0.00039729830654296,3.309703627684016,3.296619984814881
-0.0003972283065429601,3.309703627684016,3.303916532154198
-0.0003971583065429601,3.313353290742566,3.296619984814881
-0.00039708830654296,3.309703627684016,3.303916532154201
-0.0003970183065429601,3.309703627684016,3.303916532154201
-0.0003969483065429601,3.313353290742566,3.307564805823861
-0.00039687830654296,3.313353290742566,3.303916532154201
-0.0003968083065429601,3.313353290742566,3.303916532154201
-0.0003967383065429601,3.306053964625467,3.307564805823861
-0.00039666830654296,3.306053964625467,3.307564805823861
-0.0003965983065429601,3.313353290742563,3.300268258484544
-0.0003965283065429601,3.317002953801116,3.303916532154201
-0.00039645830654296,3.320652616859666,3.307564805823861
-0.00039638830654296,3.317002953801114,3.311213079493519
-0.0003963183065429601,3.313353290742566,3.307564805823861
-0.00039624830654296,3.309703627684016,3.300268258484541
-0.00039617830654296,3.309703627684019,3.300268258484546
-0.0003961083065429601,3.317002953801116,3.311213079493521
-0.00039603830654296,3.317002953801116,3.311213079493521
-0.00039596830654296,3.317002953801111,3.311213079493518
-0.0003958983065429601,3.306053964625467,3.303916532154201
-0.00039582830654296,3.313353290742566,3.303916532154201
-0.00039575830654296,3.313353290742564,3.303916532154206
-0.0003956883065429601,3.309703627684016,3.314861353163181
-0.00039561830654296,3.309703627684016,3.303916532154201
-0.00039554830654296,3.309703627684014,3.314861353163176
-0.0003954783065429601,3.306053964625467,3.303916532154201
-0.00039540830654296,3.302404301566917,3.303916532154201
-0.00039533830654296,3.30240430156692,3.303916532154199
-0.0003952683065429601,3.309703627684016,3.300268258484541
-0.00039519830654296,3.302404301566917,3.300268258484541
-0.00039512830654296,3.298754638508365,3.300268258484543
-0.0003950583065429601,3.295104975449817,3.303916532154201
-0.00039498830654296,3.306053964625467,3.300268258484541
-0.00039491830654296,3.291455312391271,3.303916532154198
-0.0003948483065429601,3.298754638508367,3.296619984814881
-0.00039477830654296,3.302404301566917,3.296619984814881
-0.00039470830654296,3.302404301566914,3.30026825848454
-0.0003946383065429601,3.295104975449817,3.296619984814881
-0.00039456830654296,3.302404301566917,3.303916532154201
-0.00039449830654296,3.298754638508369,3.300268258484543
-0.0003944283065429601,3.302404301566917,3.303916532154201
-0.0003943583065429601,3.298754638508367,3.292971711145221
-0.00039428830654296,3.291455312391271,3.303916532154199
