gitfigures/ImplementationTest/o3_allfx_computationtime.csv

#Digilent WaveForms Oscilloscope Acquisition
#Device Name: Discovery2
#Serial Number: SN:210321B053D5
#Date Time: 2025-05-15 15:27:05.365
#Sample rate: 1.42857e+07Hz
#Samples: 8192
#Trigger: Source: Channel 1 Type: Edge Condition: Rising Level: 0 V Hyst.: Auto HoldOff: 0 s
#Channel 1: Range: 1 V/div Offset: 0 V Sample Mode: Average
#Channel 2: Range: 1 V/div Offset: 0 V Sample Mode: Average

Time (s),Channel 1 (V),Channel 2 (V)
-0.000416847397452051,3.298754638508367,3.303916532154211
-0.000416777397452051,3.298754638508367,3.292971711145231
-0.000416707397452051,3.298754638508367,3.289323437475564
-0.000416637397452051,3.302404301566917,3.292971711145221
-0.0004165673974520509,3.298754638508367,3.292971711145221
-0.0004164973974520509,3.306053964625465,3.292971711145223
-0.000416427397452051,3.30240430156692,3.296619984814878
-0.000416357397452051,3.302404301566917,3.296619984814881
-0.000416287397452051,3.306053964625465,3.296619984814881
-0.000416217397452051,3.295104975449817,3.300268258484541
-0.0004161473974520509,3.298754638508367,3.296619984814881
-0.0004160773974520509,3.302404301566917,3.296619984814883
-0.000416007397452051,3.302404301566917,3.300268258484538
-0.000415937397452051,3.302404301566917,3.296619984814884
-0.000415867397452051,3.29510497544982,3.296619984814881
-0.000415797397452051,3.298754638508367,3.300268258484541
-0.0004157273974520509,3.302404301566917,3.292971711145221
-0.0004156573974520509,3.302404301566914,3.303916532154198
-0.000415587397452051,3.295104975449824,3.296619984814888
-0.000415517397452051,3.298754638508364,3.296619984814881
-0.000415447397452051,3.298754638508367,3.303916532154198
-0.000415377397452051,3.298754638508367,3.300268258484543
-0.0004153073974520509,3.298754638508367,3.303916532154201
-0.0004152373974520509,3.29510497544982,3.296619984814883
-0.000415167397452051,3.30240430156691,3.300268258484538
-0.000415097397452051,3.302404301566917,3.296619984814884
-0.000415027397452051,3.298754638508369,3.296619984814881
-0.000414957397452051,3.302404301566915,3.303916532154198
-0.0004148873974520509,3.306053964625467,3.296619984814881
-0.0004148173974520509,3.29510497544982,3.307564805823858
-0.000414747397452051,3.30240430156691,3.300268258484548
-0.000414677397452051,3.302404301566917,3.303916532154198
-0.000414607397452051,3.29510497544982,3.303916532154201
-0.000414537397452051,3.298754638508365,3.300268258484543
-0.0004144673974520509,3.309703627684016,3.296619984814881
-0.0004143973974520509,3.295104975449815,3.303916532154203
-0.000414327397452051,3.291455312391271,3.307564805823858
-0.000414257397452051,3.29875463850836,3.300268258484548
-0.000414187397452051,3.302404301566915,3.303916532154199
-0.000414117397452051,3.29510497544982,3.303916532154201
-0.0004140473974520509,3.295104975449817,3.303916532154201
-0.0004139773974520509,3.302404301566917,3.300268258484541
-0.000413907397452051,3.302404301566917,3.300268258484541
-0.000413837397452051,3.302404301566917,3.292971711145228
-0.000413767397452051,3.309703627684013,3.29661998481488
-0.000413697397452051,3.309703627684016,3.30026825848454
-0.0004136273974520509,3.302404301566917,3.296619984814881
-0.0004135573974520509,3.313353290742563,3.300268258484538
-0.000413487397452051,3.306053964625473,3.292971711145228
-0.000413417397452051,3.309703627684013,3.296619984814878
-0.000413347397452051,3.309703627684016,3.296619984814881
-0.000413277397452051,3.306053964625468,3.307564805823856
-0.0004132073974520509,3.306053964625467,3.303916532154201
-0.0004131373974520509,3.309703627684014,3.300268258484541
-0.000413067397452051,3.30605396462547,3.300268258484541
-0.000412997397452051,3.306053964625467,3.307564805823854
-0.000412927397452051,3.295104975449822,3.303916532154203
-0.000412857397452051,3.302404301566914,3.300268258484543
-0.0004127873974520509,3.306053964625467,3.303916532154201
-0.0004127173974520509,3.306053964625467,3.303916532154201
-0.000412647397452051,3.298754638508373,3.303916532154201
-0.000412577397452051,3.302404301566914,3.303916532154201
-0.000412507397452051,3.298754638508369,3.300268258484543
-0.000412437397452051,3.309703627684011,3.307564805823858
-0.0004123673974520509,3.302404301566917,3.296619984814881
-0.0004122973974520509,3.309703627684016,3.300268258484541
-0.000412227397452051,3.309703627684016,3.307564805823854
-0.000412157397452051,3.29510497544983,3.307564805823861
-0.000412087397452051,3.309703627684009,3.300268258484544
-0.000412017397452051,3.306053964625468,3.307564805823858
-0.0004119473974520509,3.306053964625467,3.307564805823861
-0.0004118773974520509,3.306053964625467,3.307564805823861
-0.000411807397452051,3.30240430156692,3.311213079493518
-0.000411737397452051,3.313353290742556,3.311213079493521
-0.000411667397452051,3.309703627684018,3.307564805823863
-0.000411597397452051,3.309703627684016,3.307564805823861
-0.0004115273974520509,3.309703627684016,3.303916532154201
-0.0004114573974520509,3.309703627684016,3.307564805823861
-0.000411387397452051,3.30605396462547,3.311213079493518
-0.000411317397452051,3.309703627684013,3.311213079493521
-0.000411247397452051,3.313353290742564,3.311213079493521
-0.000411177397452051,3.298754638508373,3.307564805823863
-0.0004111073974520509,3.309703627684016,3.307564805823861
-0.0004110373974520509,3.174666094517675,0.2539597443185842
-0.000410967397452051,3.452040486967205,0.2357183759703017
-0.000410897397452051,3.298754638508506,-0.008715959896701153
-0.000410827397452051,3.276856660157078,-0.04155042292384699
-0.000410757397452051,3.309703627684001,0.009525408451352461
-0.0004106873974520509,3.309703627684016,0.005877134781715853
-0.0004106173974520509,0.3206295827317492,-0.1145158963170585
-0.000410547397452051,0.07245249475059015,0.1080287975319887
-0.000410477397452051,0.03595586416489988,-0.01601250723613031
-0.000410407397452051,0.01040822275502986,-0.04155042292385031
-0.000410337397452051,0.01040822275501824,-0.02695732824522924
-0.0004102673974520509,0.02500687498921735,-0.02330905457556278
-0.0004101973974520509,0.01405788581356802,-0.02695732824522261
-0.000410127397452051,0.006758559696475106,-0.03060560191487912
-0.000410057397452051,0.003108896637922009,-0.02695732824522593
-0.000409987397452051,0.00310889663791869,-0.02695732824522261
-0.000409917397452051,-0.007840092537725661,-0.03060560191488078
-0.0004098473974520509,0.00310889663791869,-0.03060560191488244
-0.0004097773974520509,-0.0005407664206310866,-0.03060560191488244
-0.000409707397452051,-0.0005407664206310866,-0.03060560191488244
-0.000409637397452051,-0.0005407664206310866,-0.02695732824522593
-0.000409567397452051,-0.0005407664206310866,-0.01966078090590627
-0.000409497397452051,-0.007840092537727319,-0.03060560191487746
-0.0004094273974520509,-0.004190429479180863,-0.03425387558454226
-0.0004093573974520509,-0.004190429479180863,-0.03060560191488244
-0.000409287397452051,-0.0005407664206360657,-0.03425387558453729
-0.000409217397452051,-0.007840092537724001,-0.02330905457557273
-0.000409147397452051,-0.004190429479182523,-0.01966078090590461
-0.000409077397452051,-0.0005407664206327463,-0.02695732824521929
-0.0004090073974520509,-0.004190429479180863,-0.02330905457556278
-0.0004089373974520509,-0.007840092537730639,-0.02330905457556278
-0.000408867397452051,-0.01148975559627544,-0.02330905457556278
-0.000408797397452051,-0.01148975559628042,-0.02695732824521929
-0.000408727397452051,-0.0078400925377323,-0.03060560191488078
-0.000408657397452051,-0.004190429479182523,-0.02695732824522427
-0.0004085873974520509,-0.007840092537730639,-0.02330905457556278
-0.0004085173974520509,-0.007840092537730639,-0.02695732824522261
-0.000408447397452051,-0.0005407664206410452,-0.02330905457556776
-0.000408377397452051,-0.004190429479177544,-0.02330905457556278
-0.000408307397452051,-0.004190429479180863,-0.01966078090590461
-0.000408237397452051,-0.004190429479180863,-0.01966078090590295
-0.0004081673974520509,-0.0005407664206310866,-0.01966078090590295
-0.0004080973974520509,-0.007840092537730639,-0.01601250723624312
-0.0004080273974520509,-0.004190429479180863,-0.01966078090590295
-0.000407957397452051,-0.004190429479180863,-0.01966078090590295
-0.000407887397452051,-0.004190429479180863,-0.02695732824521929
-0.000407817397452051,-0.0114897555962771,-0.02695732824522261
-0.000407747397452051,-0.0005407664206310866,-0.01601250723624312
-0.0004076773974520509,-0.0005407664206310866,-0.02695732824522261
-0.0004076073974520509,0.006758559696463488,-0.01966078090590461
-0.000407537397452051,-0.004190429479170907,-0.02330905457555946
-0.000407467397452051,-0.004190429479180863,-0.02695732824522095
-0.000407397397452051,-0.0005407664206327463,-0.02695732824522261
-0.000407327397452051,-0.0005407664206310866,-0.02330905457556278
-0.0004072573974520509,-0.004190429479180863,-0.03060560191488244
-0.0004071873974520509,-0.004190429479182523,-0.02695732824521929
-0.000407117397452051,-0.007840092537727321,-0.01966078090590959
-0.000407047397452051,-0.004190429479182523,-0.01966078090590295
-0.000406977397452051,-0.004190429479180863,-0.01601250723624478
-0.000406907397452051,0.00310889663791869,-0.01966078090590295
-0.0004068373974520509,0.00310889663791869,-0.01966078090590295
-0.0004067673974520509,0.003108896637915371,-0.01966078090590461
-0.000406697397452051,-0.004190429479174224,-0.02330905457555946
-0.000406627397452051,0.003108896637912051,-0.02330905457556278
-0.000406557397452051,-0.004190429479177544,-0.02695732824522095
-0.000406487397452051,-0.0005407664206310866,-0.02695732824522261
-0.0004064173974520509,0.006758559696468467,-0.01601250723624312
-0.0004063473974520509,-0.0005407664206294269,-0.02695732824522095
-0.000406277397452051,0.003108896637915371,-0.0233090545755661
-0.000406207397452051,0.01040822275501161,-0.01966078090590627
-0.000406137397452051,-0.0005407664206261084,-0.02330905457556112
-0.000406067397452051,-0.0005407664206310866,-0.01601250723624312
-0.0004059973974520509,-0.004190429479180863,-0.01236423356658329
-0.0004059273974520509,-0.004190429479180863,-0.02330905457556112
-0.000405857397452051,-0.004190429479180863,-0.01966078090590627
-0.000405787397452051,-0.000540766420634406,-0.02330905457555946
-0.000405717397452051,0.00310889663791703,-0.01966078090590461
-0.000405647397452051,0.01040822275501824,-0.02330905457556278
-0.0004055773974520509,-0.004190429479180863,-0.02330905457556278
-0.0004055073974520509,-0.004190429479177544,-0.0160125072362481
-0.000405437397452051,0.003108896637912051,-0.02695732824521265
-0.000405367397452051,0.006758559696465148,-0.01966078090590959
-0.000405297397452051,-0.004190429479175885,-0.02695732824521929
-0.000405227397452051,0.006758559696468467,-0.01966078090590295
-0.0004051573974520509,0.00310889663791869,-0.01966078090590295
-0.0004050873974520509,-0.0005407664206294269,-0.01966078090590295
-0.000405017397452051,0.003108896637915371,-0.01966078090590295
-0.000404947397452051,0.00310889663791869,-0.01966078090590295
-0.000404877397452051,0.00310889663791869,-0.01236423356658661
-0.000404807397452051,-0.0005407664206310866,-0.01966078090590295
-0.0004047373974520509,-0.0005407664206310866,-0.02330905457556278
-0.0004046673974520509,0.003108896637913711,-0.02330905457556112
-0.000404597397452051,-0.007840092537720682,-0.01966078090590627
-0.000404527397452051,-0.0005407664206377259,-0.02330905457555946
-0.000404457397452051,-0.0005407664206310866,-0.02330905457556278
-0.000404387397452051,0.00310889663791869,-0.02330905457556278
-0.0004043173974520509,-0.0005407664206310866,-0.02330905457556278
-0.0004042473974520509,0.003108896638607455,-0.02695732824527404
-0.000404177397452051,1.517719065934698,-0.1400538120045745
-0.000404107397452051,3.251309018745643,0.07154606083540033
-0.000404037397452051,3.313353290742538,0.03506332413901107
-0.000403967397452051,3.265907670981419,-0.04155042292386192
-0.0004038973974520509,3.324302279918216,2.369958472721285
-0.0004038273974520509,3.200213735927583,3.157985585367891
-0.000403757397452051,3.331601606035195,3.340399268850633
-0.000403687397452051,3.317002953801129,3.292971711145265
-0.000403617397452051,3.295104975449827,3.267433795457614
-0.000403547397452051,3.302404301566914,3.278378616466577
-0.0004034773974520509,3.306053964625467,3.285675163805902
-0.0004034073974520509,3.306053964625467,3.289323437475567
-0.000403337397452051,3.306053964625467,3.300268258484532
-0.000403267397452051,3.306053964625467,3.296619984814884
-0.000403197397452051,3.302404301566919,3.30026825848454
-0.000403127397452051,3.302404301566917,3.307564805823858
-0.0004030573974520509,3.309703627684016,3.303916532154201
-0.0004029873974520509,3.298754638508369,3.300268258484544
-0.000402917397452051,3.302404301566914,3.307564805823854
-0.000402847397452051,3.306053964625463,3.303916532154204
-0.000402777397452051,3.29875463850837,3.314861353163176
-0.000402707397452051,3.302404301566915,3.303916532154206
-0.0004026373974520509,3.302404301566917,3.300268258484541
-0.0004025673974520509,3.30240430156692,3.307564805823861
-0.000402497397452051,3.309703627684009,3.307564805823861
-0.000402427397452051,3.30605396462547,3.314861353163174
-0.000402357397452051,3.302404301566919,3.300268258484548
-0.000402287397452051,3.306053964625465,3.307564805823858
-0.0004022173974520509,3.306053964625467,3.303916532154201
-0.0004021473974520509,3.306053964625465,3.303916532154203
-0.000402077397452051,3.30240430156692,3.307564805823858
-0.000402007397452051,3.306053964625463,3.303916532154204
-0.000401937397452051,3.306053964625467,3.307564805823859
-0.000401867397452051,3.295104975449822,3.300268258484544
-0.0004017973974520509,3.302404301566917,3.303916532154201
-0.0004017273974520509,3.306053964625467,3.300268258484543
-0.000401657397452051,3.306053964625467,3.303916532154198
-0.000401587397452051,3.30240430156692,3.303916532154201
-0.000401517397452051,3.29510497544982,3.289323437475569
-0.000401447397452051,3.295104975449817,3.300268258484536
-0.0004013773974520509,3.295104975449817,3.296619984814881
-0.0004013073974520509,3.295104975449817,3.296619984814883
-0.000401237397452051,3.295104975449817,3.300268258484538
-0.000401167397452051,3.295104975449817,3.296619984814884
-0.000401097397452051,3.295104975449817,3.30026825848454
-0.000401027397452051,3.298754638508365,3.296619984814883
-0.0004009573974520509,3.295104975449817,3.292971711145221
-0.0004008873974520509,3.291455312391268,3.296619984814881
-0.000400817397452051,3.295104975449814,3.296619984814881
-0.000400747397452051,3.291455312391271,3.300268258484538
-0.000400677397452051,3.298754638508364,3.292971711145225
-0.000400607397452051,3.298754638508367,3.292971711145221
-0.0004005373974520509,3.287805649332717,3.289323437475562
-0.0004004673974520509,3.295104975449817,3.292971711145221
-0.000400397397452051,3.295104975449817,3.292971711145221
-0.000400327397452051,3.284155986274178,3.289323437475565
-0.000400257397452051,3.284155986274168,3.285675163805904
-0.000400187397452051,3.284155986274168,3.285675163805902
-0.0004001173974520509,3.280506323215618,3.282026890136242
-0.0004000473974520509,3.287805649332717,3.282026890136242
-0.000399977397452051,3.284155986274171,3.282026890136242
-0.000399907397452051,3.287805649332714,3.285675163805899
-0.000399837397452051,3.287805649332717,3.282026890136244
-0.000399767397452051,3.287805649332717,3.278378616466584
-0.0003996973974520509,3.287805649332717,3.271082069127263
-0.0003996273974520509,3.287805649332717,3.278378616466582
-0.000399557397452051,3.280506323215625,3.27108206912727
-0.000399487397452051,3.280506323215618,3.274730342796919
-0.000399417397452051,3.284155986274166,3.271082069127265
-0.000399347397452051,3.284155986274168,3.274730342796921
-0.0003992773974520509,3.295104975449817,3.274730342796922
-0.0003992073974520509,3.291455312391268,3.278378616466582
-0.000399137397452051,3.287805649332721,3.27108206912727
-0.000399067397452051,3.284155986274171,3.274730342796919
-0.000398997397452051,3.291455312391264,3.274730342796922
-0.000398927397452051,3.284155986274171,3.274730342796922
-0.0003988573974520509,3.291455312391268,3.282026890136242
-0.0003987873974520509,3.287805649332717,3.278378616466582
-0.000398717397452051,3.284155986274171,3.278378616466582
-0.000398647397452051,3.287805649332714,3.289323437475552
-0.000398577397452051,3.28415598627417,3.282026890136245
-0.000398507397452051,3.287805649332716,3.282026890136242
-0.0003984373974520509,3.291455312391268,3.282026890136242
-0.0003983673974520509,3.287805649332717,3.282026890136242
-0.000398297397452051,3.280506323215625,3.278378616466585
-0.000398227397452051,3.284155986274165,3.282026890136239
-0.000398157397452051,3.287805649332716,3.2856751638059
-0.000398087397452051,3.28415598627417,3.278378616466585
-0.0003980173974520509,3.284155986274168,3.285675163805902
-0.0003979473974520509,3.280506323215618,3.282026890136242
-0.000397877397452051,3.280506323215618,3.289323437475555
-0.000397807397452051,3.273206997098525,3.285675163805905
-0.000397737397452051,3.280506323215615,3.282026890136244
-0.000397667397452051,3.280506323215618,3.282026890136242
-0.0003975973974520509,3.273206997098518,3.292971711145221
-0.0003975273974520509,3.280506323215618,3.285675163805902
-0.000397457397452051,3.280506323215618,3.282026890136247
-0.000397387397452051,3.280506323215618,3.282026890136242
-0.000397317397452051,3.284155986274166,3.2856751638059
-0.000397247397452051,3.273206997098523,3.282026890136244
-0.0003971773974520509,3.269557334039969,3.278378616466582
-0.0003971073974520509,3.280506323215618,3.285675163805902
-0.000397037397452051,3.284155986274163,3.282026890136247
-0.000396967397452051,3.280506323215621,3.278378616466585
-0.000396897397452051,3.280506323215618,3.274730342796924
-0.000396827397452051,3.291455312391263,3.282026890136239
-0.0003967573974520509,3.284155986274168,3.282026890136242
-0.0003966873974520509,3.287805649332717,3.278378616466582
-0.000396617397452051,3.287805649332717,3.285675163805892
-0.000396547397452051,3.287805649332717,3.278378616466589
-0.000396477397452051,3.287805649332717,3.28202689013624
-0.000396407397452051,3.287805649332717,3.278378616466584
-0.0003963373974520509,3.287805649332717,3.274730342796922
-0.0003962673974520509,3.291455312391268,3.271082069127263
-0.0003961973974520509,3.287805649332717,3.274730342796922
-0.000396127397452051,3.287805649332717,3.274730342796922
-0.000396057397452051,3.291455312391266,3.274730342796922
-0.000395987397452051,3.287805649332719,3.267433795457606
-0.000395917397452051,3.287805649332717,3.271082069127263
-0.0003958473974520509,3.280506323215618,3.274730342796922
-0.0003957773974520509,3.276856660157073,3.267433795457608
-0.000395707397452051,3.287805649332708,3.278378616466572
-0.000395637397452051,3.280506323215621,3.271082069127266
-0.000395567397452051,3.291455312391263,3.271082069127263
-0.000395497397452051,3.287805649332717,3.274730342796922
-0.0003954273974520509,3.284155986274168,3.271082069127263
-0.0003953573974520509,3.280506323215618,3.271082069127265
-0.000395287397452051,3.280506323215618,3.274730342796919
-0.000395217397452051,3.280506323215618,3.274730342796922
-0.000395147397452051,3.27685666015707,3.282026890136239
-0.000395077397452051,3.284155986274168,3.285675163805902
-0.0003950073974520509,3.284155986274168,3.274730342796922
-0.0003949373974520509,3.273206997098518,3.274730342796922
-0.000394867397452051,3.273206997098518,3.274730342796922
-0.000394797397452051,3.280506323215612,3.278378616466579
-0.000394727397452051,3.27685666015707,3.274730342796924
-0.000394657397452051,3.276856660157068,3.274730342796922
-0.0003945873974520509,3.273206997098518,3.278378616466582
-0.0003945173974520509,3.280506323215618,3.274730342796924
-0.000394447397452051,3.280506323215618,3.278378616466579
-0.000394377397452051,3.276856660157071,3.282026890136239
-0.000394307397452051,3.276856660157068,3.274730342796925
-0.000394237397452051,3.284155986274168,3.274730342796922
-0.0003941673974520509,3.280506323215618,3.274730342796922
