gitfigures/ImplementationTest/overdrive_computationtime.csv

#Digilent WaveForms Oscilloscope Acquisition
#Device Name: Discovery2
#Serial Number: SN:210321B053D5
#Date Time: 2025-05-15 15:11:10.570
#Sample rate: 1.42857e+07Hz
#Samples: 8192
#Trigger: Source: Channel 1 Type: Edge Condition: Rising Level: 0 V Hyst.: Auto HoldOff: 0 s
#Channel 1: Range: 1 V/div Offset: 0 V Sample Mode: Average
#Channel 2: Range: 1 V/div Offset: 0 V Sample Mode: Average

Time (s),Channel 1 (V),Channel 2 (V)
-0.0004168319429065964,3.309703627684016,3.32945444784182
-0.0004167619429065964,3.313353290742566,3.32945444784182
-0.0004166919429065964,3.309703627684014,3.32945444784182
-0.0004166219429065964,3.306053964625467,3.32945444784182
-0.0004165519429065964,3.309703627684016,3.32580617417216
-0.0004164819429065964,3.298754638508369,3.32945444784182
-0.0004164119429065964,3.302404301566917,3.32945444784182
-0.0004163419429065964,3.302404301566917,3.3221579005025
-0.0004162719429065964,3.298754638508369,3.325806174172159
-0.0004162019429065964,3.302404301566917,3.3221579005025
-0.0004161319429065964,3.309703627684016,3.32580617417216
-0.0004160619429065964,3.302404301566919,3.322157900502499
-0.0004159919429065964,3.306053964625467,3.31850962683284
-0.0004159219429065964,3.302404301566917,3.32580617417216
-0.0004158519429065964,3.295104975449817,3.3221579005025
-0.0004157819429065964,3.295104975449817,3.3221579005025
-0.0004157119429065964,3.298754638508367,3.32945444784182
-0.0004156419429065964,3.298754638508365,3.336750995181131
-0.0004155719429065964,3.295104975449819,3.318509626832849
-0.0004155019429065964,3.389996214972111,3.161633859037468
-0.0004154319429065964,3.127220474756622,-0.4063777898896092
-0.0004153619429065964,3.33525126909377,0.1116770712016154
-0.0004152919429065964,3.335251269093865,0.0861391555142321
-0.0004152219429065964,3.284155986274171,-0.001419412557602146
-0.0004151519429065964,3.291455312391264,0.002228861112054365
-0.0004150819429065964,3.302404301566917,0.009525408451375682
-0.0004150119429065964,3.298754638508365,0.009525408451370706
-0.0004149419429065964,3.295104975449819,-0.001419412557598828
-0.0004148719429065964,3.295104975449817,0.002228861112056024
-0.0004148019429065964,3.295104975449815,-0.001419412557607123
-0.0004147319429065964,3.291455312391269,-0.008715959896920145
-0.0004146619429065964,3.291455312391268,-0.008715959896923463
-0.0004145919429065964,3.295104975449815,-0.008715959896925122
-0.0004145219429065964,3.291455312391269,-0.01236423356658163
-0.0004144519429065964,3.295104975449817,-0.01236423356658329
-0.0004143819429065964,3.295104975449815,-0.01966078090589797
-0.0004143119429065964,3.291455312391269,-0.00871595989692844
-0.0004142419429065964,3.295104975449817,-0.01236423356658329
-0.0004141719429065964,3.298754638508365,-0.01236423356658495
-0.0004141019429065964,3.295104975449819,-0.01601250723624146
-0.0004140319429065964,3.287805649332717,-0.01236423356658329
-0.0004139619429065964,3.298754638508365,-0.005067686227265293
-0.0004138919429065964,3.295104975449819,-0.008715959896921805
-0.0004138219429065964,3.287805649332717,-0.008715959896923463
-0.0004137519429065964,3.291455312391269,-0.001419412557608782
-0.0004136819429065964,3.295104975449815,-0.01236423356657832
-0.0004136119429065964,3.291455312391268,-0.001419412557603805
-0.0004135419429065964,3.298754638508367,-0.008715959896921805
-0.0004134719429065964,3.298754638508367,-0.005067686227265293
-0.0004134019429065964,3.291455312391268,-0.008715959896923463
-0.0004133319429065964,3.298754638508365,-0.008715959896923463
-0.0004132619429065964,3.295104975449819,-0.008715959896923463
-0.0004131919429065964,3.291455312391268,-0.01236423356658329
-0.0004131219429065964,3.298754638508367,-0.005067686227263634
-0.0004130519429065964,3.298754638508367,-0.005067686227263634
-0.0004129819429065964,3.298754638508367,-0.001419412557603805
-0.0004129119429065964,3.298754638508365,-0.01236423356657997
-0.0004128419429065964,3.295104975449819,-0.005067686227266952
-0.0004127719429065964,3.298754638508367,-0.005067686227263634
-0.0004127019429065964,3.298754638508367,-0.008715959896923463
-0.0004126319429065964,3.295104975449819,-0.001419412557607123
-0.0004125619429065964,3.298754638508367,0.005877134781715853
-0.0004124919429065964,3.291455312391268,0.002228861112056024
-0.0004124219429065964,3.287805649332719,-0.001419412557602146
-0.0004123519429065964,3.295104975449817,-0.005067686227263634
-0.0004122819429065964,3.291455312391268,-0.001419412557603805
-0.0004122119429065964,3.287805649332719,0.002228861112054365
-0.0004121419429065964,3.295104975449817,-0.008715959896923463
-0.0004120719429065964,3.287805649332717,-0.008715959896923463
-0.0004120019429065964,3.295104975449814,0.002228861112051048
-0.0004119319429065964,3.298754638508367,-0.001419412557603805
-0.0004118619429065964,3.295104975449817,0.002228861112056024
-0.0004117919429065964,3.291455312391269,0.002228861112056024
-0.0004117219429065964,3.298754638508367,0.005877134781715853
-0.0004116519429065964,3.295104975449817,-0.005067686227263634
-0.0004115819429065964,3.291455312391269,-0.005067686227263634
-0.0004115119429065964,3.287805649332717,-0.001419412557603805
-0.0004114419429065964,3.295104975449817,-0.001419412557603805
-0.0004113719429065964,3.298754638508365,-0.001419412557603805
-0.0004113019429065964,3.295104975449817,-0.001419412557603805
-0.0004112319429065964,3.291455312391268,0.005877134781715853
-0.0004111619429065964,3.298754638508364,0.002228861112057683
-0.0004110919429065964,3.302404301566917,0.002228861112056024
-0.0004110219429065964,3.295104975449817,0.005877134781715853
-0.0004109519429065964,3.291455312391269,0.002228861112057683
-0.0004108819429065964,3.306053964625467,0.002228861112056024
-0.0004108119429065964,3.302404301566917,0.005877134781715853
-0.0004107419429065964,3.302404301566917,-0.001419412557600488
-0.0004106719429065964,3.302404301566917,-0.001419412557603805
-0.0004106019429065964,3.302404301566917,0.009525408451375682
-0.0004105319429065964,3.302404301566917,0.009525408451375682
-0.0004104619429065964,3.298754638508367,0.002228861112056024
-0.0004103919429065964,3.306053964625467,0.005877134781715853
-0.0004103219429065964,3.302404301566919,0.005877134781715853
-0.0004102519429065964,3.306053964625467,0.002228861112056024
-0.0004101819429065964,3.306053964625467,0.002228861112056024
-0.0004101119429065964,3.302404301566919,0.002228861112056024
-0.0004100419429065964,3.306053964625467,0.002228861112056024
-0.0004099719429065964,3.302404301566917,0.005877134781715853
-0.0004099019429065964,3.309703627684013,-0.001419412557600488
-0.0004098319429065964,3.313353290742566,-0.001419412557603805
-0.0004097619429065964,3.302404301566917,0.002228861112056024
-0.0004096919429065964,3.298754638508369,0.005877134781714194
-0.0004096219429065964,3.309703627684016,0.009525408451375682
-0.0004095519429065964,3.302404301566917,0.005877134781715853
-0.0004094819429065964,3.302404301566917,0.005877134781715853
-0.0004094119429065964,3.309703627684016,0.009525408451375682
-0.0004093419429065964,3.302404301566917,-0.005067686227263634
-0.0004092719429065964,3.306053964625465,-0.001419412557605464
-0.0004092019429065964,3.302404301566917,0.002228861112056024
-0.0004091319429065964,3.306053964625467,0.005877134781715853
-0.0004090619429065964,3.309703627684014,0.005877134781715853
-0.0004089919429065964,3.302404301566917,0.009525408451375682
-0.0004089219429065964,3.298754638508367,0.002228861112056024
-0.0004088519429065964,3.302404301566915,0.002228861112056024
-0.0004087819429065964,3.306053964625467,-0.001419412557603805
-0.0004087119429065964,3.309703627684016,0.002228861112056024
-0.0004086419429065964,3.306053964625468,0.002228861112056024
-0.0004085719429065964,3.302404301566917,0.002228861112056024
-0.0004085019429065964,3.302404301566917,0.002228861112056024
-0.0004084319429065964,3.302404301566917,0.005877134781714194
-0.0004083619429065964,3.309703627684016,0.002228861112056024
-0.0004082919429065964,0.8133340956359691,-0.05249524393284141
-0.0004082219429065964,0.1344967667456592,0.09708397652315351
-0.0004081519429065964,0.02135721193066757,-0.03060560191488244
-0.0004080819429065964,0.03230620110631691,-0.01966078090590295
-0.0004080119429065964,0.03595586416486668,0.01317368212103219
-0.0004079419429065964,0.03595586416486668,0.005877134781715853
-0.0004078719429065964,0.01405788581356802,-0.005067686227263634
-0.0004078019429065964,0.01405788581356802,0.002228861112057683
-0.0004077319429065964,0.01405788581356802,0.005877134781715853
-0.0004076619429065964,0.00310889663791869,-0.008715959896923463
-0.0004075919429065964,0.01040822275501824,0.005877134781714193
-0.0004075219429065964,0.01040822275501824,0.002228861112056024
-0.0004074519429065964,-0.0005407664206310866,0.002228861112056024
-0.0004073819429065964,0.00310889663791869,0.005877134781712535
-0.0004073119429065964,0.00310889663791869,-0.001419412557603805
-0.0004072419429065964,0.00310889663791869,0.002228861112056024
-0.0004071719429065964,0.00310889663791869,0.005877134781714193
-0.0004071019429065964,0.00310889663791869,0.002228861112056024
-0.0004070319429065964,-0.0005407664206310866,0.002228861112056024
-0.0004069619429065964,0.006758559696468467,0.002228861112057683
-0.0004068919429065964,0.006758559696468467,0.005877134781715853
-0.0004068219429065964,0.00310889663791869,0.002228861112056024
-0.0004067519429065964,0.00310889663791869,0.005877134781717512
-0.0004066819429065964,0.00310889663791869,0.009525408451375682
-0.0004066119429065964,0.006758559696468467,0.005877134781715853
-0.0004065419429065964,0.00310889663791869,0.005877134781715853
-0.0004064719429065964,0.00310889663791869,0.005877134781715853
-0.0004064019429065964,-0.0005407664206310866,0.005877134781715853
-0.0004063319429065964,0.006758559696468467,0.005877134781715853
-0.0004062619429065964,0.006758559696468467,0.005877134781715853
-0.0004061919429065964,-0.004190429479180863,0.002228861112056024
-0.0004061219429065964,0.003108896637915371,0.009525408451374024
-0.0004060519429065964,-0.004190429479180863,0.005877134781715853
-0.0004059819429065964,-0.004190429479180863,0.005877134781715853
-0.0004059119429065964,0.01040822275501824,0.009525408451372364
-0.0004058419429065964,0.01040822275501824,0.002228861112056024
-0.0004057719429065964,0.00310889663791869,0.005877134781715853
-0.0004057019429065964,0.003108896637915371,0.009525408451374024
-0.0004056319429065964,-0.004190429479180863,0.005877134781715853
-0.0004055619429065964,-0.004190429479180863,-0.001419412557603805
-0.0004054919429065964,0.00310889663792035,-0.001419412557602146
-0.0004054219429065964,0.006758559696468467,0.002228861112056024
-0.0004053519429065964,-0.0005407664206310866,0.002228861112056024
-0.0004052819429065964,0.0104082227550199,-0.001419412557600487
-0.0004052119429065964,0.01405788581356802,0.005877134781715853
-0.0004051419429065964,0.01405788581356802,0.005877134781715853
-0.0004050719429065964,0.003108896637922009,0.002228861112054365
-0.0004050019429065964,0.01040822275501824,-0.001419412557603805
-0.0004049319429065964,0.0177075488721178,0.002228861112056024
-0.0004048619429065964,0.0104082227550199,-0.001419412557600487
-0.0004047919429065964,0.01405788581356802,0.005877134781715853
-0.0004047219429065964,0.006758559696468467,-0.001419412557603805
-0.0004046519429065964,0.003108896637922009,0.005877134781710876
-0.0004045819429065964,0.01040822275501824,-0.005067686227263634
-0.0004045119429065964,0.01040822275501824,0.002228861112056024
-0.0004044419429065964,0.0104082227550199,0.002228861112056024
-0.0004043719429065964,0.01405788581356802,0.002228861112056024
-0.0004043019429065964,0.006758559696468467,-0.005067686227263634
-0.0004042319429065964,0.01040822275501824,-0.001419412557603805
-0.0004041619429065964,0.01040822275501824,-0.001419412557603805
-0.0004040919429065964,0.006758559696468467,-0.001419412557603805
-0.0004040219429065964,0.0140578858135647,-0.001419412557603805
-0.0004039519429065964,0.006758559696468467,-0.001419412557603805
-0.0004038819429065964,0.00310889663791869,-0.008715959896923463
-0.0004038119429065964,0.006758559696468467,-0.001419412557602146
-0.0004037419429065964,0.006758559696468467,0.002228861112054365
-0.0004036719429065964,0.01040822275501824,0.002228861112056024
-0.0004036019429065964,0.006758559696470126,-0.001419412557602146
-0.0004035319429065964,0.01040822275501658,0.002228861112054365
-0.0004034619429065964,0.00310889663791869,-0.001419412557603805
-0.0004033919429065964,-0.0005407664206327463,-0.001419412557603805
-0.0004033219429065964,-0.004190429479179204,-0.001419412557603805
-0.0004032519429065964,0.00310889663791869,0.002228861112056024
-0.0004031819429065964,0.006758559696468467,-0.001419412557605464
-0.0004031119429065964,0.006758559696468467,-0.005067686227261975
-0.0004030419429065964,0.006758559696468467,-0.001419412557603805
-0.0004029719429065964,0.006758559696466808,-0.001419412557600487
-0.0004029019429065964,0.00310889663792035,0.005877134781712535
-0.0004028319429065964,-0.004190429479180863,-0.008715959896923463
-0.0004027619429065964,0.00310889663792035,-0.001419412557603805
-0.0004026919429065964,0.006758559696466807,-0.001419412557603805
-0.0004026219429065964,0.006758559696468467,-0.008715959896923463
-0.0004025519429065964,0.006758559696468467,-0.005067686227263634
-0.0004024819429065964,0.006758559696468467,-0.005067686227263634
-0.0004024119429065964,0.006758559696468467,-0.001419412557603805
-0.0004023419429065964,0.006758559696466808,-0.005067686227260317
-0.0004022719429065964,0.00310889663792035,0.002228861112052706
-0.0004022019429065964,0.01040822275501824,-0.001419412557603805
-0.0004021319429065964,0.01405788581356304,-0.005067686227263634
-0.0004020619429065964,0.003108896637923669,-0.005067686227263634
-0.0004019919429065964,0.006758559696468467,-0.005067686227263634
-0.0004019219429065964,-0.004190429479175885,-0.001419412557603805
-0.0004018519429065964,0.006758559696463489,-0.001419412557603805
-0.0004017819429065964,0.006758559696468467,0.002228861112056024
-0.0004017119429065964,-0.004190429479180863,-0.001419412557600487
-0.0004016419429065964,-0.004190429479180863,0.005877134781712535
-0.0004015719429065964,0.006758559696468467,-0.001419412557603805
-0.0004015019429065964,0.006758559696466808,-0.001419412557602146
-0.0004014319429065964,0.00310889663792035,0.002228861112054365
-0.0004013619429065964,0.00310889663791869,0.002228861112056024
-0.0004012919429065964,0.006758559696468467,0.002228861112056024
-0.0004012219429065964,0.006758559696468467,0.002228861112056024
-0.0004011519429065964,0.00310889663791869,-0.005067686227263634
-0.0004010819429065964,0.01040822275501658,-0.005067686227265293
-0.0004010119429065964,0.006758559696470127,-0.008715959896921805
-0.0004009419429065964,0.006758559696468467,-0.008715959896923463
-0.0004008719429065964,0.01040822275501824,-0.005067686227263634
-0.0004008019429065964,0.01040822275501824,-0.008715959896921805
-0.0004007319429065964,0.006758559696468467,-0.008715959896923463
-0.0004006619429065964,0.00310889663791869,-0.01601250723624312
-0.0004005919429065964,0.01040822275501492,-0.008715959896926782
-0.0004005219429065964,0.00310889663791869,-0.01236423356658329
-0.0004004519429065964,0.006758559696468467,-0.008715959896923463
-0.0004003819429065964,0.00310889663792035,-0.008715959896923463
-0.0004003119429065964,0.01040822275501824,-0.01236423356658329
-0.0004002419429065964,0.006758559696468467,-0.005067686227263634
-0.0004001719429065964,0.00310889663792035,-0.005067686227263634
-0.0004001019429065964,0.006758559696468467,-0.005067686227263634
-0.0004000319429065964,0.01040822275501824,-0.001419412557603805
-0.0003999619429065964,-0.0005407664206261084,-0.01236423356657832
-0.0003998919429065964,0.00310889663791869,-0.001419412557603805
-0.0003998219429065964,-0.0005407664206310866,-0.005067686227263634
-0.0003997519429065964,0.00310889663791703,-0.005067686227263634
-0.0003996819429065964,-0.004190429479180863,-0.008715959896923463
-0.0003996119429065964,0.00310889663791869,-0.001419412557603805
-0.0003995419429065964,-0.01148975559627378,-0.005067686227261975
-0.0003994719429065964,0.00310889663791869,0.005877134781715853
-0.0003994019429065964,0.01040822275501824,-0.001419412557603805
-0.0003993319429065964,0.006758559696470127,0.009525408451370706
-0.0003992619429065964,0.00310889663791869,0.002228861112056024
-0.0003991919429065964,-0.0005407664206310866,0.002228861112056024
-0.0003991219429065964,0.00310889663791703,0.005877134781714194
-0.0003990519429065964,0.00310889663791869,0.009525408451375682
-0.0003989819429065964,-0.0005407664206310866,0.002228861112056024
-0.0003989119429065964,-0.007840092537727319,-0.001419412557602146
-0.0003988419429065964,-0.0005407664206310866,-0.001419412557603805
-0.0003987719429065964,0.00310889663791869,-0.005067686227263634
-0.0003987019429065964,0.00310889663791869,-0.001419412557605464
-0.0003986319429065964,-0.0005407664206310866,-0.005067686227263634
-0.0003985619429065964,-0.004190429479180863,-0.008715959896923463
-0.0003984919429065964,-0.004190429479180863,-0.005067686227265293
-0.0003984219429065964,-0.0005407664206310866,-0.001419412557603805
-0.0003983519429065964,-0.0005407664206310866,-0.001419412557603805
-0.0003982819429065964,-0.004190429479179204,-0.005067686227261975
-0.0003982119429065964,-0.004190429479180863,-0.005067686227263634
-0.0003981419429065964,0.00310889663791869,-0.005067686227263634
-0.0003980719429065964,-0.01148975559627378,-0.008715959896921805
-0.0003980019429065964,-0.0005407664206310866,0.002228861112056024
-0.0003979319429065964,-0.007840092537730639,-0.005067686227263634
-0.0003978619429065964,-0.0005407664206344065,-0.005067686227263634
-0.0003977919429065964,-0.004190429479180863,-0.001419412557603805
-0.0003977219429065964,-0.007840092537730639,-0.008715959896923463
-0.0003976519429065964,-0.0005407664206344065,-0.008715959896923463
-0.0003975819429065964,-0.0005407664206310866,-0.001419412557603805
-0.0003975119429065964,-0.007840092537730639,-0.001419412557603805
-0.0003974419429065964,0.006758559696461828,-0.008715959896920145
-0.0003973719429065964,-0.0005407664206310866,0.002228861112056024
-0.0003973019429065964,0.00310889663791869,0.002228861112056024
-0.0003972319429065964,-0.004190429479177544,-0.008715959896918486
-0.0003971619429065964,0.00310889663791869,-0.001419412557603805
-0.0003970919429065964,0.00310889663791869,-0.001419412557603805
-0.0003970219429065964,0.006758559696466807,-0.005067686227261975
-0.0003969519429065964,-0.0005407664206310866,-0.001419412557603805
-0.0003968819429065964,0.00310889663791869,-0.001419412557603805
-0.0003968119429065964,-0.004190429479177544,-0.001419412557603805
-0.0003967419429065964,0.006758559696468467,0.005877134781715853
-0.0003966719429065964,-0.0005407664206310866,-0.001419412557603805
-0.0003966019429065964,-0.004190429479179204,0.002228861112054365
-0.0003965319429065964,2.900941365126442,0.09343570285355175
-0.0003964619429065964,3.225761377337371,-0.1145158963170585
-0.0003963919429065964,3.273206997098527,0.009525408451380659
-0.0003963219429065964,3.291455312391268,0.02047022946035517
-0.0003962519429065964,3.284155986274168,0.009525408451375682
-0.0003961819429065964,3.119921148639583,0.593249195598322
-0.0003961119429065964,3.459339813084557,3.614019794075287
-0.0003960419429065964,3.317002953801116,3.289323437475562
-0.0003959719429065964,3.269557334039982,3.256488974448648
-0.0003959019429065964,3.298754638508367,3.311213079493521
-0.0003958319429065964,3.306053964625467,3.32580617417216
-0.0003957619429065964,3.306053964625468,3.314861353163181
-0.0003956919429065964,3.309703627684016,3.314861353163181
-0.0003956219429065964,3.306053964625467,3.31850962683284
-0.0003955519429065964,3.309703627684019,3.32580617417216
-0.0003954819429065964,3.317002953801116,3.32580617417216
-0.0003954119429065964,3.317002953801116,3.33310272151148
