gitfigures/ImplementationTest/overdrive_computationtime.csv

#Digilent WaveForms Oscilloscope Acquisition
#Device Name: Discovery2
#Serial Number: SN:210321B053D5
#Date Time: 2025-05-15 15:19:02.326
#Sample rate: 1.42857e+07Hz
#Samples: 8192
#Trigger: Source: Channel 1 Type: Edge Condition: Rising Level: 0 V Hyst.: Auto HoldOff: 0 s
#Channel 1: Range: 1 V/div Offset: 0 V Sample Mode: Average
#Channel 2: Range: 1 V/div Offset: 0 V Sample Mode: Average

Time (s),Channel 1 (V),Channel 2 (V)
-0.000416830597452051,3.309703627684016,3.33310272151148
-0.000416760597452051,3.313353290742566,3.32945444784182
-0.0004166905974520509,3.313353290742568,3.33675099518114
-0.000416620597452051,3.317002953801116,3.33675099518114
-0.000416550597452051,3.313353290742566,3.32945444784182
-0.0004164805974520509,3.317002953801114,3.333102721511478
-0.000416410597452051,3.313353290742566,3.32945444784182
-0.000416340597452051,3.313353290742566,3.33310272151148
-0.0004162705974520509,3.309703627684019,3.329454447841822
-0.000416200597452051,3.317002953801116,3.33310272151148
-0.000416130597452051,3.313353290742566,3.32945444784182
-0.0004160605974520509,3.320652616859666,3.325806174172162
-0.000415990597452051,3.320652616859666,3.32945444784182
-0.000415920597452051,3.320652616859666,3.32945444784182
-0.0004158505974520509,3.317002953801116,3.32945444784182
-0.000415780597452051,3.317002953801116,3.32945444784182
-0.000415710597452051,3.313353290742566,3.32580617417216
-0.0004156405974520509,3.313353290742566,3.32580617417216
-0.000415570597452051,3.313353290742566,3.32580617417216
-0.000415500597452051,3.306053964625467,3.32945444784182
-0.0004154305974520509,3.306053964625467,3.322157900502499
-0.000415360597452051,3.306053964625467,3.318509626832842
-0.000415290597452051,3.306053964625467,3.32945444784182
-0.0004152205974520509,3.309703627684014,3.3221579005025
-0.000415150597452051,3.306053964625468,3.3221579005025
-0.000415080597452051,3.302404301566917,3.31850962683284
-0.0004150105974520509,3.196564072869089,0.4400217014711509
-0.000414940597452051,3.452040486967341,0.2539597443186688
-0.000414870597452051,3.291455312391268,0.002228861112056024
-0.0004148005974520509,3.276856660157086,-0.001419412557587215
-0.000414730597452051,3.317002953801098,0.03506332413897789
-0.000414660597452051,3.309703627684016,0.02776677679967483
-0.0004145905974520509,3.313353290742568,0.01317368212103219
-0.000414520597452051,3.317002953801114,0.00587713478171917
-0.000414450597452051,3.317002953801116,0.005877134781715853
-0.0004143805974520509,3.313353290742563,0.009525408451374024
-0.000414310597452051,3.30605396462547,0.005877134781717511
-0.000414240597452051,3.317002953801116,0.005877134781715853
-0.0004141705974520509,3.309703627684016,0.005877134781712535
-0.000414100597452051,3.309703627684016,-0.001419412557600488
-0.000414030597452051,3.306053964625467,-0.001419412557603805
-0.0004139605974520509,3.313353290742564,-0.008715959896921805
-0.000413890597452051,3.309703627684018,-0.005067686227265293
-0.000413820597452051,3.309703627684016,-0.005067686227263634
-0.0004137505974520509,3.313353290742564,-0.001419412557607123
-0.000413680597452051,3.309703627684018,-0.008715959896920145
-0.000413610597452051,3.317002953801116,-0.008715959896923463
-0.0004135405974520509,3.317002953801116,-0.001419412557603805
-0.000413470597452051,3.317002953801116,-0.001419412557603805
-0.000413400597452051,3.313353290742566,-0.005067686227263634
-0.0004133305974520509,3.313353290742566,-0.001419412557603805
-0.000413260597452051,3.313353290742566,-0.001419412557603805
-0.000413190597452051,3.306053964625467,-0.001419412557603805
-0.0004131205974520509,3.313353290742569,-0.001419412557602146
-0.000413050597452051,3.320652616859662,0.002228861112054365
-0.000412980597452051,3.317002953801116,0.005877134781715853
-0.0004129105974520509,3.309703627684019,0.002228861112054365
-0.000412840597452051,3.317002953801113,-0.001419412557602146
-0.000412770597452051,3.309703627684016,-0.008715959896923463
-0.0004127005974520509,3.306053964625467,0.002228861112056024
-0.000412630597452051,3.309703627684014,-0.005067686227260317
-0.000412560597452051,3.313353290742566,-0.008715959896923463
-0.0004124905974520509,3.320652616859666,0.002228861112056024
-0.000412420597452051,3.317002953801118,0.002228861112056024
-0.000412350597452051,3.320652616859666,-0.001419412557603805
-0.0004122805974520509,3.313353290742566,0.002228861112056024
-0.000412210597452051,3.313353290742566,-0.001419412557602146
-0.000412140597452051,3.317002953801116,-0.005067686227263634
-0.0004120705974520509,3.317002953801116,-0.001419412557603805
-0.000412000597452051,3.320652616859664,0.002228861112054365
-0.000411930597452051,3.320652616859666,-0.001419412557603805
-0.0004118605974520509,3.324302279918216,0.002228861112056024
-0.000411790597452051,3.320652616859667,0.009525408451372366
-0.000411720597452051,3.317002953801116,0.009525408451375682
-0.0004116505974520509,3.317002953801116,0.009525408451375682
-0.000411580597452051,3.317002953801116,0.005877134781717511
-0.000411510597452051,3.313353290742566,0.009525408451375682
-0.0004114405974520509,3.313353290742566,0.005877134781715853
-0.000411370597452051,3.313353290742566,0.01317368212103219
-0.000411300597452051,3.320652616859666,0.009525408451375682
-0.0004112305974520509,3.327951942976765,0.009525408451375682
-0.000411160597452051,3.320652616859669,0.005877134781717511
-0.000411090597452051,3.317002953801116,0.01317368212103551
-0.0004110205974520509,3.317002953801116,0.01682195579069534
-0.000410950597452051,3.324302279918212,0.00587713478172083
-0.000410880597452051,3.324302279918216,0.01317368212103551
-0.0004108105974520509,3.324302279918216,0.005877134781715853
-0.000410740597452051,3.331601606035312,0.01317368212103219
-0.000410670597452051,3.317002953801116,0.002228861112056024
-0.0004106005974520509,3.320652616859666,0.005877134781715853
-0.000410530597452051,3.313353290742569,0.009525408451374024
-0.000410460597452051,3.317002953801116,0.005877134781715853
-0.0004103905974520509,3.320652616859666,0.01317368212103551
-0.000410320597452051,3.320652616859666,0.01317368212103551
-0.000410250597452051,3.324302279918216,0.009525408451375682
-0.0004101805974520509,3.320652616859666,0.009525408451375682
-0.000410110597452051,3.327951942976762,0.009525408451375682
-0.000410040597452051,3.320652616859666,0.01317368212103551
-0.0004099705974520509,3.327951942976765,0.02047022946035517
-0.000409900597452051,3.320652616859669,0.009525408451380659
-0.000409830597452051,3.317002953801116,0.009525408451375682
-0.0004097605974520509,3.324302279918216,0.01682195579069534
-0.000409690597452051,3.331601606035312,0.01682195579069534
-0.000409620597452051,3.327951942976765,0.01682195579069534
-0.0004095505974520509,3.327951942976765,0.01682195579069534
-0.000409480597452051,3.324302279918217,0.01317368212103717
-0.000409410597452051,3.324302279918216,0.01317368212103551
-0.0004093405974520509,3.317002953801116,0.01317368212103551
-0.000409270597452051,3.324302279918212,0.01682195579069368
-0.000409200597452051,3.317002953801116,0.005877134781715853
-0.0004091305974520509,3.324302279918216,0.01317368212103551
-0.000409060597452051,3.324302279918216,0.01317368212103551
-0.000408990597452051,3.331601606035315,0.002228861112056024
-0.0004089205974520509,3.324302279918216,0.005877134781715853
-0.000408850597452051,3.327951942976763,0.009525408451374024
-0.000408780597452051,3.324302279918216,0.009525408451375682
-0.0004087105974520509,3.320652616859666,0.01682195579069534
-0.000408640597452051,3.324302279918214,0.01317368212103717
-0.000408570597452051,3.327951942976765,0.009525408451375682
-0.0004085005974520509,3.331601606035315,0.005877134781715853
-0.000408430597452051,3.331601606035315,0.009525408451374024
-0.000408360597452051,3.335251269093865,0.009525408451375682
-0.0004082905974520509,3.331601606035315,0.01682195579069534
-0.0004082205974520509,2.525026070094616,0.133566713219697
-0.000408150597452051,-0.1100306581771244,-0.1145158963170585
-0.0004080805974520509,0.06880283169181467,-0.01601250723624312
-0.0004080105974520509,0.06880283169180637,0.03506332413898287
-0.000407940597452051,0.05055451639906579,0.009525408451375682
-0.0004078705974520509,0.04325519028196623,0.009525408451375682
-0.0004078005974520509,0.03960552722341147,0.01317368212103219
-0.000407730597452051,0.02865653804776713,0.005877134781715853
-0.000407660597452051,0.02865653804776713,0.005877134781715853
-0.0004075905974520509,0.01770754887211946,0.005877134781715853
-0.000407520597452051,0.02135721193066757,0.005877134781715853
-0.000407450597452051,0.0177075488721178,0.005877134781715853
-0.0004073805974520509,0.01405788581356802,0.009525408451374024
-0.000407310597452051,0.01405788581356802,0.005877134781715853
-0.000407240597452051,0.0177075488721178,0.009525408451375682
-0.0004071705974520509,0.006758559696473446,0.009525408451374024
-0.000407100597452051,0.0177075488721178,0.005877134781715853
-0.000407030597452051,0.01405788581356802,0.005877134781715853
-0.0004069605974520509,0.0104082227550199,0.009525408451375682
-0.000406890597452051,0.01405788581356802,0.009525408451375682
-0.000406820597452051,0.01040822275501824,0.009525408451375682
-0.0004067505974520509,0.01770754887211614,0.009525408451375682
-0.000406680597452051,0.01405788581356802,0.009525408451375682
-0.000406610597452051,0.01040822275501824,0.01317368212103551
-0.0004065405974520509,0.01405788581356802,0.009525408451375682
-0.000406470597452051,0.01405788581356802,0.009525408451375682
-0.000406400597452051,0.02135721193066757,0.005877134781715853
-0.0004063305974520509,0.01405788581356802,0.005877134781715853
-0.000406260597452051,0.01405788581356802,0.005877134781715853
-0.000406190597452051,0.0177075488721178,0.009525408451375682
-0.0004061205974520509,0.01770754887211614,0.005877134781715853
-0.000406050597452051,0.01405788581356802,0.005877134781715853
-0.000405980597452051,0.0177075488721178,0.005877134781715853
-0.0004059105974520509,0.014057885813573,0.002228861112056024
-0.000405840597452051,0.02500687498921735,0.002228861112056024
-0.000405770597452051,0.01405788581356802,0.005877134781715853
-0.0004057005974520509,0.02135721193066591,0.005877134781715853
-0.000405630597452051,0.0177075488721178,0.005877134781715853
-0.000405560597452051,0.01405788581356802,0.005877134781715853
-0.0004054905974520509,0.01405788581357134,0.005877134781717512
-0.000405420597452051,0.02135721193066757,0.009525408451375682
-0.000405350597452051,0.02135721193066757,0.005877134781715853
-0.0004052805974520509,0.01770754887211614,0.009525408451374024
-0.000405210597452051,0.01405788581356802,0.005877134781715853
-0.000405140597452051,0.01405788581356802,0.01317368212103551
-0.0004050705974520509,0.02135721193066591,0.005877134781717512
-0.000405000597452051,0.0177075488721178,0.009525408451375682
-0.000404930597452051,0.02135721193066757,0.002228861112056024
-0.0004048605974520509,0.0104082227550199,0.009525408451374024
-0.000404790597452051,0.01405788581356802,0.005877134781715853
-0.000404720597452051,0.01405788581356802,0.005877134781715853
-0.0004046505974520509,0.02135721193066591,0.005877134781714193
-0.000404580597452051,0.0177075488721178,0.002228861112056024
-0.000404510597452051,0.01405788581356802,-0.001419412557603805
-0.0004044405974520509,0.006758559696473446,-0.001419412557603805
-0.000404370597452051,0.0177075488721178,-0.001419412557603805
-0.000404300597452051,0.01405788581356802,0.005877134781715853
-0.0004042305974520509,0.01405788581356968,0.005877134781717512
-0.000404160597452051,0.0177075488721178,0.009525408451375682
-0.000404090597452051,0.01040822275501824,0.009525408451375682
-0.0004040205974520509,0.01770754887211946,0.002228861112057683
-0.000403950597452051,0.02135721193066757,0.005877134781715853
-0.000403880597452051,0.02135721193066757,0.005877134781715853
-0.0004038105974520509,0.01770754887211282,0.009525408451375682
-0.000403740597452051,0.006758559696473446,0.009525408451375682
-0.000403670597452051,0.01405788581356802,0.002228861112056024
-0.0004036005974520509,0.01405788581356636,0.005877134781715853
-0.000403530597452051,0.0104082227550199,0.005877134781715853
-0.000403460597452051,0.01405788581356802,0.002228861112056024
-0.0004033905974520509,0.01040822275501824,0.002228861112056024
-0.000403320597452051,0.01040822275501824,0.002228861112056024
-0.000403250597452051,0.01040822275501824,0.005877134781715853
-0.0004031805974520509,0.0177075488721178,0.002228861112056024
-0.000403110597452051,0.0177075488721178,0.002228861112056024
-0.000403040597452051,0.01040822275501824,-0.001419412557603805
-0.0004029705974520509,0.01040822275501824,0.002228861112056024
-0.000402900597452051,0.01040822275501824,0.002228861112056024
-0.000402830597452051,0.01040822275501824,0.002228861112056024
-0.0004027605974520509,0.006758559696468467,-0.005067686227260317
-0.000402690597452051,0.006758559696468467,0.002228861112052706
-0.000402620597452051,0.01040822275501824,-0.001419412557603805
-0.0004025505974520509,0.006758559696473446,-0.008715959896920145
-0.000402480597452051,0.01770754887211282,-0.001419412557607123
-0.000402410597452051,0.01040822275501824,0.002228861112056024
-0.0004023405974520509,0.0104082227550199,-0.001419412557602146
-0.000402270597452051,0.01405788581356636,0.002228861112054365
-0.000402200597452051,0.006758559696468467,-0.005067686227263634
-0.0004021305974520509,0.0104082227550199,-0.001419412557607123
-0.000402060597452051,0.01405788581356636,-0.008715959896920145
-0.000401990597452051,0.01405788581356802,0.005877134781715853
-0.0004019205974520509,0.01040822275501824,0.005877134781712535
-0.000401850597452051,0.01040822275501824,-0.001419412557600488
-0.000401780597452051,0.01040822275501824,0.002228861112056024
-0.0004017105974520509,0.01040822275501824,0.002228861112052706
-0.000401640597452051,0.01040822275501824,-0.005067686227260317
-0.000401570597452051,0.006758559696468467,-0.008715959896923463
-0.0004015005974520509,0.01405788581356636,0.002228861112052706
-0.000401430597452051,0.0104082227550199,-0.005067686227260317
-0.000401360597452051,0.01405788581356802,-0.001419412557603805
-0.0004012905974520509,0.0140578858135647,0.002228861112052706
-0.000401220597452051,0.006758559696471786,-0.005067686227260317
-0.000401150597452051,0.006758559696468467,-0.005067686227263634
-0.0004010805974520509,0.003108896637925329,-0.001419412557603805
-0.000401010597452051,0.01770754887211116,-0.001419412557603805
-0.000400940597452051,0.006758559696468467,-0.001419412557603805
-0.0004008705974520509,0.006758559696468467,-0.005067686227263634
-0.000400800597452051,0.01040822275501658,-0.001419412557605464
-0.000400730597452051,0.01405788581356802,0.002228861112056024
-0.0004006605974520509,0.01040822275501824,0.005877134781715853
-0.000400590597452051,0.006758559696470127,-0.005067686227258658
-0.000400520597452051,0.01040822275501824,-0.001419412557603805
-0.0004004505974520509,0.006758559696468467,-0.005067686227263634
-0.000400380597452051,0.01040822275501658,-0.001419412557605464
-0.000400310597452051,0.01040822275501824,0.002228861112056024
-0.0004002405974520509,0.0177075488721178,0.002228861112056024
-0.000400170597452051,0.01405788581356968,0.002228861112056024
-0.000400100597452051,0.01405788581356802,0.005877134781715853
-0.0004000305974520509,0.01040822275501824,0.005877134781715853
-0.000399960597452051,0.006758559696470127,0.005877134781715853
-0.000399890597452051,0.01040822275501824,0.005877134781715853
-0.0003998205974520509,0.006758559696468467,0.002228861112056024
-0.000399750597452051,0.006758559696468467,0.005877134781714194
-0.000399680597452051,0.01040822275501824,0.01317368212103551
-0.0003996105974520509,0.006758559696468467,0.01682195579069534
-0.000399540597452051,0.00310889663792035,0.009525408451378999
-0.000399470597452051,0.00310889663791869,0.009525408451375682
-0.0003994005974520509,0.01040822275501824,0.01317368212103551
-0.000399330597452051,0.003108896637922009,0.002228861112061
-0.000399260597452051,0.006758559696468467,0.005877134781715853
-0.0003991905974520509,0.006758559696468467,0.005877134781715853
-0.000399120597452051,0.006758559696468467,0.005877134781715853
-0.000399050597452051,0.006758559696468467,0.005877134781715853
-0.0003989805974520509,0.00310889663791869,0.005877134781715853
-0.000398910597452051,0.006758559696466807,0.005877134781715853
-0.000398840597452051,0.006758559696468467,0.005877134781715853
-0.0003987705974520509,0.006758559696468467,0.009525408451375682
-0.000398700597452051,0.0140578858135647,0.009525408451375682
-0.000398630597452051,0.00310889663791869,0.002228861112056024
-0.0003985605974520509,-0.0005407664206310866,0.002228861112056024
-0.000398490597452051,0.01040822275501327,0.002228861112056024
-0.000398420597452051,-0.0005407664206310866,0.002228861112056024
-0.0003983505974520509,0.01040822275501824,0.005877134781715853
-0.000398280597452051,0.006758559696470127,0.002228861112057683
-0.000398210597452051,0.006758559696468467,0.005877134781715853
-0.0003981405974520509,-0.0005407664206310866,-0.005067686227263634
-0.000398070597452051,0.01040822275501327,0.005877134781710877
-0.000398000597452051,0.01040822275501824,0.009525408451375682
-0.0003979305974520509,0.006758559696468467,0.002228861112056024
-0.000397860597452051,0.0140578858135647,0.005877134781714194
-0.000397790597452051,0.006758559696468467,0.009525408451375682
-0.0003977205974520509,0.00310889663791869,0.009525408451375682
-0.000397650597452051,0.00310889663791869,0.01317368212103385
-0.000397580597452051,-0.0005407664206310866,0.005877134781715853
-0.0003975105974520509,0.006758559696468467,0.002228861112056024
-0.000397440597452051,0.01040822275501658,0.009525408451372366
-0.000397370597452051,0.01040822275501824,0.005877134781715853
-0.0003973005974520509,0.01040822275501824,0.002228861112056024
-0.000397230597452051,0.003108896637922009,0.002228861112056024
-0.000397160597452051,0.01040822275501824,0.005877134781715853
-0.0003970905974520509,0.01040822275501824,-0.001419412557603805
-0.000397020597452051,0.01040822275501824,0.005877134781712535
-0.000396950597452051,0.0177075488721178,0.009525408451375682
-0.0003968805974520509,0.006758559696468467,0.005877134781715853
-0.000396810597452051,0.01040822275501658,0.005877134781715853
-0.000396740597452051,0.01040822275501824,0.002228861112056024
-0.0003966705974520509,0.01040822275501824,-0.001419412557603805
-0.000396600597452051,2.838897093129809,0.09708397652316678
-0.000396530597452051,3.229411040395921,-0.103571075308079
-0.0003964605974520509,3.276856660157068,0.02047022946035517
-0.0003963905974520509,3.28415598627417,0.0168219557906887
-0.000396320597452051,3.287805649332717,0.002228861112056024
-0.0003962505974520509,3.119921148639428,1.038338583295447
-0.0003961805974520509,3.444741160850313,3.50821985765507
-0.000396110597452051,3.346200258269514,3.32945444784182
-0.0003960405974520509,3.284155986274168,3.260137248118283
-0.0003959705974520509,3.306053964625467,3.292971711145228
-0.000395900597452051,3.306053964625467,3.307564805823861
-0.0003958305974520509,3.317002953801116,3.307564805823861
-0.0003957605974520509,3.313353290742564,3.314861353163181
-0.000395690597452051,3.309703627684016,3.314861353163181
-0.000395620597452051,3.313353290742566,3.314861353163181
-0.0003955505974520509,3.309703627684018,3.325806174172159
-0.000395480597452051,3.313353290742566,3.3221579005025
-0.000395410597452051,3.313353290742566,3.32945444784182
-0.0003953405974520509,3.317002953801116,3.322157900502502
-0.000395270597452051,3.317002953801116,3.32580617417216
-0.000395200597452051,3.309703627684016,3.32945444784182
-0.0003951305974520509,3.30605396462547,3.340399268850796
-0.000395060597452051,3.313353290742566,3.33310272151148
-0.000394990597452051,3.309703627684016,3.32945444784182
-0.0003949205974520509,3.30605396462547,3.33310272151148
-0.000394850597452051,3.313353290742566,3.33310272151148
-0.000394780597452051,3.313353290742566,3.32945444784182
