gitfigures/ImplementationTest/tremolo_computationtime.csv

#Digilent WaveForms Oscilloscope Acquisition
#Device Name: Discovery2
#Serial Number: SN:210321B053D5
#Date Time: 2025-05-15 15:11:55.632
#Sample rate: 1.42857e+07Hz
#Samples: 8192
#Trigger: Source: Channel 1 Type: Edge Condition: Rising Level: 0 V Hyst.: Auto HoldOff: 0 s
#Channel 1: Range: 1 V/div Offset: 0 V Sample Mode: Average
#Channel 2: Range: 1 V/div Offset: 0 V Sample Mode: Average

Time (s),Channel 1 (V),Channel 2 (V)
-0.000416830370425024,3.404594867206311,1.6147658231017
-0.0004167603704250239,3.284155986274168,0.0496564188176338
-0.0004166903704250239,3.247659355688705,-0.07803315962040215
-0.000416620370425024,3.324302279918216,0.0496564188176338
-0.0004165503704250239,3.349849921328064,0.06060123982661329
-0.0004164803704250239,3.32795194297676,0.02047022946035683
-0.000416410370425024,3.317002953801116,0.024118503130015
-0.0004163403704250239,3.327951942976765,0.01682195579069534
-0.0004162703704250239,3.320652616859669,0.009525408451375682
-0.000416200370425024,3.327951942976765,0.009525408451375682
-0.0004161303704250239,3.327951942976765,0.005877134781715853
-0.0004160603704250239,3.327951942976765,-0.001419412557603805
-0.000415990370425024,3.327951942976765,-0.001419412557603805
-0.0004159203704250239,3.324302279918216,0.002228861112056024
-0.0004158503704250239,3.317002953801119,-0.008715959896920145
-0.000415780370425024,3.324302279918216,-0.001419412557603805
-0.0004157103704250239,3.324302279918216,-0.001419412557603805
-0.0004156403704250239,3.324302279918216,-0.001419412557603805
-0.000415570370425024,3.324302279918216,-0.001419412557603805
-0.000415500370425024,3.324302279918216,-0.001419412557603805
-0.0004154303704250239,3.317002953801119,-0.005067686227256998
-0.000415360370425024,3.324302279918212,0.009525408451369045
-0.000415290370425024,3.320652616859666,-0.005067686227263634
-0.0004152203704250239,3.320652616859666,-0.005067686227263634
-0.000415150370425024,3.320652616859666,-0.005067686227263634
-0.000415080370425024,3.320652616859666,-0.008715959896923463
-0.0004150103704250239,3.320652616859667,-0.008715959896925122
-0.000414940370425024,3.324302279918214,-0.01236423356658163
-0.000414870370425024,3.324302279918216,-0.005067686227263634
-0.0004148003704250239,3.320652616859664,-0.005067686227263634
-0.000414730370425024,3.317002953801118,-0.005067686227263634
-0.000414660370425024,3.320652616859666,-0.01236423356658329
-0.0004145903704250239,3.320652616859666,-0.008715959896921805
-0.000414520370425024,3.320652616859666,-0.005067686227265293
-0.000414450370425024,3.320652616859666,-0.001419412557603805
-0.0004143803704250239,3.320652616859666,-0.01236423356658329
-0.000414310370425024,3.320652616859666,-0.01236423356658329
-0.000414240370425024,3.317002953801116,-0.01601250723624312
-0.0004141703704250239,3.320652616859666,-0.005067686227265293
-0.000414100370425024,3.320652616859666,-0.008715959896921805
-0.000414030370425024,3.317002953801116,-0.01236423356658329
-0.0004139603704250239,3.324302279918216,-0.008715959896923463
-0.000413890370425024,3.324302279918216,-0.008715959896923463
-0.000413820370425024,3.320652616859666,-0.005067686227263634
-0.0004137503704250239,3.320652616859666,-0.005067686227261975
-0.000413680370425024,3.320652616859666,-0.001419412557605464
-0.000413610370425024,3.324302279918216,-0.01236423356658329
-0.0004135403704250239,3.317002953801114,-0.005067686227258657
-0.000413470370425024,3.313353290742568,0.005877134781710877
-0.000413400370425024,3.324302279918216,-0.001419412557603805
-0.0004133303704250239,3.327951942976762,0.002228861112056024
-0.000413260370425024,3.320652616859669,0.002228861112056024
-0.000413190370425024,3.320652616859666,0.002228861112056024
-0.0004131203704250239,3.324302279918214,0.005877134781714193
-0.000413050370425024,3.320652616859667,0.002228861112057683
-0.000412980370425024,3.317002953801116,0.002228861112056024
-0.0004129103704250239,3.317002953801118,0.00587713478171917
-0.000412840370425024,3.320652616859664,0.01317368212103219
-0.000412770370425024,3.324302279918216,0.002228861112056024
-0.0004127003704250239,3.320652616859666,0.005877134781715853
-0.000412630370425024,3.327951942976762,0.005877134781715853
-0.000412560370425024,3.327951942976765,-0.001419412557603805
-0.0004124903704250239,3.324302279918216,-0.005067686227263634
-0.000412420370425024,3.327951942976763,0.005877134781710877
-0.000412350370425024,3.331601606035315,0.002228861112056024
-0.0004122803704250239,3.327951942976765,0.002228861112056024
-0.000412210370425024,3.324302279918217,-0.005067686227260317
-0.000412140370425024,3.335251269093865,0.002228861112056024
-0.0004120703704250239,3.324302279918216,0.005877134781715853
-0.000412000370425024,3.327951942976763,0.01317368212103219
-0.000411930370425024,3.335251269093865,0.002228861112056024
-0.0004118603704250239,3.324302279918216,0.002228861112056024
-0.000411790370425024,3.324302279918216,0.005877134781714194
-0.000411720370425024,3.320652616859666,0.002228861112056024
-0.0004116503704250239,3.320652616859666,0.01317368212103551
-0.000411580370425024,3.327951942976762,0.009525408451377341
-0.000411510370425024,3.324302279918216,0.005877134781715853
-0.0004114403704250239,3.327951942976765,-0.001419412557603805
-0.000411370370425024,3.324302279918217,0.005877134781712535
-0.000411300370425024,3.324302279918216,0.002228861112056024
-0.0004112303704250239,3.324302279918216,-0.001419412557603805
-0.000411160370425024,3.327951942976763,0.002228861112054365
-0.000411090370425024,3.327951942976765,0.005877134781715853
-0.0004110203704250239,3.317002953801116,0.005877134781715853
-0.000410950370425024,3.317002953801116,0.005877134781715853
-0.000410880370425024,3.327951942976765,-0.001419412557603805
-0.0004108103704250239,3.317002953801116,-0.001419412557603805
-0.000410740370425024,3.320652616859664,0.005877134781712535
-0.000410670370425024,3.320652616859666,-0.001419412557603805
-0.0004106003704250239,3.320652616859666,0.002228861112056024
-0.000410530370425024,3.324302279918214,0.005877134781714194
-0.000410460370425024,3.327951942976765,-0.001419412557603805
-0.0004103903704250239,3.331601606035315,0.005877134781715853
-0.000410320370425024,3.327951942976767,0.002228861112057683
-0.000410250370425024,3.324302279918216,-0.001419412557603805
-0.0004101803704250239,3.331601606035315,-0.001419412557603805
-0.000410110370425024,3.327951942976767,0.005877134781712535
-0.000410040370425024,3.331601606035315,0.005877134781715853
-0.0004099703704250239,3.327951942976765,0.005877134781715853
-0.000409900370425024,3.331601606035313,0.002228861112057683
-0.000409830370425024,3.335251269093865,0.005877134781715853
-0.0004097603704250239,3.331601606035315,0.005877134781715853
-0.000409690370425024,3.331601606035315,0.005877134781715853
-0.000409620370425024,3.335251269093865,0.005877134781715853
-0.0004095503704250239,3.335251269093865,0.005877134781715853
-0.000409480370425024,3.331601606035317,0.009525408451374024
-0.000409410370425024,3.331601606035315,0.002228861112056024
-0.0004093403704250239,3.331601606035315,0.009525408451375682
-0.000409270370425024,3.335251269093863,0.009525408451375682
-0.000409200370425024,3.342550595210964,0.009525408451375682
-0.0004091303704250239,3.338900932152415,0.009525408451375682
-0.000409060370425024,3.335251269093867,0.005877134781717511
-0.000408990370425024,3.327951942976765,0.005877134781715853
-0.0004089203704250239,3.335251269093865,0.009525408451375682
-0.000408850370425024,3.32430227991822,0.01317368212103385
-0.000408780370425024,3.331601606035315,0.002228861112056024
-0.0004087103704250239,3.327951942976765,0.005877134781715853
-0.000408640370425024,3.324302279918217,0.01317368212103219
-0.000408570370425024,3.320652616859666,0.005877134781715853
-0.0004085003704250239,3.320652616859666,0.009525408451375682
-0.000408430370425024,3.320652616859666,0.005877134781717511
-0.000408360370425024,3.327951942976765,0.005877134781715853
-0.0004082903704250239,0.8863273568069646,-0.02695732824522261
-0.0004082203704250239,0.1344967667456526,0.08613915551417735
-0.000408150370425024,0.006758559696468467,-0.03425387558454226
-0.0004080803704250239,0.0177075488721178,-0.01601250723624312
-0.0004080103704250239,0.02865653804776381,0.01317368212103219
-0.000407940370425024,0.02135721193066757,0.005877134781715853
-0.0004078703704250239,0.01405788581356802,-0.008715959896923463
-0.0004078003704250239,0.006758559696468467,0.002228861112052706
-0.000407730370425024,0.006758559696468467,-0.005067686227263634
-0.0004076603704250239,-0.0005407664206310866,-0.005067686227263634
-0.0004075903704250239,-0.004190429479184183,0.002228861112057683
-0.000407520370425024,-0.01148975559628042,0.005877134781715853
-0.0004074503704250239,-0.01148975559628042,0.002228861112056024
-0.0004073803704250239,-0.0078400925377323,0.002228861112056024
-0.000407310370425024,-0.01148975559628042,0.002228861112056024
-0.0004072403704250239,-0.01513941865483019,0.002228861112056024
-0.0004071703704250239,-0.007840092537728979,0.005877134781714193
-0.000407100370425024,-0.004190429479180863,0.002228861112056024
-0.0004070303704250239,-0.01148975559628042,0.002228861112056024
-0.0004069603704250239,-0.000540766420634406,-0.001419412557607123
-0.000406890370425024,-0.007840092537730639,-0.008715959896923463
-0.0004068203704250239,-0.0005407664206310866,-0.005067686227263634
-0.0004067503704250239,-0.004190429479179204,0.005877134781712535
-0.000406680370425024,-0.0005407664206310866,-0.001419412557603805
-0.0004066103704250239,0.00310889663791869,-0.005067686227263634
-0.0004065403704250239,-0.004190429479179204,-0.005067686227263634
-0.000406470370425024,-0.0005407664206310866,-0.005067686227263634
-0.0004064003704250239,-0.004190429479180863,0.002228861112056024
-0.0004063303704250239,-0.007840092537728979,-0.008715959896926782
-0.000406260370425024,-0.004190429479180863,-0.01601250723624312
-0.0004061903704250239,-0.004190429479180863,-0.001419412557603805
-0.0004061203704250239,-0.004190429479177544,-0.005067686227261975
-0.000406050370425024,0.00310889663791869,-0.001419412557603805
-0.0004059803704250239,0.00310889663791869,-0.001419412557603805
-0.0004059103704250239,0.006758559696465148,0.005877134781714193
-0.000405840370425024,-0.0005407664206310866,0.002228861112056024
-0.0004057703704250239,0.006758559696468467,0.002228861112056024
-0.0004057003704250239,-0.004190429479174224,-0.001419412557602146
-0.000405630370425024,0.01040822275501824,0.002228861112056024
-0.0004055603704250239,0.006758559696468467,0.002228861112056024
-0.0004054903704250239,0.006758559696471786,0.002228861112054365
-0.000405420370425024,0.01405788581356802,-0.001419412557603805
-0.0004053503704250239,0.006758559696468467,0.002228861112056024
-0.0004052803704250239,0.006758559696468467,0.005877134781715853
-0.000405210370425024,0.006758559696468467,0.005877134781715853
-0.0004051403704250239,0.006758559696468467,0.005877134781715853
-0.0004050703704250239,0.00310889663792035,0.002228861112056024
-0.000405000370425024,0.006758559696468467,0.002228861112056024
-0.0004049303704250239,0.01040822275501824,0.002228861112056024
-0.0004048603704250239,0.01405788581356636,0.002228861112057683
-0.000404790370425024,0.01040822275501824,0.005877134781715853
-0.0004047203704250239,0.006758559696468467,0.005877134781715853
-0.0004046503704250239,0.01770754887211614,0.005877134781714193
-0.000404580370425024,0.01405788581356802,0.002228861112056024
-0.0004045103704250239,0.01040822275501824,-0.001419412557603805
-0.0004044403704250239,0.01405788581356968,0.005877134781714193
-0.000404370370425024,0.0177075488721178,0.002228861112056024
-0.0004043003704250239,0.01405788581356802,-0.001419412557603805
-0.0004042303704250239,0.006758559696471786,0.01317368212103385
-0.000404160370425024,0.01405788581356802,0.009525408451375682
-0.0004040903704250239,0.01405788581356802,0.002228861112056024
-0.0004040203704250239,0.01405788581356636,0.009525408451375682
-0.000403950370425024,0.01040822275501824,0.009525408451375682
-0.0004038803704250239,0.01405788581356802,0.01317368212103551
-0.0004038103704250239,0.006758559696468467,0.01317368212103385
-0.000403740370425024,0.006758559696468467,0.009525408451377341
-0.0004036703704250239,0.006758559696468467,0.002228861112056024
-0.0004036003704250239,0.00310889663792035,0.005877134781717512
-0.000403530370425024,0.006758559696466807,0.009525408451374024
-0.000403460370425024,0.01040822275501824,0.002228861112056024
-0.0004033903704250239,0.01770754887211614,0.005877134781715853
-0.000403320370425024,0.01405788581356968,0.005877134781715853
-0.000403250370425024,0.006758559696468467,0.002228861112056024
-0.0004031803704250239,0.01040822275501658,0.009525408451375682
-0.000403110370425024,0.006758559696470127,0.009525408451375682
-0.000403040370425024,-0.004190429479180863,0.009525408451375682
-0.0004029703704250239,0.006758559696468467,0.009525408451370706
-0.000402900370425024,0.006758559696468467,-0.001419412557598828
-0.000402830370425024,0.00310889663791869,0.002228861112056024
-0.0004027603704250239,0.006758559696466808,0.005877134781714193
-0.000402690370425024,0.00310889663792035,0.002228861112057683
-0.000402620370425024,0.00310889663791869,0.005877134781715853
-0.0004025503704250239,0.01405788581356304,-0.005067686227263634
-0.000402480370425024,0.003108896637923669,-0.005067686227263634
-0.000402410370425024,0.00310889663791869,-0.005067686227263634
-0.0004023403704250239,-0.004190429479179204,0.002228861112054365
-0.000402270370425024,-0.0005407664206327463,-0.001419412557602146
-0.000402200370425024,0.006758559696468467,-0.001419412557603805
-0.0004021303704250239,-0.004190429479177544,0.002228861112057683
-0.000402060370425024,0.003108896637915371,0.005877134781714194
-0.000401990370425024,-0.0005407664206310866,0.009525408451375682
-0.0004019203704250239,0.003108896637922009,0.005877134781714193
-0.000401850370425024,0.01040822275501492,0.002228861112057683
-0.000401780370425024,0.01040822275501824,0.005877134781715853
-0.0004017103704250239,0.006758559696470126,0.005877134781717512
-0.000401640370425024,0.01040822275501658,0.009525408451374024
-0.000401570370425024,0.01405788581356802,0.009525408451375682
-0.0004015003704250239,0.00310889663791703,-0.001419412557602146
-0.000401430370425024,-0.0005407664206294269,0.002228861112054365
-0.000401360370425024,0.006758559696468467,0.002228861112056024
-0.0004012903704250239,-0.0005407664206294269,0.002228861112057683
-0.000401220370425024,0.00310889663791703,0.005877134781714194
-0.000401150370425024,0.00310889663791869,0.005877134781715853
-0.0004010803704250239,-0.0005407664206294269,0.009525408451374024
-0.000401010370425024,0.00310889663791703,0.005877134781717511
-0.000400940370425024,-0.0005407664206310866,0.002228861112056024
-0.0004008703704250239,-0.0005407664206310866,0.002228861112056024
-0.000400800370425024,-0.004190429479179204,0.002228861112056024
-0.000400730370425024,-0.004190429479180863,0.002228861112056024
-0.0004006603704250239,-0.0005407664206310866,0.002228861112056024
-0.000400590370425024,-0.0005407664206310866,-0.001419412557602146
-0.000400520370425024,0.00310889663791869,-0.001419412557603805
-0.0004004503704250239,-0.004190429479180863,0.002228861112056024
-0.000400380370425024,0.01040822275501161,-0.001419412557602146
-0.000400310370425024,-0.0005407664206310866,-0.001419412557603805
-0.0004002403704250239,0.00310889663791869,0.002228861112056024
-0.000400170370425024,-0.0005407664206294269,0.002228861112056024
-0.000400100370425024,0.00310889663791869,0.005877134781715853
-0.0004000303704250239,0.006758559696468467,0.002228861112056024
-0.000399960370425024,0.00310889663792035,-0.001419412557602146
-0.000399890370425024,-0.0005407664206310866,0.005877134781715853
-0.0003998203704250239,-0.0005407664206310866,0.009525408451375682
-0.000399750370425024,-0.0005407664206310866,0.005877134781717511
-0.000399680370425024,0.006758559696468467,0.002228861112056024
-0.0003996103704250239,-0.004190429479180863,0.002228861112056024
-0.000399540370425024,0.003108896637915371,0.002228861112056024
-0.000399470370425024,-0.0005407664206310866,0.009525408451375682
-0.0003994003704250239,-0.004190429479180863,-0.005067686227263634
-0.000399330370425024,0.003108896637915371,0.009525408451369045
-0.000399260370425024,0.006758559696468467,0.005877134781715853
-0.0003991903704250239,-0.0005407664206310866,0.009525408451375682
-0.000399120370425024,0.00310889663791703,0.002228861112059341
-0.000399050370425024,0.00310889663791869,0.005877134781715853
-0.0003989803704250239,0.01040822275501824,0.009525408451375682
-0.000398910370425024,0.006758559696470127,0.009525408451375682
-0.000398840370425024,0.006758559696468467,0.005877134781715853
-0.0003987703704250239,0.01040822275501824,0.002228861112056024
-0.000398700370425024,0.01040822275501824,0.002228861112056024
-0.000398630370425024,0.00310889663791869,0.009525408451375682
-0.0003985603704250239,0.01040822275501824,0.009525408451375682
-0.000398490370425024,0.003108896637922009,0.009525408451375682
-0.000398420370425024,-0.0005407664206310866,0.002228861112056024
-0.0003983503704250239,0.006758559696468467,0.005877134781715853
-0.000398280370425024,-0.0005407664206277677,-0.001419412557600488
-0.000398210370425024,0.00310889663791869,0.002228861112056024
-0.0003981403704250239,-0.004190429479180863,0.002228861112056024
-0.000398070370425024,0.003108896637915371,0.009525408451372366
-0.000398000370425024,-0.0005407664206310866,0.002228861112056024
-0.0003979303704250239,0.00310889663791869,0.009525408451375682
-0.000397860370425024,-0.004190429479177544,0.005877134781717511
-0.000397790370425024,0.00310889663791869,0.002228861112056024
-0.0003977203704250239,0.01040822275501824,0.009525408451375682
-0.000397650370425024,0.01040822275501824,0.009525408451375682
-0.000397580370425024,0.006758559696468467,0.005877134781715853
-0.0003975103704250239,0.00310889663791869,-0.005067686227263634
-0.000397440370425024,0.006758559696466807,0.002228861112052706
-0.000397370370425024,0.006758559696468467,0.002228861112056024
-0.0003973003704250239,0.00310889663791869,0.002228861112056024
-0.000397230370425024,0.00310889663791869,0.009525408451372366
-0.000397160370425024,0.00310889663791869,0.002228861112056024
-0.0003970903704250239,-0.0005407664206310866,0.005877134781715853
-0.000397020370425024,0.00310889663791703,-0.001419412557600488
-0.000396950370425024,0.00310889663791869,-0.008715959896923463
-0.0003968803704250239,0.00310889663791869,0.002228861112056024
-0.000396810370425024,0.00310889663791869,-0.005067686227260317
-0.000396740370425024,0.8133340956359691,-0.1291089909956978
-0.0003966703704250239,3.441091497791808,0.1262701658804902
-0.000396600370425024,3.284155986274239,0.005877134781770599
-0.000396530370425024,3.269557334039969,-0.04519869659352176
-0.0003964603704250239,3.287805649332717,-0.005067686227263634
-0.0003963903704250239,3.309703627684025,0.002228861113079653
-0.000396320370425024,3.327951942976765,2.253213715292171
-0.0003962503704250239,3.236710366513021,3.216357964082365
-0.0003961803704250239,3.357149247445147,3.384178552886687
-0.000396110370425024,3.320652616859666,3.31850962683284
-0.0003960403704250239,3.313353290742566,3.292971711145221
-0.0003959703704250239,3.317002953801116,3.314861353163184
-0.000395900370425024,3.317002953801116,3.3221579005025
-0.0003958303704250239,3.317002953801116,3.3221579005025
-0.0003957603704250239,3.320652616859662,3.33675099518114
-0.000395690370425024,3.313353290742566,3.33675099518114
-0.0003956203704250239,3.327951942976765,3.3403992688508
-0.0003955503704250239,3.324302279918212,3.3403992688508
-0.000395480370425024,3.317002953801116,3.3403992688508
-0.0003954103704250239,3.324302279918216,3.3403992688508
-0.0003953403704250239,3.327951942976759,3.340399268850803
-0.000395270370425024,3.313353290742566,3.347695816190119
-0.0003952003704250239,3.320652616859666,3.351344089859779
