gitfigures/ImplementationTest/treverb_computationtime.csv

#Digilent WaveForms Oscilloscope Acquisition
#Device Name: Discovery2
#Serial Number: SN:210321B053D5
#Date Time: 2025-05-15 15:12:10.029
#Sample rate: 1.42857e+07Hz
#Samples: 8192
#Trigger: Source: Channel 1 Type: Edge Condition: Rising Level: 0 V Hyst.: Auto HoldOff: 0 s
#Channel 1: Range: 1 V/div Offset: 0 V Sample Mode: Average
#Channel 2: Range: 1 V/div Offset: 0 V Sample Mode: Average

Time (s),Channel 1 (V),Channel 2 (V)
-0.000416830597452051,3.287805649332717,3.303916532154201
-0.000416760597452051,3.284155986274168,3.300268258484541
-0.0004166905974520509,3.287805649332719,3.300268258484544
-0.000416620597452051,3.291455312391268,3.307564805823861
-0.000416550597452051,3.291455312391268,3.300268258484541
-0.0004164805974520509,3.280506323215618,3.300268258484541
-0.000416410597452051,3.280506323215618,3.300268258484541
-0.000416340597452051,3.291455312391268,3.296619984814881
-0.0004162705974520509,3.287805649332711,3.303916532154201
-0.000416200597452051,3.273206997098518,3.303916532154201
-0.000416130597452051,3.276856660157068,3.300268258484541
-0.0004160605974520509,3.27320699709852,3.296619984814881
-0.000415990597452051,3.276856660157068,3.296619984814881
-0.000415920597452051,3.276856660157068,3.292971711145221
-0.0004158505974520509,3.284155986274166,3.303916532154196
-0.000415780597452051,3.280506323215618,3.292971711145221
-0.000415710597452051,3.280506323215618,3.296619984814881
-0.0004156405974520509,3.276856660157068,3.30026825848454
-0.000415570597452051,3.276856660157068,3.296619984814883
-0.000415500597452051,3.276856660157068,3.300268258484541
-0.0004154305974520509,3.280506323215618,3.292971711145221
-0.000415360597452051,3.280506323215618,3.292971711145221
-0.000415290597452051,3.276856660157068,3.292971711145221
-0.0004152205974520509,3.27685666015707,3.285675163805904
-0.000415150597452051,3.280506323215616,3.28932343747556
-0.000415080597452051,3.291455312391268,3.289323437475562
-0.0004150105974520509,3.28415598627417,3.285675163805905
-0.000414940597452051,3.287805649332716,3.292971711145218
-0.000414870597452051,3.284155986274168,3.285675163805902
-0.0004148005974520509,3.284155986274166,3.282026890136242
-0.000414730597452051,3.28050632321562,3.282026890136242
-0.000414660597452051,3.280506323215618,3.285675163805902
-0.0004145905974520509,3.28050632321562,3.285675163805904
-0.000414520597452051,3.284155986274166,3.28932343747556
-0.000414450597452051,3.280506323215618,3.282026890136242
-0.0004143805974520509,3.280506323215618,3.285675163805902
-0.000414310597452051,3.280506323215618,3.285675163805902
-0.000414240597452051,3.284155986274168,3.282026890136242
-0.0004141705974520509,3.284155986274165,3.289323437475564
-0.000414100597452051,3.276856660157071,3.29297171114522
-0.000414030597452051,3.276856660157068,3.292971711145221
-0.0004139605974520509,3.280506323215618,3.289323437475567
-0.000413890597452051,3.280506323215618,3.300268258484536
-0.000413820597452051,3.284155986274168,3.292971711145221
-0.0004137505974520509,3.27685666015707,3.2856751638059
-0.000413680597452051,3.280506323215616,3.282026890136244
-0.000413610597452051,3.280506323215618,3.285675163805902
-0.0004135405974520509,3.280506323215621,3.289323437475562
-0.000413470597452051,3.287805649332714,3.289323437475562
-0.000413400597452051,3.280506323215618,3.292971711145221
-0.0004133305974520509,3.284155986274166,3.285675163805905
-0.000413260597452051,3.28050632321562,3.292971711145218
-0.000413190597452051,3.287805649332717,3.292971711145221
-0.0004131205974520509,3.280506323215615,3.29297171114522
-0.000413050597452051,3.273206997098522,3.289323437475564
-0.000412980597452051,3.280506323215618,3.285675163805902
-0.0004129105974520509,3.280506323215621,3.285675163805904
-0.000412840597452051,3.287805649332714,3.28932343747556
-0.000412770597452051,3.280506323215618,3.289323437475562
-0.0004127005974520509,3.287805649332717,3.289323437475562
-0.000412630597452051,3.28415598627417,3.29297171114522
-0.000412560597452051,3.284155986274168,3.289323437475562
-0.0004124905974520509,3.284155986274168,3.300268258484541
-0.000412420597452051,3.287805649332716,3.292971711145225
-0.000412350597452051,3.287805649332717,3.285675163805902
-0.0004122805974520509,3.280506323215618,3.292971711145221
-0.000412210597452051,3.287805649332714,3.289323437475564
-0.000412140597452051,3.280506323215618,3.289323437475562
-0.0004120705974520509,3.284155986274168,3.289323437475562
-0.000412000597452051,3.276856660157071,3.289323437475562
-0.000411930597452051,3.280506323215618,3.278378616466582
-0.0004118605974520509,3.280506323215618,3.282026890136242
-0.000411790597452051,3.284155986274166,3.2856751638059
-0.000411720597452051,3.280506323215618,3.282026890136242
-0.0004116505974520509,3.280506323215618,3.285675163805902
-0.000411580597452051,3.27685666015707,3.285675163805902
-0.000411510597452051,3.280506323215618,3.282026890136242
-0.0004114405974520509,3.284155986274168,3.292971711145221
-0.000411370597452051,3.276856660157071,3.289323437475564
-0.000411300597452051,3.280506323215618,3.285675163805902
-0.0004112305974520509,3.284155986274168,3.282026890136242
-0.000411160597452051,3.28050632321562,3.278378616466584
-0.000411090597452051,3.284155986274168,3.289323437475562
-0.0004110205974520509,3.284155986274168,3.289323437475562
-0.000410950597452051,3.284155986274168,3.285675163805904
-0.000410880597452051,3.280506323215618,3.289323437475562
-0.0004108105974520509,3.284155986274168,3.292971711145221
-0.000410740597452051,3.276856660157071,3.292971711145221
-0.000410670597452051,3.280506323215618,3.285675163805902
-0.0004106005974520509,3.276856660157068,3.285675163805902
-0.000410530597452051,3.364448573562223,1.560041718057588
-0.000410460597452051,3.244009692630121,0.03506332413899448
-0.0004103905974520509,3.214812388161722,-0.08897798062943971
-0.000410320597452051,3.284155986274136,0.02776677679962174
-0.000410250597452051,3.302404301566917,0.03141505046933465
-0.0004101805974520509,3.284155986274168,0.005877134781715853
-0.000410110597452051,3.284155986274168,0.002228861112057683
-0.000410040597452051,3.276856660157068,-0.005067686227263634
-0.0004099705974520509,3.284155986274168,-0.005067686227263634
-0.000409900597452051,3.284155986274168,-0.01236423356657998
-0.000409830597452051,3.284155986274168,-0.008715959896923463
-0.0004097605974520509,3.276856660157068,-0.01236423356658329
-0.000409690597452051,3.276856660157068,-0.01601250723624146
-0.000409620597452051,3.276856660157068,-0.01236423356658329
-0.0004095505974520509,3.284155986274168,-0.01236423356658329
-0.000409480597452051,3.276856660157071,-0.01966078090589963
-0.000409410597452051,3.280506323215618,-0.01601250723624312
-0.0004093405974520509,3.276856660157068,-0.01601250723624312
-0.000409270597452051,3.276856660157068,-0.01236423356658495
-0.000409200597452051,3.280506323215618,-0.01966078090590295
-0.0004091305974520509,3.280506323215618,-0.01601250723624312
-0.000409060597452051,3.280506323215618,-0.01601250723624312
-0.000408990597452051,3.287805649332717,-0.01236423356658329
-0.0004089205974520509,3.280506323215618,-0.01236423356658329
-0.000408850597452051,3.284155986274166,-0.01601250723624146
-0.000408780597452051,3.284155986274168,-0.01236423356658329
-0.0004087105974520509,3.287805649332717,-0.01601250723624312
-0.000408640597452051,3.28415598627417,-0.008715959896926782
-0.000408570597452051,3.291455312391268,-0.008715959896923463
-0.0004085005974520509,3.291455312391268,-0.01601250723624312
-0.000408430597452051,3.295104975449815,-0.008715959896926782
-0.000408360597452051,3.295104975449817,-0.01236423356658329
-0.0004082905974520509,1.306038608540189,0.06424951349627311
-0.0004082205974520509,0.1454457559212969,-0.04519869659353337
-0.000408150597452051,0.006758559696468467,-0.07073661228114056
-0.0004080805974520509,0.03960552722341645,-0.008715959896923463
-0.0004080105974520509,0.04325519028195794,0.002228861112051047
-0.000407940597452051,0.02500687498921735,-0.008715959896923463
-0.0004078705974520509,0.02500687498921735,-0.008715959896923463
-0.0004078005974520509,0.02865653804776049,-0.005067686227263634
-0.000407730597452051,0.01405788581356802,-0.005067686227263634
-0.000407660597452051,0.02135721193066757,-0.005067686227263634
-0.0004075905974520509,0.01040822275501658,0.002228861112052706
-0.000407520597452051,0.006758559696468467,-0.005067686227263634
-0.000407450597452051,0.01405788581356802,-0.008715959896923463
-0.0004073805974520509,0.01040822275501824,-0.001419412557607123
-0.000407310597452051,0.01040822275501824,-0.008715959896923463
-0.000407240597452051,0.00310889663791869,-0.001419412557603805
-0.0004071705974520509,0.006758559696470126,0.002228861112052706
-0.000407100597452051,0.01040822275501824,-0.005067686227263634
-0.000407030597452051,0.006758559696468467,-0.01236423356658329
-0.0004069605974520509,0.006758559696468467,-0.005067686227266952
-0.000406890597452051,0.006758559696468467,-0.01236423356658329
-0.000406820597452051,0.00310889663791869,-0.01601250723624312
-0.0004067505974520509,0.00310889663791703,-0.008715959896920145
-0.000406680597452051,-0.0005407664206310866,-0.001419412557603805
-0.000406610597452051,0.006758559696468467,-0.01236423356658329
-0.0004065405974520509,0.00310889663792035,-0.008715959896923463
-0.000406470597452051,0.006758559696468467,-0.008715959896923463
-0.000406400597452051,0.00310889663791869,-0.008715959896923463
-0.0004063305974520509,0.003108896637922009,-0.008715959896920145
-0.000406260597452051,0.01040822275501824,-0.001419412557603805
-0.000406190597452051,0.01040822275501824,-0.01236423356658329
-0.0004061205974520509,0.006758559696471786,-0.005067686227268611
-0.000406050597452051,0.01405788581356802,-0.01601250723624312
-0.000405980597452051,0.01040822275501824,-0.008715959896923463
-0.0004059105974520509,0.006758559696468467,-0.008715959896920145
-0.000405840597452051,0.006758559696468467,-0.001419412557603805
-0.000405770597452051,0.01040822275501824,-0.01601250723624312
-0.0004057005974520509,0.006758559696466808,-0.001419412557605464
-0.000405630597452051,0.00310889663791869,-0.005067686227263634
-0.000405560597452051,0.00310889663791869,-0.01236423356658329
-0.0004054905974520509,0.006758559696471786,-0.008715959896921805
-0.000405420597452051,0.01405788581356802,-0.005067686227263634
-0.000405350597452051,0.006758559696468467,-0.001419412557603805
-0.0004052805974520509,0.01040822275501824,0.002228861112056024
-0.000405210597452051,0.01040822275501824,0.002228861112056024
-0.000405140597452051,0.01040822275501824,-0.001419412557603805
-0.0004050705974520509,0.006758559696470126,0.002228861112054365
-0.000405000597452051,0.01040822275501824,-0.001419412557603805
-0.000404930597452051,-0.0005407664206310866,0.002228861112056024
-0.0004048605974520509,0.01405788581356968,0.002228861112054365
-0.000404790597452051,0.0177075488721178,-0.001419412557603805
-0.000404720597452051,0.006758559696468467,-0.001419412557603805
-0.0004046505974520509,0.01405788581356968,-0.001419412557600487
-0.000404580597452051,0.0177075488721178,0.005877134781715853
-0.000404510597452051,0.01405788581356802,0.002228861112056024
-0.0004044405974520509,0.01040822275501824,-0.005067686227261975
-0.000404370597452051,0.01040822275501824,-0.001419412557603805
-0.000404300597452051,0.006758559696468467,-0.008715959896923463
-0.0004042305974520509,0.003108896637922009,-0.008715959896925122
-0.000404160597452051,0.01040822275501824,-0.01236423356658329
-0.000404090597452051,0.006758559696468467,-0.005067686227263634
-0.0004040205974520509,0.01405788581356636,-0.008715959896925122
-0.000403950597452051,0.01040822275501824,-0.01236423356658329
-0.000403880597452051,0.0177075488721178,-0.01236423356658329
-0.0004038105974520509,0.01040822275502156,-0.005067686227266952
-0.000403740597452051,0.01770754887211448,-0.01236423356657998
-0.000403670597452051,0.01405788581356802,-0.005067686227263634
-0.0004036005974520509,0.02135721193066591,-0.001419412557607123
-0.000403530597452051,0.01770754887211946,-0.008715959896920145
-0.000403460597452051,0.02135721193066757,-0.008715959896923463
-0.0004033905974520509,0.01770754887211946,-0.008715959896923463
-0.000403320597452051,0.02135721193066591,-0.008715959896923463
-0.000403250597452051,0.0177075488721178,-0.005067686227263634
-0.0004031805974520509,0.02135721193066591,-0.001419412557603805
-0.000403110597452051,0.01770754887211946,-0.001419412557603805
-0.000403040597452051,0.0177075488721178,0.002228861112056024
-0.0004029705974520509,0.0177075488721178,-0.005067686227265293
-0.000402900597452051,0.0177075488721178,-0.008715959896921805
-0.000402830597452051,0.02500687498921735,-0.008715959896923463
-0.0004027605974520509,0.02135721193066591,-0.01236423356658329
-0.000402690597452051,0.01770754887211946,-0.01236423356658329
-0.000402620597452051,0.01405788581356802,-0.01236423356658329
-0.0004025505974520509,0.01405788581356802,-0.008715959896921805
-0.000402480597452051,0.01405788581356802,-0.005067686227265293
-0.000402410597452051,0.0177075488721178,-0.005067686227263634
-0.0004023405974520509,0.01770754887211614,-0.001419412557603805
-0.000402270597452051,0.01405788581356968,-0.001419412557603805
-0.000402200597452051,0.01405788581356802,-0.008715959896923463
-0.0004021305974520509,0.01040822275501824,-0.008715959896921805
-0.000402060597452051,0.01040822275501824,-0.005067686227265293
-0.000401990597452051,0.01040822275501824,-0.01236423356658329
-0.0004019205974520509,0.006758559696470126,-0.008715959896920145
-0.000401850597452051,0.01040822275501658,-0.001419412557607123
-0.000401780597452051,0.006758559696468467,-0.008715959896923463
-0.0004017105974520509,0.01040822275501493,-0.01236423356657997
-0.000401640597452051,0.003108896637922009,-0.005067686227266952
-0.000401570597452051,-0.0005407664206310866,-0.005067686227263634
-0.0004015005974520509,0.01040822275501493,-0.005067686227265293
-0.000401430597452051,0.003108896637922009,-0.008715959896921805
-0.000401360597452051,0.00310889663791869,-0.001419412557603805
-0.0004012905974520509,0.006758559696471786,-0.001419412557605464
-0.000401220597452051,0.0140578858135647,-0.005067686227261975
-0.000401150597452051,0.00310889663791869,-0.008715959896923463
-0.0004010805974520509,0.01040822275501493,-0.008715959896923463
-0.000401010597452051,0.003108896637922009,-0.008715959896923463
-0.000400940597452051,0.006758559696468467,-0.01236423356658329
-0.0004008705974520509,0.01040822275501824,-0.001419412557603805
-0.000400800597452051,0.003108896637922009,-0.008715959896920145
-0.000400730597452051,0.00310889663791869,-0.005067686227263634
-0.0004006605974520509,0.006758559696468467,-0.005067686227263634
-0.000400590597452051,0.01040822275501658,-0.008715959896921805
-0.000400520597452051,0.00310889663791869,-0.008715959896923463
-0.0004004505974520509,0.00310889663791869,-0.005067686227263634
-0.000400380597452051,0.00310889663791869,-0.008715959896921805
-0.000400310597452051,0.01040822275501824,-0.005067686227263634
-0.0004002405974520509,0.01405788581356802,0.009525408451375682
-0.000400170597452051,0.003108896637923669,-0.001419412557598828
-0.000400100597452051,-0.0005407664206310866,0.002228861112056024
-0.0004000305974520509,-0.0005407664206310866,-0.001419412557603805
-0.000399960597452051,-0.01148975559627544,-0.008715959896920145
-0.000399890597452051,0.006758559696468467,-0.005067686227263634
-0.0003998205974520509,-0.007840092537730639,-0.001419412557603805
-0.000399750597452051,-0.004190429479182523,-0.005067686227261975
-0.000399680597452051,-0.0005407664206310866,-0.008715959896923463
-0.0003996105974520509,0.00310889663791869,-0.005067686227263634
-0.000399540597452051,0.006758559696466807,-0.005067686227263634
-0.000399470597452051,-0.0005407664206310866,-0.001419412557603805
-0.0003994005974520509,-0.004190429479180863,-0.001419412557603805
-0.000399330597452051,-0.004190429479180863,-0.01236423356657832
-0.000399260597452051,-0.004190429479180863,-0.005067686227263634
-0.0003991905974520509,-0.0005407664206310866,-0.008715959896923463
-0.000399120597452051,-0.0005407664206310866,-0.01236423356658163
-0.000399050597452051,-0.01878908171337997,-0.008715959896923463
-0.0003989805974520509,-0.0005407664206310866,-0.008715959896923463
-0.000398910597452051,-0.004190429479179204,-0.001419412557607123
-0.000398840597452051,-0.004190429479180863,-0.008715959896923463
-0.0003987705974520509,-0.0005407664206310866,-0.008715959896923463
-0.000398700597452051,-0.01148975559627544,-0.01236423356658163
-0.000398630597452051,0.00310889663791869,-0.01236423356658329
-0.0003985605974520509,-0.004190429479180863,-0.01601250723624312
-0.000398490597452051,-0.007840092537728979,-0.01601250723624312
-0.000398420597452051,0.00310889663791869,-0.01601250723624312
-0.0003983505974520509,-0.007840092537730639,-0.01236423356658329
-0.000398280597452051,-0.0005407664206344065,-0.008715959896925122
-0.000398210597452051,-0.004190429479180863,-0.01236423356658329
-0.0003981405974520509,-0.007840092537730639,-0.008715959896923463
-0.000398070597452051,0.003108896637913711,-0.01236423356658163
-0.000398000597452051,-0.0005407664206310866,-0.01601250723624312
-0.0003979305974520509,-0.0005407664206310866,-0.01236423356658329
-0.000397860597452051,-0.004190429479179204,-0.01236423356658329
-0.000397790597452051,-0.0005407664206310866,-0.008715959896923463
-0.0003977205974520509,-0.004190429479180863,-0.01601250723624312
-0.000397650597452051,0.003108896637915371,-0.01601250723624312
-0.000397580597452051,-0.007840092537730639,-0.01236423356658329
-0.0003975105974520509,-0.0005407664206310866,-0.01601250723624312
-0.000397440597452051,0.01040822275501327,-0.01236423356658495
-0.000397370597452051,0.01040822275501824,-0.005067686227263634
-0.0003973005974520509,0.006758559696468467,-0.005067686227263634
-0.000397230597452051,-0.0005407664206277677,-0.01601250723623815
-0.000397160597452051,0.006758559696468467,-0.01236423356658329
-0.0003970905974520509,0.006758559696468467,-0.01601250723624312
-0.000397020597452051,-0.0005407664206277677,-0.01236423356658495
-0.000396950597452051,0.006758559696468467,-0.01236423356658329
-0.0003968805974520509,-0.0005407664206310866,-0.01966078090590295
-0.000396810597452051,-0.0005407664206310866,-0.01601250723624478
-0.000396740597452051,0.00310889663791869,-0.01236423356658329
-0.0003966705974520509,-0.004190429479180863,-0.01601250723624312
-0.000396600597452051,-0.0005407664206327463,-0.01236423356658495
-0.000396530597452051,2.43743415669062,0.02776677679967483
-0.0003964605974520509,3.178315757576224,-0.09262625429909953
-0.0003963905974520509,3.284155986274163,0.02411850313000504
-0.000396320597452051,3.273206997098518,0.002228861112056024
-0.0003962505974520509,3.269557334039969,-0.02330905457556278
-0.0003961805974520509,3.189264746751978,0.1372149868910607
-0.000396110597452051,3.41919351944051,3.635909436093245
-0.0003960405974520509,3.24765935568867,3.168930406376787
-0.0003959705974520509,3.265907670981434,3.230951058761031
-0.000395900597452051,3.298754638508367,3.289323437475562
-0.0003958305974520509,3.302404301566917,3.289323437475562
-0.0003957605974520509,3.287805649332721,3.282026890136244
-0.000395690597452051,3.295104975449817,3.285675163805902
-0.000395620597452051,3.295104975449817,3.289323437475562
-0.0003955505974520509,3.287805649332722,3.296619984814881
-0.000395480597452051,3.298754638508367,3.296619984814881
-0.000395410597452051,3.298754638508367,3.292971711145221
-0.0003953405974520509,3.29875463850837,3.296619984814886
-0.000395270597452051,3.306053964625467,3.307564805823861
-0.000395200597452051,3.295104975449817,3.303916532154201
-0.0003951305974520509,3.298754638508362,3.314861353163176
-0.000395060597452051,3.287805649332717,3.303916532154201
-0.000394990597452051,3.298754638508367,3.303916532154201
-0.0003949205974520509,3.302404301566915,3.307564805823861
-0.000394850597452051,3.298754638508367,3.307564805823861
