gitfigures/ImplementationTest/wah_computationtime.csv

#Digilent WaveForms Oscilloscope Acquisition
#Device Name: Discovery2
#Serial Number: SN:210321B053D5
#Date Time: 2025-05-15 15:10:53.543
#Sample rate: 1.42857e+07Hz
#Samples: 8192
#Trigger: Source: Channel 1 Type: Edge Condition: Rising Level: 0 V Hyst.: Auto HoldOff: 0 s
#Channel 1: Range: 1 V/div Offset: 0 V Sample Mode: Average
#Channel 2: Range: 1 V/div Offset: 0 V Sample Mode: Average

Time (s),Channel 1 (V),Channel 2 (V)
-0.0004168313163709699,3.298754638508367,3.32580617417216
-0.0004167613163709699,3.306053964625467,3.3221579005025
-0.0004166913163709699,3.29875463850837,3.32580617417216
-0.0004166213163709699,3.306053964625467,3.32580617417216
-0.0004165513163709699,3.302404301566917,3.33310272151148
-0.0004164813163709699,3.302404301566915,3.325806174172162
-0.0004164113163709699,3.298754638508367,3.32945444784182
-0.0004163413163709699,3.309703627684016,3.32580617417216
-0.0004162713163709699,3.382696888854959,1.570986539065089
-0.0004162013163709699,3.265907670981419,0.04600814514797397
-0.0004161313163709699,3.222111714278822,-0.08897798062943971
-0.0004160613163709699,3.302404301566925,0.03141505046934461
-0.0004159913163709699,3.320652616859666,0.05330469248729363
-0.0004159213163709699,3.309703627684016,0.01682195579069534
-0.0004158513163709699,3.30240430156692,0.002228861112059342
-0.0004157813163709699,3.309703627684016,0.009525408451375682
-0.0004157113163709699,3.302404301566917,-0.001419412557603805
-0.0004156413163709699,3.309703627684016,-0.005067686227261975
-0.0004155713163709699,3.309703627684016,-0.001419412557605464
-0.0004155013163709699,3.313353290742566,-0.005067686227263634
-0.0004154313163709699,3.306053964625467,-0.005067686227261975
-0.0004153613163709699,3.306053964625467,-0.001419412557605464
-0.0004152913163709699,3.309703627684016,-0.001419412557603805
-0.0004152213163709699,3.306053964625467,-0.008715959896920145
-0.0004151513163709699,3.306053964625467,-0.001419412557607123
-0.0004150813163709699,3.302404301566917,-0.005067686227263634
-0.0004150113163709699,3.306053964625467,-0.008715959896923463
-0.0004149413163709699,3.306053964625467,-0.008715959896923463
-0.0004148713163709699,3.313353290742566,-0.005067686227263634
-0.0004148013163709699,3.30605396462547,-0.005067686227263634
-0.0004147313163709699,3.313353290742563,-0.005067686227263634
-0.0004146613163709699,3.309703627684016,-0.008715959896923463
-0.0004145913163709699,3.309703627684019,-0.008715959896923463
-0.0004145213163709699,3.317002953801113,-0.008715959896923463
-0.0004144513163709699,3.302404301566917,-0.005067686227263634
-0.0004143813163709699,3.313353290742561,-0.005067686227265293
-0.0004143113163709699,3.302404301566922,-0.008715959896921805
-0.0004142413163709699,3.306053964625467,0.002228861112056024
-0.0004141713163709699,3.313353290742566,0.002228861112051047
-0.0004141013163709699,3.313353290742566,-0.008715959896918486
-0.0004140313163709699,3.309703627684016,-0.005067686227263634
-0.0004139613163709699,3.313353290742564,-0.001419412557610441
-0.0004138913163709699,3.309703627684018,-0.01601250723623648
-0.0004138213163709699,3.306053964625467,-0.005067686227263634
-0.0004137513163709699,3.30605396462547,-0.001419412557603805
-0.0004136813163709699,3.313353290742563,-0.001419412557603805
-0.0004136113163709699,3.306053964625467,-0.001419412557603805
-0.0004135413163709699,3.309703627684019,-0.005067686227261975
-0.0004134713163709699,3.317002953801113,-0.001419412557605464
-0.0004134013163709699,3.313353290742566,-0.005067686227263634
-0.0004133313163709699,3.309703627684018,-0.001419412557603805
-0.0004132613163709699,3.313353290742564,-0.001419412557603805
-0.0004131913163709699,3.313353290742566,-0.005067686227263634
-0.0004131213163709699,3.313353290742566,-0.001419412557603805
-0.0004130513163709699,3.313353290742566,-0.001419412557603805
-0.0004129813163709699,3.313353290742566,-0.001419412557603805
-0.0004129113163709699,3.317002953801116,0.005877134781715853
-0.0004128413163709699,3.317002953801116,0.005877134781715853
-0.0004127713163709699,3.317002953801116,0.005877134781715853
-0.0004127013163709699,3.317002953801116,0.005877134781715853
-0.0004126313163709699,3.313353290742568,0.002228861112057683
-0.0004125613163709699,3.317002953801116,0.009525408451375682
-0.0004124913163709699,3.320652616859666,0.005877134781715853
-0.0004124213163709699,3.306053964625473,0.002228861112057683
-0.0004123513163709699,3.320652616859666,0.002228861112056024
-0.0004122813163709699,3.309703627684016,0.002228861112056024
-0.0004122113163709699,3.313353290742564,-0.001419412557602146
-0.0004121413163709699,3.317002953801116,0.002228861112056024
-0.0004120713163709699,3.313353290742566,0.002228861112056024
-0.0004120013163709699,3.317002953801114,0.005877134781714194
-0.0004119313163709699,3.317002953801116,-0.005067686227263634
-0.0004118613163709699,3.317002953801116,0.005877134781715853
-0.0004117913163709699,3.317002953801116,0.005877134781715853
-0.0004117213163709699,3.313353290742566,0.009525408451375682
-0.0004116513163709699,3.309703627684016,0.005877134781715853
-0.0004115813163709699,3.313353290742564,0.002228861112057683
-0.0004115113163709699,3.309703627684016,0.002228861112056024
-0.0004114413163709699,3.306053964625467,0.005877134781715853
-0.0004113713163709699,3.317002953801111,0.005877134781715853
-0.0004113013163709699,3.317002953801116,0.002228861112056024
-0.0004112313163709699,3.309703627684016,-0.001419412557603805
-0.0004111613163709699,3.317002953801113,0.002228861112054365
-0.0004110913163709699,3.306053964625467,0.005877134781715853
-0.0004110213163709699,3.313353290742566,0.005877134781715853
-0.0004109513163709699,3.309703627684018,0.002228861112057683
-0.0004108813163709699,3.317002953801116,0.002228861112056024
-0.0004108113163709699,3.313353290742566,-0.001419412557603805
-0.0004107413163709699,3.317002953801114,0.005877134781712535
-0.0004106713163709699,3.309703627684016,0.002228861112056024
-0.0004106013163709699,3.313353290742566,0.005877134781715853
-0.0004105313163709699,3.30605396462547,0.002228861112057683
-0.0004104613163709699,3.306053964625467,0.002228861112056024
-0.0004103913163709699,3.309703627684016,0.005877134781715853
-0.0004103213163709699,3.309703627684016,0.005877134781715853
-0.0004102513163709699,3.306053964625467,0.002228861112056024
-0.0004101813163709699,3.317002953801116,0.009525408451375682
-0.0004101113163709699,3.309703627684019,-0.001419412557598828
-0.0004100413163709699,3.313353290742566,0.009525408451375682
-0.0004099713163709699,3.313353290742566,0.009525408451375682
-0.0004099013163709699,3.317002953801114,0.002228861112059341
-0.0004098313163709699,3.313353290742566,0.01682195579069534
-0.0004097613163709699,3.317002953801116,0.005877134781715853
-0.0004096913163709699,3.317002953801116,0.009525408451374024
-0.0004096213163709699,3.313353290742566,0.005877134781715853
-0.0004095513163709699,3.313353290742566,0.01317368212103551
-0.0004094813163709699,3.317002953801114,0.00587713478171917
-0.0004094113163709699,3.313353290742566,0.01682195579069534
-0.0004093413163709699,3.320652616859666,0.009525408451375682
-0.0004092713163709699,3.313353290742569,0.005877134781717511
-0.0004092013163709699,3.317002953801116,0.005877134781715853
-0.0004091313163709699,3.320652616859666,0.009525408451375682
-0.0004090613163709699,3.317002953801118,0.009525408451375682
-0.0004089913163709699,3.317002953801116,0.005877134781715853
-0.0004089213163709699,3.313353290742566,-0.001419412557603805
-0.0004088513163709699,3.320652616859662,-0.001419412557603805
-0.0004087813163709699,3.317002953801116,-0.001419412557603805
-0.0004087113163709699,3.320652616859666,0.002228861112056024
-0.0004086413163709699,3.324302279918214,0.005877134781714194
-0.0004085713163709699,3.320652616859666,-0.001419412557603805
-0.0004085013163709699,3.320652616859666,-0.005067686227263634
-0.0004084313163709699,3.317002953801118,-0.005067686227263634
-0.0004083613163709699,3.313353290742566,-0.001419412557603805
-0.0004082913163709699,3.291455312391268,-0.001419412557603805
-0.0004082213163709698,-0.05528571229882131,-0.08897798062935178
-0.0004081513163709699,0.06880283169181467,0.1043805238625312
-0.0004080813163709699,0.0651531686332649,0.02047022946035517
-0.0004080113163709698,0.02135721193067089,-0.01966078090589797
-0.0004079413163709699,0.02865653804776713,-0.008715959896923463
-0.0004078713163709699,0.03230620110631691,0.002228861112056024
-0.0004078013163709698,0.02135721193066591,-0.001419412557600487
-0.0004077313163709699,0.0177075488721178,0.005877134781715853
-0.0004076613163709699,0.01405788581356802,-0.001419412557603805
-0.0004075913163709698,0.006758559696470126,0.005877134781712535
-0.0004075213163709699,0.01040822275501824,-0.001419412557603805
-0.0004074513163709699,0.006758559696468467,-0.001419412557603805
-0.0004073813163709698,0.01040822275501658,0.002228861112052706
-0.0004073113163709699,0.006758559696468467,-0.005067686227263634
-0.0004072413163709699,-0.0005407664206310866,-0.001419412557603805
-0.0004071713163709698,0.01040822275501327,-0.001419412557603805
-0.0004071013163709699,-0.0005407664206310866,-0.001419412557603805
-0.0004070313163709699,-0.01148975559628042,-0.005067686227263634
-0.0004069613163709698,-0.004190429479180863,-0.01236423356657832
-0.0004068913163709699,-0.004190429479180863,-0.001419412557603805
-0.0004068213163709699,-0.007840092537730639,-0.001419412557603805
-0.0004067513163709698,-0.004190429479182523,-0.005067686227263634
-0.0004066813163709699,-0.007840092537730639,-0.005067686227263634
-0.0004066113163709699,-0.007840092537730639,-0.001419412557603805
-0.0004065413163709699,-0.0078400925377323,-0.005067686227263634
-0.0004064713163709699,-0.01148975559628042,-0.005067686227263634
-0.0004064013163709699,-0.004190429479180863,-0.005067686227263634
-0.0004063313163709699,-0.0005407664206294269,-0.008715959896920145
-0.0004062613163709699,0.00310889663791869,-0.001419412557603805
-0.0004061913163709699,-0.007840092537730639,-0.005067686227263634
-0.0004061213163709699,-0.004190429479180863,-0.01236423356658163
-0.0004060513163709699,-0.004190429479180863,-0.008715959896923463
-0.0004059813163709699,-0.004190429479180863,-0.008715959896923463
-0.0004059113163709699,-0.004190429479180863,-0.005067686227265293
-0.0004058413163709699,-0.004190429479180863,-0.008715959896923463
-0.0004057713163709699,-0.004190429479180863,-0.001419412557603805
-0.0004057013163709699,-0.0005407664206310866,-0.005067686227261975
-0.0004056313163709699,-0.0005407664206310866,-0.001419412557603805
-0.0004055613163709699,-0.01148975559628042,-0.005067686227263634
-0.0004054913163709699,-0.0005407664206327463,0.002228861112054365
-0.0004054213163709699,-0.004190429479180863,-0.001419412557603805
-0.0004053513163709699,-0.007840092537730639,-0.005067686227263634
-0.0004052813163709699,-0.0078400925377323,-0.001419412557603805
-0.0004052113163709699,-0.01148975559628042,-0.001419412557603805
-0.0004051413163709699,-0.004190429479180863,0.005877134781715853
-0.0004050713163709699,0.006758559696465148,0.002228861112054365
-0.0004050013163709699,-0.0005407664206310866,-0.001419412557603805
-0.0004049313163709699,-0.004190429479180863,-0.001419412557603805
-0.0004048613163709699,-0.004190429479180863,-0.005067686227261975
-0.0004047913163709699,-0.004190429479180863,-0.001419412557603805
-0.0004047213163709699,0.00310889663791869,-0.001419412557603805
-0.0004046513163709699,-0.004190429479179204,-0.001419412557603805
-0.0004045813163709699,-0.0005407664206310866,-0.001419412557603805
-0.0004045113163709699,-0.004190429479180863,-0.005067686227263634
-0.0004044413163709699,0.006758559696461828,-0.01236423356657666
-0.0004043713163709699,-0.007840092537730639,0.002228861112056024
-0.0004043013163709699,-0.0005407664206310866,-0.005067686227263634
-0.0004042313163709699,0.00310889663791869,-0.005067686227261975
-0.0004041613163709699,0.00310889663791869,-0.001419412557603805
-0.0004040913163709699,0.00310889663791869,-0.001419412557603805
-0.0004040213163709699,-0.004190429479179204,-0.005067686227261975
-0.0004039513163709699,-0.0005407664206310866,-0.001419412557603805
-0.0004038813163709699,0.006758559696468467,-0.001419412557603805
-0.0004038113163709699,0.006758559696463488,-0.005067686227263634
-0.0004037413163709699,-0.004190429479175885,-0.005067686227263634
-0.0004036713163709699,0.006758559696468467,-0.001419412557603805
-0.0004036013163709699,0.003108896637913711,-0.005067686227263634
-0.0004035313163709699,-0.007840092537725661,-0.005067686227263634
-0.0004034613163709699,0.00310889663791869,-0.001419412557603805
-0.0004033913163709699,0.006758559696466808,0.002228861112054365
-0.0004033213163709699,0.00310889663792035,-0.001419412557602146
-0.0004032513163709699,-0.0005407664206310866,-0.001419412557603805
-0.0004031813163709699,-0.0005407664206294269,-0.001419412557602146
-0.0004031113163709699,0.00310889663791703,0.002228861112054365
-0.0004030413163709699,0.006758559696468467,-0.001419412557603805
-0.0004029713163709699,0.01040822275501658,-0.005067686227258657
-0.0004029013163709699,0.006758559696470127,0.005877134781710877
-0.0004028313163709699,0.01040822275501824,0.005877134781715853
-0.0004027613163709699,0.01040822275501824,0.005877134781712535
-0.0004026913163709699,0.01040822275501824,-0.001419412557600488
-0.0004026213163709699,-0.0005407664206310866,0.002228861112056024
-0.0004025513163709699,0.006758559696466808,0.005877134781709216
-0.0004024813163709699,0.00310889663792035,-0.008715959896916828
-0.0004024113163709699,0.006758559696468467,0.002228861112056024
-0.0004023413163709699,0.006758559696466808,-0.008715959896923463
-0.0004022713163709699,0.00310889663792035,-0.008715959896923463
-0.0004022013163709699,0.006758559696468467,-0.008715959896923463
-0.0004021313163709699,0.00310889663792035,-0.008715959896921805
-0.0004020613163709699,0.006758559696466807,-0.005067686227265293
-0.0004019913163709699,0.00310889663791869,-0.005067686227263634
-0.0004019213163709699,-0.0005407664206294269,-0.005067686227260317
-0.0004018513163709699,0.00310889663791703,0.002228861112052706
-0.0004017813163709699,0.01040822275501824,-0.01236423356658329
-0.0004017113163709699,-0.0005407664206327463,-0.008715959896923463
-0.0004016413163709699,-0.004190429479179204,-0.008715959896923463
-0.0004015713163709699,0.006758559696468467,-0.008715959896923463
-0.0004015013163709699,0.00310889663792035,-0.001419412557605464
-0.0004014313163709699,0.006758559696466807,-0.005067686227261975
-0.0004013613163709699,0.00310889663791869,-0.005067686227263634
-0.0004012913163709699,0.006758559696468467,-0.008715959896923463
-0.0004012213163709699,0.006758559696468467,-0.008715959896923463
-0.0004011513163709699,-0.004190429479180863,-0.001419412557603805
-0.0004010813163709699,0.01040822275501658,-0.005067686227260317
-0.0004010113163709699,0.006758559696470127,0.002228861112052706
-0.0004009413163709699,0.01040822275501824,-0.001419412557603805
-0.0004008713163709699,0.01040822275501824,0.002228861112056024
-0.0004008013163709699,0.01040822275501824,-0.001419412557602146
-0.0004007313163709699,0.00310889663791869,-0.001419412557603805
-0.0004006613163709699,0.00310889663791869,0.002228861112056024
-0.0004005913163709699,0.00310889663791869,0.009525408451372366
-0.0004005213163709699,0.01040822275501824,0.002228861112056024
-0.0004004513163709699,0.006758559696468467,0.002228861112056024
-0.0004003813163709699,0.006758559696468467,0.005877134781714194
-0.0004003113163709699,0.006758559696468467,0.005877134781715853
-0.0004002413163709699,0.00310889663791869,0.002228861112056024
-0.0004001713163709699,0.006758559696466807,0.002228861112056024
-0.0004001013163709699,-0.0005407664206310866,0.009525408451375682
-0.0004000313163709699,0.006758559696468467,0.009525408451375682
-0.0003999613163709699,0.006758559696468467,0.005877134781717511
-0.0003998913163709699,0.00310889663791869,0.005877134781715853
-0.0003998213163709699,0.00310889663791869,0.005877134781715853
-0.0003997513163709699,0.006758559696466807,0.002228861112057683
-0.0003996813163709699,0.00310889663791869,0.005877134781715853
-0.0003996113163709699,0.00310889663791869,0.002228861112056024
-0.0003995413163709699,-0.0005407664206294269,0.01317368212103054
-0.0003994713163709699,0.006758559696468467,0.01682195579069534
-0.0003994013163709699,0.006758559696468467,0.01317368212103551
-0.0003993313163709699,0.01040822275501658,0.01317368212103551
-0.0003992613163709699,0.01040822275501824,0.01682195579069534
-0.0003991913163709699,0.006758559696468467,0.01317368212103551
-0.0003991213163709699,0.00310889663792035,0.00587713478171917
-0.0003990513163709699,0.006758559696468467,0.005877134781715853
-0.0003989813163709699,0.01040822275501824,0.009525408451375682
-0.0003989113163709699,0.01040822275501824,0.002228861112059341
-0.0003988413163709699,0.006758559696468467,0.002228861112056024
-0.0003987713163709699,0.006758559696468467,0.01317368212103551
-0.0003987013163709699,0.01040822275501658,0.002228861112061
-0.0003986313163709699,0.00310889663791869,0.005877134781715853
-0.0003985613163709699,0.00310889663791869,0.009525408451375682
-0.0003984913163709699,0.006758559696466807,0.002228861112059341
-0.0003984213163709699,-0.004190429479180863,0.005877134781715853
-0.0003983513163709699,-0.004190429479180863,0.002228861112056024
-0.0003982813163709699,0.003108896637915371,0.009525408451372366
-0.0003982113163709699,-0.007840092537730639,0.002228861112056024
-0.0003981413163709699,-0.004190429479180863,0.005877134781715853
-0.0003980713163709699,-0.007840092537728979,0.005877134781715853
-0.0003980013163709699,-0.0005407664206310866,0.009525408451375682
-0.0003979313163709699,-0.0005407664206310866,0.005877134781715853
-0.0003978613163709699,-0.0005407664206310866,0.009525408451374024
-0.0003977913163709699,-0.0005407664206310866,0.002228861112056024
-0.0003977213163709699,-0.004190429479180863,-0.001419412557603805
-0.0003976513163709699,-0.0005407664206327463,-0.001419412557603805
-0.0003975813163709699,0.00310889663791869,-0.001419412557603805
-0.0003975113163709699,0.00310889663791869,0.002228861112056024
-0.0003974413163709699,-0.004190429479177544,0.01682195579068871
-0.0003973713163709699,-0.007840092537730639,0.009525408451375682
-0.0003973013163709699,0.00310889663791869,0.009525408451375682
-0.0003972313163709699,0.006758559696466807,0.005877134781717511
-0.0003971613163709699,-0.0005407664206310866,0.002228861112056024
-0.0003970913163709699,-0.0005407664206310866,0.002228861112056024
-0.0003970213163709699,0.006758559696465148,-0.001419412557602146
-0.0003969513163709699,0.00310889663791869,0.009525408451375682
-0.0003968813163709699,-0.004190429479180863,0.005877134781715853
-0.0003968113163709699,0.006758559696463489,-0.001419412557600488
-0.0003967413163709699,-0.0005407664206310866,0.002228861112056024
-0.0003966713163709699,1.959328296020599,-0.05979179127216107
-0.0003966013163709699,3.189264746751315,0.03141505046929317
-0.0003965313163709699,3.291455312391268,0.05330469248729363
-0.0003964613163709699,3.273206997098518,-0.001419412557603805
-0.0003963913163709698,3.276856660157063,-0.01601250723623648
-0.0003963213163709699,3.265907670981419,-0.001419412557603805
-0.0003962513163709699,3.386346551913562,3.3403992688508
-0.0003961813163709698,3.185615083693364,3.117854575001618
-0.0003961113163709699,3.273206997098518,3.267433795457603
-0.0003960413163709699,3.313353290742566,3.311213079493521
-0.0003959713163709698,3.302404301566915,3.296619984814883
-0.0003959013163709699,3.298754638508367,3.300268258484541
-0.0003958313163709699,3.302404301566917,3.311213079493521
-0.0003957613163709698,3.298754638508365,3.303916532154203
-0.0003956913163709699,3.295104975449817,3.307564805823861
-0.0003956213163709699,3.302404301566917,3.31850962683284
-0.0003955513163709698,3.306053964625467,3.322157900502497
-0.0003954813163709699,3.306053964625467,3.314861353163181
