gitfigures/ImplementationTest/wrong_clock_with_reverb_12Mhz.csv

#Digilent WaveForms Oscilloscope Acquisition
#Device Name: Discovery2
#Serial Number: SN:210321B053D5
#Date Time: 2025-05-09 15:29:54.042
#Sample rate: 2.94118e+06Hz
#Samples: 8192
#Trigger: Source: Channel 1 Type: Edge Condition: Rising Level: 220 mV Hyst.: Auto HoldOff: 0 s
#Channel 1: Range: 200 mV/div Offset: 0 V Sample Mode: Average
#Channel 2: Range: 100 mV/div Offset: 0 V Sample Mode: Average
#Wavegen Channel 1: Running
#Mode: Simple
#Type: Sine
#Frequency: 1 kHz
#Period: 1 ms
#Amplitude: 250 mV
#Offset: 0 V
#Symmetry: 50 %
#Phase: 0 °

Time (s),Channel 1 (V),Channel 2 (V)
0.001016291188938003,0.2310157930179588,-0.1376499656437398
0.001016631188938003,0.2310157930179591,-0.1356586827608989
0.001016971188938003,0.2316798301565006,-0.1386456070851609
0.001017311188938003,0.2320118487257715,-0.1432919338117928
0.001017651188938003,0.2313478115872297,-0.1469426190970025
0.001017991188938003,0.2313478115872297,-0.1446194557336876
0.001018331188938003,0.2313478115872297,-0.144287575253214
0.001018671188938003,0.2316798301565004,-0.1459469776555817
0.001019011188938003,0.2313478115872297,-0.1495976629407933
0.001019351188938003,0.2313478115872297,-0.1509251848626881
0.001019691188938003,0.2320118487257712,-0.1522527067845823
0.001020031188938003,0.2326758858643133,-0.1486020214993721
0.001020371188938003,0.2323438672950424,-0.1456150971751088
0.001020711188938003,0.2330079044335842,-0.1373180851632661
0.001021051188938003,0.2326758858643136,-0.1376499656437419
0.001021391188938003,0.2333399230028551,-0.1422962923703717
0.001021731188938003,0.233671941572126,-0.1502614239017407
0.001022071188938003,0.2346679972799386,-0.1519208263041085
0.001022411188938003,0.2343359787106678,-0.1502614239017407
0.001022751188938003,0.2340039601413968,-0.1449513362141613
0.001023091188938003,0.2346679972799387,-0.1399731290070565
0.001023431188938003,0.2346679972799387,-0.1416325314094243
0.001023771188938003,0.2350000158492096,-0.141964411889898
0.001024111188938003,0.2353320344184804,-0.1369862046827947
0.001024451188938003,0.2353320344184805,-0.133999280358529
0.001024791188938003,0.2353320344184805,-0.1366543242023187
0.001025131188938003,0.2353320344184805,-0.13864560708516
0.001025471188938003,0.2356640529877514,-0.1376499656437398
0.001025811188938003,0.2356640529877514,-0.1376499656437398
0.001026151188938003,0.2359960715570223,-0.1346630413194764
0.001026491188938003,0.2359960715570227,-0.1326717584366355
0.001026831188938003,0.236992127264835,-0.1356586827608975
0.001027171188938003,0.2366601086955641,-0.1373180851632661
0.001027511188938003,0.2366601086955641,-0.1389774875656334
0.001027851188938003,0.2366601086955641,-0.136322443721845
0.001028191188938003,0.2366601086955641,-0.1333355193975816
0.001028531188938003,0.2369921272648351,-0.1280254317100014
0.001028871188938003,0.2373241458341059,-0.12603414882716
0.001029211188938003,0.2379881829726477,-0.1266979097881074
0.001029551188938003,0.2373241458341062,-0.1296848341123694
0.001029891188938003,0.236992127264835,-0.1359905632413712
0.001030231188938003,0.2373241458341059,-0.1462788581360562
0.001030571188938003,0.2376561644033766,-0.1532483482260009
0.001030911188938003,0.2386522201111895,-0.1495976629407933
0.001031251188938003,0.2383202015419186,-0.1366543242023187
0.001031591188938003,0.2393162572497313,-0.1237109854638441
0.001031931188938003,0.2389842386804601,-0.1230472245029016
0.001032271188938003,0.2383202015419186,-0.133999280358529
0.001032611188938003,0.2386522201111895,-0.1416325314094243
0.001032951188938003,0.2389842386804609,-0.1422962923703699
0.001033291188938003,0.2399802943882731,-0.1383137266046872
0.001033631188938003,0.2393162572497313,-0.1316761169952131
0.001033971188938003,0.2386522201111898,-0.1326717584366337
0.001034311188938003,0.2393162572497313,-0.1383137266046872
0.001034651188938003,0.2393162572497313,-0.1436238142922665
0.001034991188938003,0.2393162572497313,-0.1442875752532136
0.001035331188938003,0.2396482758190022,-0.1413006509289506
0.001035671188938003,0.2396482758190022,-0.1359905632413712
0.001036011188938003,0.2403123129575437,-0.1320079974756886
0.001036351188938003,0.2399802943882731,-0.1306804755537919
0.001036691188938003,0.2399802943882731,-0.1316761169952131
0.001037031188938003,0.2399802943882731,-0.1323398779561605
0.001037371188938003,0.2406443315268148,-0.1369862046827919
0.001037711188938003,0.240312312957544,-0.1359905632413712
0.001038051188938003,0.2413083686653568,-0.1300167145928445
0.001038391188938003,0.2409763500960861,-0.1257022683466898
0.001038731188938003,0.2416403872346277,-0.1333355193975816
0.001039071188938003,0.2419724058038986,-0.1336673998780553
0.001039411188938003,0.2413083686653571,-0.126366029307637
0.001039751188938003,0.2413083686653568,-0.1200603001786333
0.001040091188938003,0.2423044243731695,-0.1266979097881074
0.001040431188938003,0.2429684615117109,-0.1346630413194728
0.001040771188938003,0.2423044243731695,-0.1313442365147393
0.001041111188938003,0.2426364429424404,-0.1240428659443178
0.001041451188938003,0.2433004800809822,-0.114750212491054
0.001041791188938003,0.2429684615117113,-0.1091082443230009
0.001042131188938003,0.243632498650253,-0.1104357662448958
0.001042471188938003,0.2429684615117113,-0.1160777344129488
0.001042811188938003,0.2433004800809823,-0.115745853932473
0.001043151188938003,0.243632498650253,-0.1110995272058432
0.001043491188938003,0.2433004800809822,-0.1137545710496329
0.001043831188938003,0.2429684615117119,-0.1120951686472632
0.001044171188938003,0.2442965357887948,-0.1097720052839483
0.001044511188938003,0.2439645172195239,-0.1107676467253695
0.001044851188938003,0.2439645172195239,-0.1137545710496315
0.001045191188938003,0.2442965357887948,-0.1120951686472643
0.001045531188938003,0.2439645172195239,-0.1084444833620535
0.001045871188938003,0.2439645172195239,-0.117073375854366
0.001046211188938003,0.2442965357887948,-0.1230472245028967
0.001046551188938003,0.2446285543580657,-0.1230472245028967
0.001046891188938003,0.2439645172195239,-0.1190646587372122
0.001047231188938003,0.2439645172195239,-0.1197284196981596
0.001047571188938003,0.2446285543580657,-0.1230472245028967
0.001047911188938003,0.2446285543580657,-0.120392180659107
0.001048251188938003,0.2436324986502534,-0.122715344022424
0.001048591188938003,0.2442965357887948,-0.1250385073857389
0.001048931188938003,0.2442965357887948,-0.1280254317100023
0.001049271188938003,0.2446285543580657,-0.1293529536318991
0.001049611188938003,0.2446285543580657,-0.1336673998780553
0.001049951188938003,0.2446285543580657,-0.1346630413194764
0.001050291188938003,0.2449605729273366,-0.1330036389171086
0.001050631188938003,0.2459566286351494,-0.1310123560342656
0.001050971188938003,0.2456246100658785,-0.1320079974756868
0.001051311188938003,0.2456246100658785,-0.1326717584366339
0.001051651188938003,0.2462886472044203,-0.128357312190476
0.001051991188938003,0.2466206657736912,-0.1253703878662126
0.001052331188938003,0.2466206657736912,-0.1270297902685811
0.001052671188938003,0.2466206657736912,-0.1323398779561605
0.001053011188938003,0.2462886472044203,-0.1343311608390027
0.001053351188938003,0.2462886472044203,-0.1393093680461083
0.001053691188938003,0.2462886472044203,-0.139973129007053
0.001054031188938003,0.2462886472044203,-0.133999280358529
0.001054371188938003,0.2462886472044203,-0.12603414882716
0.001054711188938003,0.2462886472044204,-0.1276935512295289
0.001055051188938003,0.2466206657736912,-0.128357312190476
0.001055391188938003,0.2459566286351494,-0.1286891926709497
0.001055731188938003,0.2459566286351494,-0.127693551229529
0.001056071188938003,0.2466206657736912,-0.1310123560342656
0.001056411188938003,0.2466206657736912,-0.1290210731514234
0.001056751188938003,0.2469526843429619,-0.1260341488271614
0.001057091188938003,0.2459566286351494,-0.1263660293076337
0.001057431188938003,0.2462886472044203,-0.1276935512295286
0.001057771188938003,0.2459566286351494,-0.1300167145928445
0.001058111188938003,0.2462886472044206,-0.1296848341123707
0.001058451188938003,0.2469526843429621,-0.1293529536318971
0.001058791188938003,0.2476167214815039,-0.1253703878662126
0.001059131188938003,0.2469526843429624,-0.1217197025810036
0.001059471188938003,0.2476167214815039,-0.1257022683466863
0.001059811188938003,0.247284702912233,-0.1353268022804238
0.001060151188938003,0.2476167214815037,-0.1379818461242121
0.001060491188938003,0.247284702912233,-0.1349949217999501
0.001060831188938003,0.247284702912233,-0.1316761169952131
0.001061171188938003,0.2476167214815037,-0.1310123560342659
0.001061511188938003,0.247284702912233,-0.1303485950733182
0.001061851188938003,0.2482807586200457,-0.1320079974756868
0.001062191188938003,0.2489447957585872,-0.139309368046105
0.001062531188938003,0.2482807586200457,-0.139641248526582
0.001062871188938003,0.2479487400507748,-0.1409687704484769
0.001063211188938003,0.2482807586200457,-0.1393093680461083
0.001063551188938003,0.2482807586200454,-0.139973129007053
0.001063891188938003,0.2476167214815039,-0.133999280358529
0.001064231188938003,0.2486127771893166,-0.1290210731514234
0.001064571188938003,0.2479487400507749,-0.1303485950733231
0.001064911188938003,0.2482807586200457,-0.1409687704484769
0.001065251188938003,0.2486127771893166,-0.1439556947727402
0.001065591188938003,0.2482807586200459,-0.1386456070851592
0.001065931188938003,0.2486127771893166,-0.1349949217999501
0.001066271188938003,0.2486127771893166,-0.1386456070851609
0.001066611188938003,0.2486127771893166,-0.1416325314094229
0.001066951188938003,0.2482807586200457,-0.139641248526582
0.001067291188938003,0.2486127771893166,-0.1300167145928445
0.001067631188938003,0.2479487400507751,-0.1260341488271618
0.001067971188938003,0.2486127771893166,-0.1293529536318971
0.001068311188938003,0.2482807586200457,-0.1346630413194764
0.001068651188938003,0.2489447957585875,-0.139641248526582
0.001068991188938003,0.2492768143278581,-0.1442875752532135
0.001069331188938003,0.2486127771893166,-0.1432919338117928
0.001069671188938003,0.2496088328971293,-0.1326717584366342
0.001070011188938003,0.2489447957585875,-0.1220515830614739
0.001070351188938003,0.2489447957585875,-0.1184008977762648
0.001070691188938003,0.2489447957585875,-0.1223834635419492
0.001071031188938003,0.2489447957585875,-0.1296848341123675
0.001071371188938003,0.2489447957585875,-0.1330036389171079
0.001071711188938003,0.2492768143278584,-0.1310123560342656
0.001072051188938003,0.2492768143278584,-0.1260341488271623
0.001072391188938003,0.2492768143278584,-0.1233791049833704
0.001072731188938003,0.2502728700356711,-0.1177371368153173
0.001073071188938003,0.2496088328971296,-0.1094401248034784
0.001073411188938003,0.2492768143278584,-0.1057894395182639
0.001073751188938003,0.2496088328971293,-0.1187327782567384
0.001074091188938003,0.2499408514664002,-0.1280254317100023
0.001074431188938003,0.2492768143278584,-0.1260341488271552
0.001074771188938003,0.2492768143278584,-0.1154139734520014
0.001075111188938003,0.2499408514664002,-0.1120951686472643
0.001075451188938003,0.2499408514663998,-0.1157458539324776
0.001075791188938003,0.2489447957585875,-0.1213878221005281
0.001076131188938003,0.2492768143278584,-0.1270297902685811
0.001076471188938003,0.2492768143278584,-0.1247066269052662
0.001076811188938003,0.2502728700356711,-0.1210559416200544
0.001077151188938003,0.2496088328971293,-0.1190646587372122
0.001077491188938003,0.2492768143278586,-0.1316761169952073
0.001077831188938003,0.2489447957585875,-0.1403050094875294
0.001078171188938003,0.2492768143278584,-0.1383137266046872
0.001078511188938003,0.2496088328971293,-0.1303485950733182
0.001078851188938003,0.2492768143278584,-0.1300167145928445
0.001079191188938003,0.2492768143278584,-0.1359905632413712
0.001079531188938003,0.2489447957585875,-0.1432919338117928
0.001079871188938003,0.2492768143278586,-0.1535802287064787
0.001080211188938003,0.2496088328971293,-0.15557151158932
0.001080551188938003,0.2499408514664002,-0.1509251848626881
0.001080891188938003,0.2502728700356709,-0.1449513362141615
0.001081231188938003,0.2499408514664002,-0.1452832166946351
0.001081571188938003,0.2499408514664002,-0.1452832166946351
0.001081911188938003,0.2499408514664002,-0.1469426190970028
0.001082251188938003,0.2492768143278584,-0.1542439896674252
0.001082591188938003,0.2496088328971293,-0.1615453602378467
0.001082931188938003,0.2499408514664001,-0.1585584359135847
0.001083271188938003,0.2502728700356711,-0.1572309139916885
0.001083611188938003,0.2499408514664002,-0.1585584359135834
0.001083951188938003,0.2499408514664002,-0.1595540773550045
0.001084291188938003,0.2492768143278584,-0.1562352725502674
0.001084631188938003,0.2489447957585875,-0.163536643120689
0.001084971188938003,0.2486127771893166,-0.1701742527301631
0.001085311188938003,0.2486127771893168,-0.172165535613002
0.001085651188938003,0.2489447957585875,-0.1648641650425838
0.001085991188938003,0.2489447957585875,-0.1655279260035312
0.001086331188938003,0.2486127771893168,-0.1705061332106364
0.001086671188938003,0.2489447957585875,-0.1695104917692157
0.001087011188938003,0.2492768143278584,-0.1602178383159519
0.001087351188938003,0.2489447957585877,-0.1632047626402139
0.001087691188938003,0.2486127771893166,-0.1744886989763213
0.001088031188938003,0.2486127771893166,-0.1847769938710063
0.001088371188938003,0.2489447957585874,-0.1841132329100592
0.001088711188938003,0.2492768143278584,-0.1804625476248481
0.001089051188938003,0.2499408514664002,-0.1794669061834269
0.001089391188938003,0.2499408514664002,-0.182785710988164
0.001089731188938003,0.2489447957585875,-0.1807944281053218
0.001090071188938003,0.2492768143278584,-0.1778075037810584
0.001090411188938003,0.2492768143278584,-0.1804625476248481
0.001090751188938003,0.2486127771893166,-0.1937377668437995
0.001091091188938003,0.2486127771893166,-0.2007072569337442
0.001091431188938003,0.2486127771893166,-0.1973884521290072
0.001091771188938003,0.2486127771893163,-0.1990478545313792
0.001092111188938003,0.2479487400507748,-0.206681105582271
0.001092451188938003,0.2476167214815039,-0.2086723884651132
0.001092791188938003,0.2479487400507746,-0.2053535836603776
0.001093131188938003,0.2486127771893166,-0.2106636713479555
0.001093471188938003,0.2476167214815039,-0.2139824761526925
0.001093811188938003,0.2486127771893162,-0.2123230737503247
0.001094151188938003,0.2482807586200457,-0.209999910387008
0.001094491188938003,0.2479487400507748,-0.2159737590355348
0.001094831188938003,0.2476167214815039,-0.2196244443207456
0.001095171188938003,0.2482807586200459,-0.223275129605957
0.001095511188938003,0.2486127771893166,-0.2246026515278512
0.001095851188938003,0.2479487400507748,-0.228253336813062
0.001096191188938003,0.2482807586200457,-0.2275895758521147
0.001096531188938003,0.2482807586200457,-0.2279214563325883
0.001096871188938003,0.2479487400507748,-0.2269258148911671
0.001097211188938003,0.2489447957585874,-0.2289170977740094
0.001097551188938003,0.2486127771893166,-0.2289170977740094
0.001097891188938003,0.2486127771893166,-0.2275895758521146
0.001098231188938003,0.2479487400507751,-0.2292489782544823
0.001098571188938003,0.247284702912233,-0.233895304981115
0.001098911188938003,0.2469526843429621,-0.2382097512272732
0.001099251188938003,0.2466206657736913,-0.2402010341101145
0.001099591188938003,0.2466206657736912,-0.239537273149168
0.001099931188938003,0.2469526843429621,-0.2328996635396939
0.001100271188938003,0.2469526843429621,-0.2348909464225361
0.001100611188938003,0.247284702912233,-0.2385416317077457
0.001100951188938003,0.247284702912233,-0.2358865878639572
0.001101291188938003,0.247284702912233,-0.228253336813062
0.001101631188938003,0.2466206657736912,-0.228253336813064
0.001101971188938003,0.2466206657736912,-0.2325677830592202
0.001102311188938003,0.2469526843429621,-0.2382097512272732
0.001102651188938003,0.246620665773691,-0.2385416317077439
0.001102991188938003,0.2462886472044203,-0.2319040220982728
0.001103331188938003,0.2459566286351494,-0.2255982929692723
0.001103671188938003,0.2459566286351494,-0.2242707710473781
0.001104011188938003,0.2452925914966076,-0.2305765001763779
0.001104351188938003,0.2452925914966076,-0.2328996635396939
0.001104691188938003,0.2459566286351491,-0.2279214563325905
0.001105031188938003,0.2459566286351494,-0.217965041918377
0.001105371188938003,0.2462886472044203,-0.2199563248012193
0.001105711188938003,0.2459566286351494,-0.2289170977740094
0.001106051188938003,0.2459566286351492,-0.2312402611373249
0.001106391188938003,0.2456246100658785,-0.2302446196959042
0.001106731188938003,0.2459566286351494,-0.2292489782544831
0.001107071188938003,0.2462886472044197,-0.2292489782544838
0.001107411188938003,0.2449605729273367,-0.2309083806568516
0.001107751188938003,0.2446285543580657,-0.2385416317077469
0.001108091188938003,0.2452925914966073,-0.2425241974734296
0.001108431188938003,0.2446285543580657,-0.2382097512272732
0.001108771188938003,0.2442965357887948,-0.2295808587349568
0.001109111188938003,0.2442965357887948,-0.227921456332589
0.001109451188938003,0.2442965357887948,-0.2328996635396939
0.001109791188938003,0.243632498650253,-0.2411966755515366
0.001110131188938003,0.2442965357887945,-0.2468386437195871
0.001110471188938003,0.2442965357887948,-0.2441835998757999
0.001110811188938003,0.2449605729273367,-0.2411966755515366
0.001111151188938003,0.2452925914966076,-0.2411966755515366
0.001111491188938003,0.2452925914966073,-0.2385416317077459
0.001111831188938003,0.2446285543580657,-0.2362184683444309
0.001112171188938003,0.2446285543580657,-0.2402010341101155
0.001112511188938003,0.2442965357887948,-0.2471705242000615
0.001112851188938003,0.2442965357887948,-0.2431879584343788
0.001113191188938003,0.2442965357887948,-0.2425241974734314
0.001113531188938003,0.2442965357887948,-0.2425241974734314
0.001113871188938003,0.243632498650253,-0.2438517193953262
0.001114211188938003,0.2429684615117113,-0.2378778707467995
0.001114551188938003,0.2426364429424405,-0.2378778707467995
0.001114891188938003,0.2419724058038986,-0.2375459902663258
0.001115231188938003,0.2423044243731695,-0.2368822293053784
0.001115571188938003,0.2423044243731695,-0.2325677830592222
0.001115911188938003,0.2426364429424404,-0.2265939344106934
0.001116251188938003,0.2426364429424404,-0.2255982929692723
0.001116591188938003,0.2423044243731695,-0.2292489782544831
0.001116931188938003,0.2429684615117108,-0.2382097512272732
0.001117271188938003,0.2419724058038986,-0.2382097512272732
0.001117611188938003,0.2426364429424404,-0.2362184683444309
0.001117951188938003,0.2426364429424404,-0.2319040220982702
0.001118291188938003,0.2426364429424404,-0.2262620539302197
0.001118631188938003,0.2423044243731695,-0.2226113686450089
0.001118971188938003,0.2419724058038987,-0.2269258148911652
0.001119311188938003,0.2416403872346277,-0.2269258148911671
0.001119651188938003,0.2419724058038986,-0.2186288028793245
0.001119991188938003,0.2416403872346278,-0.2169694004769567
0.001120331188938003,0.2409763500960858,-0.2242707710473775
0.001120671188938003,0.2413083686653568,-0.231572141617799
0.001121011188938003,0.2413083686653568,-0.2362184683444309
0.001121351188938003,0.2406443315268149,-0.2352228269030098
0.001121691188938003,0.240312312957544,-0.225930173449746
0.001122031188938003,0.2396482758190022,-0.2163056395160085
0.001122371188938003,0.2393162572497316,-0.2209519662426455
0.001122711188938003,0.2399802943882731,-0.2322359025787465
0.001123051188938003,0.2399802943882731,-0.2385416317077469
0.001123391188938003,0.2399802943882733,-0.2325677830592164
0.001123731188938003,0.240312312957544,-0.2242707710473775
0.001124071188938003,0.2396482758190022,-0.2222794881645352
0.001124411188938003,0.2396482758190022,-0.2279214563325857
0.001124751188938003,0.2393162572497313,-0.2312402611373253
0.001125091188938003,0.2393162572497313,-0.233895304981115
0.001125431188938003,0.2393162572497313,-0.2335634245006414
0.001125771188938003,0.2393162572497313,-0.2312402611373253
0.001126111188938003,0.2396482758190022,-0.2216157272035878
