system_design/tremolo/tremolo_depth_0.5_test.csv

#Digilent WaveForms Oscilloscope Acquisition
#Device Name: Discovery2
#Serial Number: SN:210321B053D5
#Date Time: 2025-05-01 16:34:53.300
#Sample rate: 16000Hz
#Samples: 8192
#Trigger: Source: Channel 1 Type: Edge Condition: Rising Level: 0 V Hyst.: Auto HoldOff: 0 s
#Channel 1: Range: 500 mV/div Offset: 0 V Sample Mode: Average
#Wavegen Channel 1: Running
#Mode: Simple
#Type: Sine
#Frequency: 1 kHz
#Period: 1 ms
#Amplitude: 700 mV
#Offset: 0 V
#Symmetry: 50 %
#Phase: 0 °

Time (s),Channel 1 (V)
0.1734600474683545,-0.08705799634356627
0.1735225474683545,0.01287959300702066
0.1735850474683545,0.1121531452189304
0.1736475474683545,0.1988099917986811
0.1737100474683545,0.2569132414210999
0.1737725474683545,0.2804865598393233
0.1738350474683545,0.2652137056528618
0.1738975474683545,0.2127547717080829
0.1739600474683545,0.131078203667417
0.1740225474683545,0.03346474430172696
0.1740850474683545,-0.06448073363310033
0.1741475474683545,-0.1488134502279542
0.1742100474683545,-0.2072487184196437
0.1742725474683545,-0.2304900182685963
0.1743350474683545,-0.2152171640821348
0.1743975474683545,-0.1624262115680853
0.1744600474683545,-0.08307377351231543
0.1745225474683545,0.01221555586847795
0.1745850474683545,0.109496996664764
0.1746475474683545,0.1921696204132631
0.1747100474683545,0.24960883289714
0.1747725474683545,0.2731821513153634
0.1748350474683545,0.2569132414210892
0.1748975474683545,0.2054503631841226
0.1749600474683545,0.1277580179747079
0.1750225474683545,0.03379676287099907
0.1750850474683545,-0.06149256650966341
0.1751475474683545,-0.1438331716888906
0.1752100474683545,-0.1999443098956833
0.1752725474683545,-0.2221895540368238
0.1753350474683545,-0.2062526627118204
0.1753975474683545,-0.1564498773212076
0.1754600474683545,-0.0797535878196064
0.1755225474683545,0.01321161157628885
0.1755850474683545,0.1065088295413277
0.1756475474683545,0.1871893418741996
0.1757100474683545,0.2423044243731787
0.1757725474683545,0.2625575570986945
0.1758350474683545,0.2486127771893166
0.1758975474683545,0.1994740289372453
0.1759600474683545,0.1237737951434571
0.1760225474683545,0.03346474430172983
0.1760850474683545,-0.05817238081695603
0.1761475474683545,-0.1375248188727435
0.1762100474683545,-0.1903157713868269
0.1762725474683545,-0.2118969783894258
0.1763350474683545,-0.1982842170493188
0.1763975474683545,-0.149809505935789
0.1764600474683545,-0.07510532784981376
0.1765225474683545,0.01321161157628749
0.1765850474683545,0.103520662417891
0.1766475474683545,0.1792208962116979
0.1767100474683545,0.2320118487257813
0.1767725474683545,0.2535930557283801
0.1768350474683545,0.2393162572497313
0.1768975474683545,0.1911735647054723
0.1769600474683545,0.1194575537429354
0.1770225474683545,0.03246868859391924
0.1770850474683545,-0.05452017655497823
0.1771475474683545,-0.1298883917795127
0.1772100474683545,-0.1813512700165124
0.1772725474683545,-0.2026004584498405
0.1773350474683545,-0.1869955856941081
0.1773975474683545,-0.1418410602732858
0.1774600474683545,-0.07045706788002112
0.1775225474683545,0.01354363014555628
0.1775850474683545,0.09920442101737133
0.1776475474683545,0.1729125433955507
0.1777100474683545,0.2237113844940075
0.1777725474683545,0.2426364429424404
0.1778350474683545,0.2283596444637915
0.1778975474683545,0.1842011747507815
0.1779600474683545,0.1154733309116845
0.1780225474683545,0.03280070716319194
0.1780850474683545,-0.05020393515445828
0.1781475474683545,-0.122251964686282
0.1782100474683545,-0.1713907129383836
0.1782725474683545,-0.1889876971097335
0.1783350474683545,-0.1767030100467101
0.1783975474683545,-0.1332085774722415
0.1784600474683545,-0.06547678934095758
0.1785225474683545,0.01487170442263793
0.1785850474683545,0.09621625389393518
0.1786475474683545,0.1656081348715909
0.1787100474683545,0.2117587160002551
0.1787725474683545,0.2310157930179588
0.1788350474683545,0.2183990873856644
0.1788975474683545,0.1759007105190082
0.1789600474683545,0.1094969966648083
0.1790225474683545,0.03246868859392271
0.1790850474683545,-0.04688374946178701
0.1791475474683545,-0.1136194818852385
0.1792100474683545,-0.1594380444446317
0.1792725474683545,-0.1783631028930646
0.1793350474683545,-0.1657463972607703
0.1793975474683545,-0.123248020394114
0.1794600474683545,-0.06016449223262313
0.1795225474683545,0.01487170442260093
0.1795850474683545,0.09190001249345042
0.1796475474683545,0.1566436335012765
0.1797100474683545,0.2014661403528484
0.1797725474683545,0.219727161662748
0.1798350474683545,0.2057823817533701
0.1798975474683545,0.1659401534408618
0.1799600474683545,0.1048487366950156
0.1800225474683545,0.03213667002468789
0.1800850474683545,-0.04190347092272347
0.1801475474683545,-0.1053190176534659
0.1802100474683545,-0.1488134502279542
0.1802725474683545,-0.1644183229836866
0.1803350474683545,-0.1518016173513924
0.1803975474683545,-0.1146155375930512
0.1804600474683545,-0.05485219512428868
0.1805225474683545,0.01586776013041364
0.1805850474683545,0.08658771538511598
0.1806475474683545,0.1483431692695039
0.1807100474683545,0.1895134718590959
0.1807725474683545,0.2037902703377447
0.1808350474683545,0.1931656761210758
0.1808975474683545,0.1563116149320056
0.1809600474683545,0.09820836530959758
0.1810225474683545,0.03114061431687518
0.1810850474683545,-0.03725521095293083
0.1811475474683545,-0.09668653485242246
0.1812100474683545,-0.1348686703185763
0.1812725474683545,-0.1511375802128505
0.1813350474683545,-0.1405129859961816
0.1813975474683545,-0.1036589248071114
0.1814600474683545,-0.04887586087741243
0.1815225474683545,0.01653179726895545
0.1815850474683545,0.08293551112313603
0.1816475474683545,0.137718575052835
0.1817100474683545,0.1762327290882598
0.1817725474683545,0.1918376018439922
0.1818350474683545,0.1808809890580524
0.1818975474683545,0.144690965007524
0.1819600474683545,0.09322808677053403
0.1820225474683545,0.03080859574760427
0.1820850474683545,-0.03194291384459638
0.1821475474683545,-0.08572992206648265
0.1822100474683545,-0.1229160018248238
0.1822725474683545,-0.1378568374420144
0.1823350474683545,-0.1252401318097201
0.1823975474683545,-0.09303433059044251
0.1824600474683545,-0.04323154519980708
0.1825225474683545,0.01653179726895545
0.1825850474683545,0.07629513973771798
0.1826475474683545,0.1280900365439788
0.1827100474683545,0.1639480420252363
0.1827725474683545,0.175568691949718
0.1828350474683545,0.1656081348715909
0.1828975474683545,0.1353944450679387
0.1829600474683545,0.08691973395438687
0.1830225474683545,0.03047657717833337
0.1830850474683545,-0.02762667244407464
0.1831475474683545,-0.07643340212689738
0.1832100474683545,-0.1089712219154459
0.1832725474683545,-0.1209238904091984
0.1833350474683545,-0.1116273704696131
0.1833975474683545,-0.08274175494304453
0.1834600474683545,-0.03625915524511811
0.1835225474683545,0.01785987154603906
0.1835850474683545,0.07197889833719624
0.1836475474683545,0.1187935166043936
0.1837100474683545,0.148011150700233
0.1837725474683545,0.1612918934710691
0.1838350474683545,0.1526594106700256
0.1838975474683545,0.1237737951434571
0.1839600474683545,0.08027936256896881
0.1840225474683545,0.03014455860906247
0.1840850474683545,-0.02231437533574019
0.1841475474683545,-0.06448073363314487
0.1842100474683545,-0.09436240486752613
0.1842725474683545,-0.1066470919305495
0.1843350474683545,-0.09801460912950606
0.1843975474683545,-0.06946101217220842
0.1844600474683545,-0.02995080242897096
0.1845225474683545,0.01819189011530997
0.1845850474683545,0.06600256409031999
0.1846475474683545,0.107172866679912
0.1847100474683545,0.1357264636372096
0.1847725474683545,0.1466830764231494
0.1848350474683545,0.1357264636372096
0.1848975474683545,0.1111570895111628
0.1849600474683545,0.07430302832209255
0.1850225474683545,0.02848446576270796
0.1850850474683545,-0.01600602251959304
0.1851475474683545,-0.05452017655501778
0.1852100474683545,-0.08141368066596091
0.1852725474683545,-0.08905010775919169
0.1853350474683545,-0.08174569923523183
0.1853975474683545,-0.05817238081699771
0.1854600474683545,-0.0233104310435529
0.1855225474683545,0.01918794582312267
0.1855850474683545,0.06135430412052734
0.1856475474683545,0.09688029103251396
0.1857100474683545,0.1201215908814772
0.1857725474683545,0.1284220551132497
0.1858350474683545,0.1221137022971026
0.1858975474683545,0.1008645138637648
0.1859600474683545,0.0666666012288618
0.1860225474683545,0.02815244719343705
0.1860850474683545,-0.01069372541125859
0.1861475474683545,-0.04356356376907798
0.1862100474683545,-0.06381669649460306
0.1862725474683545,-0.07311321643418835
0.1863350474683545,-0.06746890075658299
0.1863975474683545,-0.0458876937539743
0.1864600474683545,-0.01534198538105123
0.1865225474683545,0.01985198296166448
0.1865850474683545,0.055709988442922
0.1866475474683545,0.08426358540021965
0.1867100474683545,0.1048487366950156
0.1867725474683545,0.1131492009267882
0.1868350474683545,0.1061768109720992
0.1868975474683545,0.08658771538511598
0.1869600474683545,0.05969421127417283
0.1870225474683545,0.02815244719343705
0.1870850474683545,-0.004717391164382338
0.1871475474683545,-0.03127887670605457
0.1872100474683545,-0.04953989801595424
0.1872725474683545,-0.0568443065399141
0.1873350474683545,-0.04920787944668333
0.1873975474683545,-0.03260695098313818
0.1874600474683545,-0.009033632564904076
0.1875225474683545,0.02084803866947719
0.1875850474683545,0.05006567276531665
0.1876475474683545,0.07397100975282166
0.1877100474683545,0.09190001249345042
0.1877725474683545,0.09455616104761765
0.1878350474683545,0.0895758825085541
0.1878975474683545,0.07563110259917617
0.1879600474683545,0.05404989559656748
0.1880225474683545,0.02782042862416615
0.1880850474683545,0.001590961651764818
0.1881475474683545,-0.02032226392011478
0.1882100474683545,-0.03260695098313818
0.1882725474683545,-0.03692319238365992
0.1883350474683545,-0.03360300669095089
0.1883975474683545,-0.02098630105865658
0.1884600474683545,-6.913119458969689e-05
0.1885225474683545,0.0218440943772899
0.1885850474683545,0.0447533756569822
0.1886475474683545,0.06268237839761095
0.1887100474683545,0.07363899118355076
0.1887725474683545,0.07861926972261429
0.1888350474683545,0.07529908402990527
0.1888975474683545,0.06201834125906915
0.1889600474683545,0.04574943136479491
0.1890225474683545,0.02748841005489525
0.1890850474683545,0.00756729589864107
0.1891475474683545,-0.00604546544146595
0.1892100474683545,-0.01733409679667665
0.1892725474683545,-0.02098630105865658
0.1893350474683545,-0.01667005965813484
0.1893975474683545,-0.006377484010736852
0.1894600474683545,0.006903258760099265
0.1895225474683545,0.02284015008510261
0.1895850474683545,0.03778098570229324
0.1896475474683545,0.05039769133458755
0.1897100474683545,0.05936219270490193
0.1897725474683545,0.06235035982834006
0.1898350474683545,0.05670604415073471
0.1898975474683545,0.04973365419604574
0.1899600474683545,0.03944107854864775
0.1900225474683545,0.02682437291635344
0.1900850474683545,0.01453968585333003
0.1901475474683545,0.004579128775202944
0.1902100474683545,-0.002393261179486017
0.1902725474683545,-0.001065186902402406
0.1903350474683545,0.000262887374681206
0.1903975474683545,0.00524316591374475
0.1904600474683545,0.01420766728405913
0.1905225474683545,0.02317216865437351
0.1905850474683545,0.0331327257325006
0.1906475474683545,0.03944107854864775
0.1907100474683545,0.04209722710281497
0.1907725474683545,0.04276126424135678
0.1908350474683545,0.04176520853354408
0.1908975474683545,0.03778098570229324
0.1909600474683545,0.03080859574760427
0.1910225474683545,0.02616033577781163
0.1910850474683545,0.01985198296166448
0.1911475474683545,0.01686381583822635
0.1912100474683545,0.01586776013041364
0.1912725474683545,0.01487170442260093
0.1913350474683545,0.01553574156114274
0.1913975474683545,0.01985198296166448
0.1914600474683545,0.0218440943772899
0.1915225474683545,0.02416822436218622
0.1915850474683545,0.02649235434708254
0.1916475474683545,0.02582831720854073
0.1917100474683545,0.02616033577781163
0.1917725474683545,0.02715639148562434
0.1918350474683545,0.02383620579291532
0.1918975474683545,0.02350418722364441
0.1919600474683545,0.02383620579291532
0.1920225474683545,0.02483226150072802
0.1920850474683545,0.02682437291635344
0.1921475474683545,0.02881648433197886
0.1922100474683545,0.03014455860906247
0.1922725474683545,0.03213667002468789
0.1923350474683545,0.0341287814403133
0.1923975474683545,0.03246868859395879
0.1924600474683545,0.02848446576270796
0.1925225474683545,0.02483226150072802
0.1925850474683545,0.01985198296166448
0.1926475474683545,0.01487170442260093
0.1927100474683545,0.011219500160621
0.1927725474683545,0.006239221621557459
0.1928350474683545,0.007235277329370167
0.1928975474683545,0.0108874815913501
0.1929600474683545,0.01586776013041364
0.1930225474683545,0.02450024293145712
0.1930850474683545,0.03280070716322969
0.1931475474683545,0.03977309711791865
0.1932100474683545,0.04807356134969123
0.1932725474683545,0.05039769133458755
0.1933350474683545,0.04973365419604574
0.1933975474683545,0.04408933851844039
0.1934600474683545,0.03744896713302234
0.1935225474683545,0.02582831720854073
0.1935850474683545,0.01387564871478823
0.1936475474683545,0.002587017359577527
0.1937100474683545,-0.007373539718549561
0.1937725474683545,-0.01002968827271679
0.1938350474683545,-0.008037576857091368
0.1938975474683545,-0.003389316887298726
0.1939600474683545,0.007899314467911974
0.1940225474683545,0.02317216865437351
0.1940850474683545,0.03844502284083504
0.1941475474683545,0.05338585845802567
0.1942100474683545,0.06301439696688187
0.1942725474683545,0.06633458265959088
0.1943350474683545,0.06699861979813269
0.1943975474683545,0.05869815556636012
0.1944600474683545,0.04342530137989859
0.1945225474683545,0.02582831720854073
0.1945850474683545,0.006903258760099265
0.1946475474683545,-0.01002968827271679
0.1947100474683545,-0.02198235676646929
0.1947725474683545,-0.02862272815188735
0.1948350474683545,-0.02729465387480374
0.1948975474683545,-0.01600602251959304
0.1949600474683545,0.0009269245132230119
0.1950225474683545,0.0218440943772899
0.1950850474683545,0.0447533756569822
0.1951475474683545,0.06334641553615276
0.1952100474683545,0.07729119544553069
0.1952725474683545,0.08658771538511598
0.1953350474683545,0.08260349255386513
0.1953975474683545,0.06998678692157083
0.1954600474683545,0.05072970990385845
0.1955225474683545,0.02682437291635344
0.1955850474683545,0.0009269245132230119
0.1956475474683545,-0.02098630105865658
0.1957100474683545,-0.03924732236855624
0.1957725474683545,-0.04655173089251611
0.1958350474683545,-0.04190347092272347
0.1958975474683545,-0.02829070958261645
0.1959600474683545,-0.007373539718549561
0.1960225474683545,0.02151207580801899
0.1960850474683545,0.05006567276531665
0.1961475474683545,0.07629513973771798
0.1962100474683545,0.09488817961688854
0.1962725474683545,0.1018605695715775
0.1963350474683545,0.09754432817105577
0.1963975474683545,0.08393156683094874
0.1964600474683545,0.05803411842781832
0.1965225474683545,0.02748841005489525
0.1965850474683545,-0.005381428302924144
0.1966475474683545,-0.0342670438294927
0.1967100474683545,-0.05452017655501778
0.1967725474683545,-0.06182458507897765
0.1968350474683545,-0.05950045509408132
0.1968975474683545,-0.04223548949199437
0.1969600474683545,-0.01401391110396762
0.1970225474683545,0.02084803866947719
0.1970850474683545,0.0563740255814638
0.1971475474683545,0.08725175252365777
0.1972100474683545,0.1094969966648083
0.1972725474683545,0.1194575537429354
0.1973350474683545,0.1154733309116845
0.1973975474683545,0.09555221675543035
0.1974600474683545,0.06467448981323638
0.1975225474683545,0.02782042862416615
0.1975850474683545,-0.01069372541125859
0.1976475474683545,-0.04422760090761979
0.1977100474683545,-0.0681329378951248
0.1977725474683545,-0.08041762495814821
0.1978350474683545,-0.07410927214200105
0.1978975474683545,-0.05319210227793417
0.1979600474683545,-0.02065428248938568
0.1980225474683545,0.02051602010020628
0.1980850474683545,0.06168632268979825
0.1981475474683545,0.09787634674032666
0.1982100474683545,0.1264299436976243
0.1982725474683545,0.1360584822064805
0.1983350474683545,0.1294181108210625
0.1983975474683545,0.1081689223877247
0.1984600474683545,0.07297495404500895
0.1985225474683545,0.02914850290124976
0.1985850474683545,-0.01534198538105123
0.1986475474683545,-0.05618026940137229
0.1987100474683545,-0.08440184778939905
0.1987725474683545,-0.09569047914460975
0.1988350474683545,-0.08838607062064988
0.1988975474683545,-0.06647284504877028
0.1989600474683545,-0.02729465387480374
0.1990225474683545,0.01951996439239358
0.1990850474683545,0.0679946755059454
0.1991475474683545,0.110493052372621
0.1992100474683545,0.1400427050377314
0.1992725474683545,0.1506672992544003
0.1993350474683545,0.1466830764231494
0.1993975474683545,0.1211176465892899
0.1994600474683545,0.07961532543042701
0.1995225474683545,0.02981254003979157
0.1995850474683545,-0.02131831962792749
0.1996475474683545,-0.06680486361804119
0.1997100474683545,-0.09701855342169335
0.1997725474683545,-0.1122914076081549
0.1998350474683545,-0.104986999084195
0.1998975474683545,-0.07709743926543917
0.1999600474683545,-0.03327098812167999
0.2000225474683545,0.01918794582312267
0.2000850474683545,0.07330697261427985
0.2001475474683545,0.1204536094507481
0.2002100474683545,0.1543195035163802
0.2002725474683545,0.1692603391335708
0.2003350474683545,0.1602958377632564
0.2003975474683545,0.1314102222366879
0.2004600474683545,0.08658771538511598
0.2005225474683545,0.03080859574760427
0.2005850474683545,-0.02596657959772013
0.2006475474683545,-0.07576936498835557
0.2007100474683545,-0.1132874633159676
0.2007725474683545,-0.1272322432253455
0.2008350474683545,-0.1179357232857602
0.2008975474683545,-0.08772203348210807
0.2009600474683545,-0.04057539664563985
0.2010225474683545,0.01885592725385177
0.2010850474683545,0.0782872511533434
0.2011475474683545,0.1320742593752297
0.2012100474683545,0.1692603391335708
0.2012725474683545,0.1828731004736778
0.2013350474683545,0.1735765805340925
0.2013975474683545,0.1440269278689822
0.2014600474683545,0.09289606820126313
0.2015225474683545,0.03147263288614608
0.2015850474683545,-0.03194291384459638
0.2016475474683545,-0.08672597777429536
0.2017100474683545,-0.125572150378991
0.2017725474683545,-0.1401809674269107
0.2018350474683545,-0.1335405960414927
0.2018975474683545,-0.09867864626804787
0.2019600474683545,-0.0462197123232452
0.2020225474683545,0.01885592725385177
0.2020850474683545,0.08393156683094874
0.2021475474683545,0.141370779314815
0.2022100474683545,0.1805489704887815
0.2022725474683545,0.1984779732294102
0.2023350474683545,0.1885174161512831
0.2023975474683545,0.1536554663778384
0.2024600474683545,0.09787634674032666
0.2025225474683545,0.03180465145541699
0.2025850474683545,-0.03592713667584722
0.2026475474683545,-0.09602249771388065
0.2027100474683545,-0.1381888560112853
0.2027725474683545,-0.156449877321185
0.2028350474683545,-0.1454932645352452
0.2028975474683545,-0.1089712219154459
0.2029600474683545,-0.05252806513939236
0.2030225474683545,0.01785987154603906
0.2030850474683545,0.08824780823147048
0.2031475474683545,0.1496712435465875
0.2032100474683545,0.1944937503981594
0.2032725474683545,0.2114266974309755
0.2033350474683545,0.2004700846450357
0.2033975474683545,0.1639480420252363
0.2034600474683545,0.1041846995564738
0.2035225474683545,0.03280070716322969
0.2035850474683545,-0.04090741521491076
0.2036475474683545,-0.1056510362227368
0.2037100474683545,-0.1511375802128505
0.2037725474683545,-0.1687345643842084
0.2038350474683545,-0.1577779515982686
0.2038975474683545,-0.1195958161321148
0.2039600474683545,-0.05784036224772681
0.2040225474683545,0.01686381583822635
0.2040850474683545,0.09322808677053403
0.2041475474683545,0.1599638191939855
0.2042100474683545,0.2054503631840992
0.2042725474683545,0.223379365924728
0.2043350474683545,0.2140828459851427
0.2043975474683545,0.1729125433955507
0.2044600474683545,0.1094969966648083
0.2045225474683545,0.0331327257325006
0.2045850474683545,-0.04489163804616159
0.2046475474683545,-0.1139515004545094
