system_design/chorus/chorus_delay_25ms_test.csv

#Digilent WaveForms Oscilloscope Acquisition
#Device Name: Discovery2
#Serial Number: SN:210321B053D5
#Date Time: 2025-05-01 13:46:55.258
#Sample rate: 80000Hz
#Samples: 8192
#Trigger: Source: Channel 1 Type: Edge Condition: Rising Level: 0 V Hyst.: Auto HoldOff: 0 s
#Channel 1: Range: 200 mV/div Offset: 0 V Sample Mode: Average
#Channel 2: Range: 200 mV/div Offset: 0 V Sample Mode: Average
#Wavegen Channel 1: Running
#Mode: Simple
#Type: Pulse
#Frequency: 10 Hz
#Period: 100 ms
#Amplitude: 700 mV
#Offset: 0 V
#Symmetry: 1 %
#Phase: 0 °

Time (s),Channel 1 (V),Channel 2 (V)
0.9648049019607844,0.006571240190833797,-0.002574610090940179
0.9648174019607845,0.003583073067400804,-0.002906490571412981
0.9648299019607844,0.005907203052286556,-0.002574610090941537
0.9648424019607844,0.005907203052286556,-0.002906490571414491
0.9648549019607844,0.004911147344476112,-0.002574610090941537
0.9648674019607844,0.005575184483012634,-0.002574610090940783
0.9648799019607844,0.003583073067393859,-0.002574610090941387
0.9648924019607844,0.005575184483014747,-0.00290649057141434
0.9649049019607844,0.003915091636665667,-0.002574610090941688
0.9649174019607845,0.006239221621547796,-0.002906490571413283
0.9649299019607844,0.003583073067393859,-0.002574610090941236
0.9649424019607844,0.006239221621555043,-0.002906490571414189
0.9649549019607844,0.004579128775208229,-0.002906490571414491
0.9649674019607845,0.005575184483012482,-0.002906490571414491
0.9649799019607844,0.004579128775202341,-0.002906490571414793
0.9649924019607844,0.003915091636662043,-0.003238371051887745
0.9650049019607844,0.004911147344470223,-0.002906490571415698
0.9650174019607844,0.005575184483015653,-0.002906490571413585
0.9650299019607844,0.005575184483015049,-0.002574610090940783
0.9650424019607844,0.004247110205934457,-0.002574610090940783
0.9650549019607844,0.005243165913740674,-0.002906490571413132
0.9650674019607844,0.004247110205935816,-0.002906490571413736
0.9650799019607844,0.005907203052286556,-0.002574610090940783
0.9650924019607844,0.004247110205935816,-0.002574610090940783
0.9651049019607845,0.003251054498128392,-0.002906490571414491
0.9651174019607844,0.005243165913741731,-0.002906490571413887
0.9651299019607844,0.00358307306739099,-0.002574610090940934
0.9651424019607844,0.005907203052280215,-0.002906490571413585
0.9651549019607845,0.00457912877520838,-0.002574610090942141
0.9651674019607844,0.005907203052283537,-0.002906490571414491
0.9651799019607844,0.004247110205933552,-0.002906490571414491
0.9651924019607844,0.004579128775201887,-0.002574610090941839
0.9652049019607845,0.005243165913743542,-0.002906490571412076
0.9652174019607844,0.004911147344473395,-0.002242729610467981
0.9652299019607844,0.004579128775203397,-0.002906490571413585
0.9652424019607844,0.003915091636663553,-0.002906490571414491
0.9652549019607845,0.004911147344471734,-0.002574610090940783
0.9652674019607844,0.004247110205934155,-0.002574610090941085
0.9652799019607844,0.006571240190824134,-0.002906490571413887
0.9652924019607844,0.003251054498132921,-0.002906490571414491
0.9653049019607844,0.005907203052279308,-0.002906490571414491
0.9653174019607844,0.003251054498120842,-0.00290649057141434
0.9653299019607844,0.006571240190822322,-0.002574610090941387
0.9653424019607844,0.00424711020594261,-0.002906490571412981
0.9653549019607844,0.00457912877520219,-0.002906490571413736
0.9653674019607844,0.004247110205932042,-0.002574610090940783
0.9653799019607844,0.00457912877520219,-0.003238371051886689
0.9653924019607845,0.004911147344475206,-0.002574610090942141
0.9654049019607844,0.00524316591374475,-0.002906490571414491
0.9654174019607844,0.00524316591374475,-0.002906490571414491
0.9654299019607844,0.004247110205934759,-0.002906490571414491
0.9654424019607845,0.005575184483010822,-0.002906490571413283
0.9654549019607844,0.004247110205933853,-0.002574610090941236
0.9654674019607844,0.005575184483014445,-0.002906490571414189
0.9654799019607844,0.004579128775206115,-0.002906490571414491
0.9654924019607845,0.004911147344471734,-0.002906490571414491
0.9655049019607844,0.00424711020593325,-0.002906490571414189
0.9655174019607844,0.005575184483013841,-0.002574610090941236
0.9655299019607844,0.004911147344476263,-0.003238371051885783
0.9655424019607844,0.004247110205937477,-0.002574610090942594
0.9655549019607844,0.006239221621556251,-0.003238371051887896
0.9655674019607844,0.003583073067395067,-0.00257461009094199
0.9655799019607845,0.005575184483008104,-0.003238371051886689
0.9655924019607844,0.003915091636664157,-0.002906490571414491
0.9656049019607844,0.00524316591374475,-0.002906490571414491
0.9656174019607844,0.006239221621555194,-0.002906490571414491
0.9656299019607844,0.005575184483018672,-0.002906490571414491
0.9656424019607844,0.004247110205935061,-0.002906490571414491
0.9656549019607844,0.005907203052285801,-0.002906490571414491
0.9656674019607844,0.005243165913746562,-0.002574610090941688
0.9656799019607845,0.004911147344473847,-0.00257461009094199
0.9656924019607844,0.0049111473444743,-0.002906490571414038
0.9657049019607844,0.005243165913744448,-0.002574610090941085
0.9657174019607844,0.00524316591374475,-0.002574610090940783
0.9657299019607845,0.00524316591374475,-0.002574610090940783
0.9657424019607844,0.005243165913745354,-0.002574610090941085
0.9657549019607844,0.00590720305228565,-0.002906490571414038
0.9657674019607844,0.004579128775207776,-0.00257461009094199
0.9657799019607844,0.005243165913741126,-0.002906490571413585
0.9657924019607844,0.003915091636662346,-0.002574610090940783
0.9658049019607844,0.00657124019082353,-0.002574610090940783
0.9658174019607844,0.003583073067402465,-0.002574610090940783
0.9658299019607844,0.006239221621552929,-0.002574610090941537
0.9658424019607844,0.004247110205932042,-0.002906490571414491
0.9658549019607844,0.006903258760093225,-0.002906490571414491
0.9658674019607845,0.004911147344473847,-0.002906490571412981
0.9658799019607844,0.004911147344474451,-0.002574610090941387
0.9658924019607844,0.005243165913744599,-0.00290649057141434
0.9659049019607844,0.004247110205934759,-0.002574610090941688
0.9659174019607845,0.00457912877520838,-0.00323837105188684
0.9659299019607844,0.00590720305228565,-0.002906490571414038
0.9659424019607844,0.005243165913745354,-0.002574610090941085
0.9659549019607844,0.004247110205935212,-0.002906490571413434
0.9659674019607845,0.005575184483013237,-0.002574610090940783
0.9659799019607844,0.004911147344473847,-0.002574610090941085
0.9659924019607844,0.004911147344473847,-0.002906490571414038
0.9660049019607844,0.005907203052282932,-0.00257461009094199
0.9660174019607844,0.003915091636668536,-0.002574610090940783
0.9660299019607844,0.006239221621556401,-0.002574610090940783
0.9660424019607844,0.003915091636665365,-0.002574610090940783
0.9660549019607844,0.005907203052278403,-0.002574610090940783
0.9660674019607844,0.004579128775205662,-0.002906490571414491
0.9660799019607844,0.005575184483015653,-0.002906490571414491
0.9660924019607844,0.004579128775205209,-0.003238371051887443
0.9661049019607844,0.005907203052280516,-0.002574610090943801
0.9661174019607844,0.005243165913743996,-0.003238371051887443
0.9661299019607844,0.004911147344473847,-0.002906490571414491
0.9661424019607844,0.00457912877520385,-0.002574610090941688
0.9661549019607845,0.005243165913748827,-0.002574610090940783
0.9661674019607844,0.006239221621555647,-0.002574610090940783
0.9661799019607844,0.005243165913745203,-0.002574610090940783
0.9661924019607844,0.00524316591374475,-0.002906490571413434
0.9662049019607845,0.005243165913741126,-0.002906490571413283
0.9662174019607844,0.004247110205932494,-0.002574610090941236
0.9662299019607844,0.004579128775202643,-0.002906490571414189
0.9662424019607844,0.005907203052281725,-0.00257461009094199
0.9662549019607845,0.006239221621551118,-0.002906490571414491
0.9662674019607844,0.004247110205934155,-0.002906490571414189
0.9662799019607844,0.006571240190825191,-0.002574610090941236
0.9662924019607844,0.005243165913749581,-0.002906490571413283
0.9663049019607844,0.004911147344474753,-0.002574610090940783
0.9663174019607844,0.00524316591374475,-0.002574610090940934
0.9663299019607844,0.00524316591374475,-0.002906490571413887
0.9663424019607845,0.005575184483012634,-0.002242729610468584
0.9663549019607844,0.004911147344475357,-0.002574610090940783
0.9663674019607844,0.005575184483015653,-0.002574610090940783
0.9663799019607844,0.004247110205935061,-0.002574610090940783
0.9663924019607845,0.007235277329360655,-0.002906490571413132
0.9664049019607844,0.004911147344476263,-0.00257461009094199
0.9664174019607844,0.006239221621556855,-0.003238371051887896
0.9664299019607844,0.004579128775207474,-0.002906490571415396
0.9664424019607845,0.005243165913743542,-0.003238371051886991
0.9664549019607844,0.004911147344472942,-0.002906490571414491
0.9664674019607844,0.004247110205932645,-0.002906490571414491
0.9664799019607844,0.006239221621551118,-0.003238371051887142
0.9664924019607845,0.004579128775205058,-0.002906490571413434
0.9665049019607844,0.00524316591374475,-0.002574610090941085
0.9665174019607844,0.00524316591374475,-0.002906490571414038
0.9665299019607844,0.00590720305228414,-0.003238371051886991
0.9665424019607844,0.004247110205936571,-0.002906490571414491
0.9665549019607844,0.005907203052286405,-0.00290649057141434
0.9665674019607844,0.005575184483016257,-0.002574610090941387
0.9665799019607844,0.005907203052285197,-0.002574610090940783
0.9665924019607844,0.003915091636664157,-0.002574610090940783
0.9666049019607844,0.00524316591374475,-0.002574610090940783
0.9666174019607844,0.006239221621555194,-0.002574610090940783
0.9666299019607845,0.005575184483014294,-0.002574610090942141
0.9666424019607844,0.005243165913741731,-0.002906490571414491
0.9666549019607844,0.00358307306739099,-0.002906490571414491
0.9666674019607844,0.006239221621550212,-0.002574610090941688
0.9666799019607845,0.004911147344471432,-0.002906490571414491
0.9666924019607844,0.004247110205934759,-0.002906490571414491
0.9667049019607844,0.006239221621555647,-0.002906490571414491
0.9667174019607844,0.003915091636668536,-0.002574610090941839
0.9667299019607845,0.005907203052282328,-0.002906490571413434
0.9667424019607844,0.004579128775204153,-0.002574610090941085
0.9667549019607844,0.005907203052284744,-0.002906490571414038
0.9667674019607844,0.004247110205938081,-0.002906490571414491
0.9667799019607844,0.005575184483013841,-0.002574610090940783
0.9667924019607844,0.004911147344474149,-0.002574610090940934
0.9668049019607844,0.005575184483014445,-0.002906490571413887
0.9668174019607844,0.004247110205937477,-0.002574610090942141
0.9668299019607844,0.005575184483015653,-0.003238371051886387
0.9668424019607844,0.005575184483015653,-0.002574610090940783
0.9668549019607844,0.003583073067394765,-0.002906490571413736
0.9668674019607844,0.004247110205929022,-0.002906490571414491
0.9668799019607844,0.006239221621555194,-0.002906490571415245
0.9668924019607844,0.005243165913745203,-0.003238371051888047
0.9669049019607844,0.005575184483014748,-0.003238371051888198
0.9669174019607845,0.00457912877520838,-0.002906490571414491
0.9669299019607844,0.00590720305228414,-0.002906490571414491
0.9669424019607844,0.004579128775204153,-0.002906490571414491
0.9669549019607844,0.00491114734447279,-0.003238371051887142
0.9669674019607845,0.003915091636669593,-0.003238371051886991
0.9669799019607844,0.006239221621553835,-0.002906490571414038
0.9669924019607844,0.003583073067393859,-0.002574610090941236
0.9670049019607844,0.004911147344469016,-0.003238371051885783
0.9670174019607845,0.004911147344475961,-0.002242729610469188
0.9670299019607844,0.005575184483015351,-0.002906490571414189
0.9670424019607844,0.005243165913745354,-0.002574610090941387
0.9670549019607844,0.005907203052283838,-0.002574610090940783
0.9670674019607844,0.00391509163666295,-0.002574610090941688
0.9670799019607844,0.004579128775203397,-0.002906490571414491
0.9670924019607844,0.005575184483013841,-0.002906490571414491
0.9671049019607845,0.00424711020594261,-0.002906490571412981
0.9671174019607844,0.006571240190822322,-0.002574610090940783
0.9671299019607844,0.003915091636661138,-0.002574610090940783
0.9671424019607844,0.005575184483011878,-0.002574610090940783
0.9671549019607845,0.003915091636665214,-0.002574610090940783
0.9671674019607844,0.004911147344472639,-0.002574610090940783
0.9671799019607844,0.004247110205932343,-0.002574610090940783
0.9671924019607844,0.005243165913742033,-0.002906490571413585
0.9672049019607845,0.004911147344469016,-0.00257461009094199
0.9672174019607844,0.003583073067394765,-0.002906490571414038
0.9672299019607844,0.006903258760096245,-0.002574610090941085
0.9672424019607844,0.004579128775210342,-0.002574610090940783
0.9672549019607845,0.004579128775201887,-0.002574610090941839
0.9672674019607844,0.004247110205933552,-0.002906490571414189
0.9672799019607844,0.005907203052284291,-0.002574610090941236
0.9672924019607844,0.005243165913747166,-0.002906490571413283
0.9673049019607844,0.004247110205932042,-0.002906490571415396
0.9673174019607844,0.004247110205932494,-0.003238371051888047
0.9673299019607844,0.005243165913742938,-0.002906490571415094
0.9673424019607844,0.005907203052283838,-0.002574610090942141
0.9673549019607844,0.003915091636667177,-0.002906490571413736
0.9673674019607844,0.006571240190828362,-0.002574610090940783
0.9673799019607844,0.003915091636667177,-0.002574610090940783
0.9673924019607845,0.004247110205936118,-0.002574610090940783
0.9674049019607844,0.00524316591374475,-0.002574610090940783
0.9674174019607844,0.00524316591374475,-0.002574610090940783
0.9674299019607844,0.004247110205934759,-0.002574610090940783
0.9674424019607845,0.005575184483012029,-0.002906490571413283
0.9674549019607844,0.004579128775202944,-0.00257461009094033
0.9674674019607844,0.004579128775202944,-0.002242729610467377
0.9674799019607844,0.005243165913742636,-0.002574610090939726
0.9674924019607845,0.004579128775204002,-0.002574610090940783
0.9675049019607844,0.004911147344473545,-0.002574610090940481
0.9675174019607844,0.004579128775203397,-0.002242729610467528
0.9675299019607844,0.005243165913742335,-0.002242729610467075
0.9675424019607844,0.004579128775206568,-0.002242729610467981
0.9675549019607844,0.005907203052286103,-0.002574610090940783
0.9675674019607844,0.004911147344475659,-0.002574610090940783
0.9675799019607844,0.003915091636665214,-0.002574610090940783
0.9675924019607844,0.006239221621553684,-0.002906490571414491
0.9676049019607844,0.004579128775202944,-0.002906490571414491
0.9676174019607844,0.006239221621553684,-0.002906490571414491
0.9676299019607844,0.002919035928863528,-0.002906490571414491
0.9676424019607844,0.006239221621552023,-0.003238371051887594
0.9676549019607844,0.003251054498120691,-0.002906490571414642
0.9676674019607844,0.005243165913739314,-0.002574610090941688
0.9676799019607845,0.004247110205938836,-0.002906490571414491
0.9676924019607844,0.00590720305228565,-0.002906490571414491
0.9677049019607844,0.005243165913745354,-0.002906490571414491
0.9677174019607844,0.003251054498125674,-0.002906490571414491
0.9677299019607845,0.005575184483008405,-0.002906490571414491
0.9677424019607844,0.003583073067392349,-0.002906490571414491
0.9677549019607844,0.005907203052283386,-0.002906490571414491
0.9677674019607844,0.004911147344477471,-0.002906490571414491
0.9677799019607844,0.004579128775204002,-0.003238371051887142
0.9677924019607844,0.004911147344472639,-0.002906490571414491
0.9678049019607844,0.003583073067392651,-0.002906490571414491
0.9678174019607844,0.005243165913737956,-0.002574610090942141
0.9678299019607844,0.003915091636669291,-0.002906490571413585
0.9678424019607844,0.006903258760097905,-0.002574610090940934
0.9678549019607844,0.003915091636667933,-0.002906490571413736
0.9678674019607845,0.005575184483014143,-0.002574610090942292
0.9678799019607844,0.005243165913741731,-0.002906490571414491
0.9678924019607844,0.003915091636661138,-0.002906490571414491
0.9679049019607844,0.005575184483011124,-0.003238371051887293
0.9679174019607845,0.003583073067403824,-0.002906490571415849
0.9679299019607844,0.006903258760093829,-0.003238371051886991
0.9679424019607844,0.003915091636662496,-0.002574610090941085
0.9679549019607844,0.006239221621550061,-0.003238371051886085
0.9679674019607845,0.003915091636667177,-0.002906490571415698
0.9679799019607844,0.005575184483013841,-0.003238371051887745
0.9679924019607844,0.00424711020593325,-0.002906490571414793
0.9680049019607844,0.005575184483010822,-0.002906490571414491
0.9680174019607845,0.005575184483009312,-0.002906490571415547
0.9680299019607844,0.003583073067392047,-0.003238371051887896
0.9680424019607844,0.005575184483012936,-0.002906490571414943
0.9680549019607844,0.003915091636667177,-0.002906490571414491
0.9680674019607844,0.005575184483009312,-0.002906490571415396
0.9680799019607844,0.003251054498120238,-0.003238371051888047
0.9680924019607844,0.005243165913741126,-0.002906490571415094
0.9681049019607844,0.003915091636666574,-0.00323837105188684
0.9681174019607844,0.005575184483014143,-0.002906490571415245
0.9681299019607844,0.004911147344473847,-0.003238371051888198
0.9681424019607844,0.004911147344473847,-0.003238371051888198
0.9681549019607845,0.003915091636665214,-0.002906490571413132
0.9681674019607844,0.004911147344475056,-0.002574610090941387
0.9681799019607844,0.005575184483015351,-0.00290649057141434
0.9681924019607844,0.003583073067395671,-0.002906490571414491
0.9682049019607845,0.005243165913742335,-0.002906490571413283
0.9682174019607844,0.004579128775204304,-0.002574610090940783
0.9682299019607844,0.005575184483014747,-0.002574610090940783
0.9682424019607844,0.004247110205936269,-0.002574610090940783
0.9682549019607845,0.006903258760088696,-0.002906490571414491
0.9682674019607844,0.003583073067392651,-0.002906490571414491
0.9682799019607844,0.006239221621553835,-0.002906490571414491
0.9682924019607844,0.004247110205939288,-0.002906490571414491
0.9683049019607844,0.004579128775204756,-0.003238371051888198
0.9683174019607844,0.005243165913744448,-0.003238371051888198
0.9683299019607844,0.004579128775204153,-0.003238371051888198
0.9683424019607845,0.005907203052275987,-0.003238371051888198
0.9683549019607844,0.003583073067394765,-0.003238371051888198
0.9683674019607844,0.005575184483015653,-0.003238371051888198
0.9683799019607844,0.005575184483015653,-0.002906490571415245
0.9683924019607844,0.004579128775207474,-0.003570251532358887
0.9684049019607844,0.004247110205934457,-0.002906490571414491
0.9684174019607844,0.005575184483015049,-0.002906490571414491
0.9684299019607844,0.003915091636665667,-0.002906490571414491
0.9684424019607845,0.004579128775204153,-0.002906490571414491
0.9684549019607844,0.004911147344472488,-0.002906490571414491
0.9684674019607844,0.003915091636662043,-0.002906490571414491
0.9684799019607844,0.005243165913740523,-0.002906490571414491
0.9684924019607845,0.004579128775205058,-0.003238371051886085
0.9685049019607844,0.005243165913743845,-0.002574610090940783
0.9685174019607844,0.004247110205933401,-0.002574610090940783
0.9685299019607844,0.005907203052280516,-0.002906490571413283
0.9685424019607844,0.006239221621547494,-0.002574610090941688
0.9685549019607844,0.002587017359579339,-0.002906490571414491
0.9685674019607844,0.006571240190821113,-0.002906490571414491
0.9685799019607844,0.003583073067402465,-0.002906490571414491
0.9685924019607844,0.005575184483014748,-0.002906490571415396
0.9686049019607844,0.00524316591374475,-0.003238371051888198
0.9686174019607844,0.004247110205934306,-0.002906490571415245
0.9686299019607845,0.006571240190819303,-0.002906490571414491
0.9686424019607844,0.004579128775203699,-0.002906490571413736
0.9686549019607844,0.004911147344473696,-0.002574610090940934
0.9686674019607844,0.004247110205933853,-0.002906490571413585
0.9686799019607845,0.006571240190813414,-0.002906490571415849
0.9686924019607844,0.002919035928852657,-0.003238371051886991
0.9687049019607844,0.005243165913742636,-0.002574610090941387
0.9687174019607844,0.003251054498125674,-0.002906490571413434
