system_design/chorus/chorus_1khz_wave_test.csv

#Digilent WaveForms Oscilloscope Acquisition
#Device Name: Discovery2
#Serial Number: SN:210321B053D5
#Date Time: 2025-05-01 13:56:04.435
#Sample rate: 4000Hz
#Samples: 8192
#Trigger: Source: Channel 1 Type: Edge Condition: Rising Level: 0 V Hyst.: Auto HoldOff: 0 s
#Channel 1: Range: 200 mV/div Offset: 0 V Sample Mode: Average
#Wavegen Channel 1: Running
#Mode: Simple
#Type: Sine
#Frequency: 1 kHz
#Period: 1 ms
#Amplitude: 700 mV
#Offset: 0 V
#Symmetry: 50 %
#Phase: 0 °

Time (s),Channel 1 (V)
-0.02382534246575352,0.2831427083934905
-0.02357534246575343,0.1025246067099386
-0.02332534246575357,-0.2949016207069707
-0.02307534246575349,-0.1039909433763823
-0.02282534246575341,0.3209928252902773
-0.02257534246575355,0.1094969966648083
-0.02232534246575346,-0.3433763318207033
-0.0220753424657536,-0.1219199461171118
-0.02182534246575352,0.3641552392955908
-0.02157534246575343,0.1211176465890601
-0.02132534246575357,-0.3842146158407946
-0.02107534246575349,-0.1282282989331582
-0.0208253424657534,0.3990171890689153
-0.02057534246575354,0.134398389360126
-0.02032534246575346,-0.4028076557201949
-0.0200753424657536,-0.1375248188728642
-0.01982534246575351,0.4179422475174771
-0.01957534246575343,0.1383826121911189
-0.01932534246575357,-0.4287051041230674
-0.01907534246575349,-0.146157301673787
-0.0188253424657534,0.4458318073360968
-0.01857534246575354,0.1463510578538785
-0.01832534246575346,-0.4536064968186431
-0.0180753424657536,-0.1484814316588221
-0.01782534246575351,0.4567884201221727
-0.01757534246575343,0.1500032621155824
-0.01732534246575357,-0.4569266825110761
-0.01707534246575348,-0.149477487366496
-0.0168253424657534,0.457120438691304
-0.01657534246575354,0.1500032621158584
-0.01632534246575346,-0.4532744782493722
-0.01607534246575359,-0.1478173945202804
-0.01582534246575351,0.452472178721651
-0.01557534246575343,0.1500032621155824
-0.01532534246575357,-0.4569266825110761
-0.01507534246575348,-0.1498095059357669
-0.0148253424657534,0.4458318073360971
-0.01457534246575354,0.1470150949924203
-0.01432534246575345,-0.4386656612014525
-0.01407534246575359,-0.142173078842671
-0.01382534246575351,0.4298949160112296
-0.01357534246575343,0.1417027978838346
-0.01332534246575356,-0.4107761013824453
-0.01307534246575348,-0.135864726026389
-0.0128253424657534,0.4106378389933897
-0.01257534246575354,0.1300821479596043
-0.01232534246575345,-0.3895269129493588
-0.01207534246575359,-0.1318805031952553
-0.01182534246575351,0.3661473507112162
-0.01157534246575342,0.1227777394354256
-0.01132534246575356,-0.3583171674376752
-0.01107534246575348,-0.1179357232857602
-0.0108253424657534,0.3502104593861053
-0.01057534246575353,0.1134812194960591
-0.01032534246575345,-0.3231231990951782
-0.01007534246575359,-0.1109633333311678
-0.009825342465753506,0.3146844724742263
-0.009575342465753423,0.1018605695713969
-0.009325342465753561,-0.2952336392762418
-0.009075342465753478,-0.1036589248071114
-0.008825342465753394,0.2665417799298666
-0.008575342465753533,0.09322808677053403
-0.008325342465753449,-0.2437707610394325
-0.008075342465753588,-0.08639395920509602
-0.007825342465753504,0.2363280901262932
-0.007575342465753421,0.07729119544539872
-0.007325342465753559,-0.2128930340971065
-0.007075342465753476,-0.08041762495814821
-0.006825342465753392,0.1895134718590424
-0.006575342465753531,0.07197889833719624
-0.006325342465753447,-0.1929719199409843
-0.006075342465753586,-0.07045706788007684
-0.005825342465753502,0.1689283205642999
-0.005575342465753419,0.06533852695168124
-0.005325342465753558,-0.1478173945200446
-0.005075342465753474,-0.05850439938626861
-0.004825342465753391,0.1423668350225875
-0.004575342465753529,0.05404989559656748
-0.004325342465753446,-0.1298883917795127
-0.004075342465753584,-0.0541881579857813
-0.003825342465753501,0.1144772752038718
-0.003575342465753417,0.04906961705743403
-0.003325342465753556,-0.1046549805148542
-0.003075342465753472,-0.0455556751847034
-0.002825342465753389,0.1031886438486354
-0.002575342465753527,0.04674548707260762
-0.002325342465753444,-0.09535846057533884
-0.002075342465753582,-0.04289952663056004
-0.001825342465753499,0.09389212390907584
-0.001575342465753415,0.04276126424129548
-0.001325342465753554,-0.09203827488262981
-0.00107534246575347,-0.04190347092272347
-0.000825342465753387,0.09223203106269867
-0.0005753424657535255,0.04242924567208588
-0.0003253424657534421,-0.09834662769877697
-7.534246575358061e-05,-0.04389558233837365
0.0001746575342465029,0.1015285510023066
0.0004246575342464753,0.04674548707260762
0.0006746575342464478,-0.1063150733612786
0.0009246575342465313,-0.0462197123232452
0.001174657534246504,0.1158053494809554
0.001424657534246476,0.05006567276531665
0.001674657534246449,-0.1182677418550311
0.001924657534246532,-0.05452017655501778
0.002174657534246505,0.1330703150830424
0.002424657534246477,0.05272182131948387
0.00267465753424645,-0.1527976730592051
0.002924657534246533,-0.06016449223262313
0.003174657534246506,0.16527611630232
0.003424657534246478,0.06633458265959088
0.00367465753424645,-0.173382824354001
0.003924657534246534,-0.06912899360293751
0.004174657534246506,0.1978139360908684
0.004424657534246479,0.07264293547573805
0.004674657534246451,-0.2225215726060947
0.004924657534246535,-0.08041762495814821
0.005174657534246507,0.2237113844939989
0.00542465753424648,0.07994734399969791
0.005674657534246452,-0.2494150767170378
0.005924657534246536,-0.08838607062064988
0.006174657534246508,0.2731821513153634
0.006424657534246481,0.09754432817105577
0.006674657534246453,-0.2783006922436063
0.006924657534246537,-0.1053190176534659
0.007174657534246509,0.3060519896731828
0.007424657534246482,0.1031886438486611
0.007674657534246454,-0.3334157747425762
0.007924657534246538,-0.1132874633159676
0.00817465753424651,0.3515385336632965
0.008424657534246482,0.1217816837278317
0.008674657534246455,-0.3606412974227903
0.008924657534246538,-0.1212559089784693
0.009174657534246511,0.3864004834367413
0.009424657534246483,0.1294181108210625
0.009674657534246456,-0.392515080072797
0.009924657534246539,-0.135864726026389
0.01017465753424651,0.4099738018549755
0.01042465753424648,0.1350624264986678
0.01067465753424646,-0.4313612526774926
0.01092465753424654,-0.1421730788425362
0.01117465753424651,0.4468278630440456
0.01142465753424649,0.1473471135616912
0.01167465753424646,-0.4509503482644759
0.01192465753424654,-0.1521336359206633
0.01217465753424651,0.4640928286461326
0.01242465753424649,0.1506672992544003
0.01267465753424646,-0.4768477966676063
0.01292465753424654,-0.1554538216133723
0.01317465753424651,0.4760454971398851
0.01342465753424649,0.1559795963627347
0.01367465753424646,-0.4841522051915662
0.01392465753424654,-0.1574459330289977
0.01417465753424652,0.4883301842029085
0.01442465753424649,0.1592997820554437
0.01467465753424646,-0.4878044094535461
0.01492465753424654,-0.1584419887368104
0.01517465753424652,0.4886622027721794
0.01542465753424649,0.1599638191939855
0.01567465753424646,-0.4838201866222953
0.01592465753424654,-0.1571139144597268
0.01617465753424652,0.4777055899862396
0.01642465753424649,0.1556475777934638
0.01667465753424646,-0.4741916481134391
0.01692465753424655,-0.1514695987821215
0.01717465753424652,0.4650888843539454
0.01742465753424649,0.1523273921007547
0.01767465753424646,-0.4559306268035394
0.01792465753424655,-0.1471533573815997
0.01817465753424652,0.449151993028942
0.01842465753424649,0.1460190392846076
0.01867465753424646,-0.4310292341082217
0.01892465753424655,-0.1425050974118071
0.01917465753424652,0.4096417832857046
0.01942465753424649,0.1360584822064805
0.01967465753424646,-0.4008155443045695
0.01992465753424655,-0.1292243546409709
0.02017465753424652,0.3860684648674704
0.02042465753424649,0.1297501293903334
0.02067465753424647,-0.3606412974227903
0.02092465753424655,-0.1212559089784693
0.02117465753424652,0.3608350536028818
0.02142465753424649,0.11381323806533
0.02167465753424647,-0.3337477933118471
0.02192465753424655,-0.1156115933008639
0.02217465753424652,0.3060519896731828
0.02242465753424649,0.1055127738335574
0.02267465753424647,-0.2885932678910043
0.02292465753424655,-0.09701855342169335
0.02317465753424652,0.2778304112851561
0.0234246575342465,0.09389212390907584
0.02367465753424647,-0.2494150767170378
0.02392465753424655,-0.08971414489773349
0.02417465753424652,0.223379365924728
0.0244246575342465,0.08160743684605243
0.02467465753424647,-0.211232941250884
0.02492465753424655,-0.07278119786491744
0.02517465753424653,0.1978139360908684
0.0254246575342465,0.07397100975282166
0.02567465753424647,-0.1773670471852519
0.02592465753424655,-0.06580880791022847
0.02617465753424653,0.1732445619648216
0.0264246575342465,0.06069026698198554
0.02667465753424647,-0.1514695987821215
0.02692465753424655,-0.06116054794043584
0.02717465753424653,0.1340663707908551
0.0274246575342465,0.05504595130438019
0.02767465753424647,-0.1229160018248238
0.02792465753424656,-0.04987191658522513
0.02817465753424653,0.1184614980351227
0.0284246575342465,0.04840557991896213
0.02867465753424647,-0.1059830547920077
0.02892465753424656,-0.0462197123232452
0.02917465753424653,0.1041846995564738
0.0294246575342465,0.0444213570877113
0.02967465753424647,-0.09801460912950606
0.02992465753424656,-0.04422760090761979
0.03017465753424653,0.09190001249345042
0.0304246575342465,0.04242924567208588
0.03067465753424647,-0.09203827488262981
0.03092465753424656,-0.04256750806126527
0.03117465753424653,0.09156799392417951
0.0314246575342465,0.04342530137989859
0.03167465753424648,-0.09569047914460975
0.03192465753424645,-0.04289952663053618
0.03217465753424653,0.1028566252793902
0.0324246575342465,0.04541741279552401
0.03267465753424648,-0.111959389038884
0.03292465753424645,-0.04920787944668333
0.03317465753424653,0.1148092937731427
0.0334246575342465,0.04906961705750394
0.03367465753424648,-0.1298883917795127
0.03392465753424645,-0.05286008370866326
0.03417465753424653,0.1357264636372096
0.03442465753424651,0.05936219270490193
0.03467465753424648,-0.1481494130894124
0.03492465753424645,-0.05750834367845591
0.03517465753424653,0.1695923577028417
0.03542465753424651,0.06500650838250728
0.03567465753424648,-0.1899837528175462
0.03592465753424645,-0.07178514215710473
0.03617465753424653,0.1871893418741996
0.03642465753424651,0.0679946755059454
0.03667465753424648,-0.2122289969586967
0.03692465753424645,-0.07742945783471009
0.03717465753424654,0.2273635887559788
0.03742465753424651,0.08592367824657417
0.03767465753424648,-0.2387904825003689
0.03792465753424645,-0.08805405205137898
0.03817465753424654,0.2672058170684872
0.03842465753424651,0.09356010533980492
0.03867465753424648,-0.2945696021378806
0.03892465753424645,-0.101666813391486
0.03917465753424654,0.3057199711039119
0.03942465753424651,0.110493052372621
0.03967465753424648,-0.3227911805259073
0.03992465753424645,-0.1099672776232586
0.04017465753424654,0.3439021065700658
0.04042465753424651,0.1184614980351227
0.04067465753424648,-0.3496846846368505
0.04092465753424646,-0.125572150378991
0.04117465753424654,0.3658153321419453
0.04142465753424651,0.1211176465892899
0.04167465753424648,-0.3895269129493588
0.04192465753424646,-0.1298883917795127
0.04217465753424654,0.4026693933310156
0.04242465753424651,0.1363905007757514
0.04267465753424649,-0.4111081199519675
0.04292465753424646,-0.1385208745805562
0.04317465753424654,0.4302269345805005
0.04342465753424651,0.1423668350226276
0.04367465753424649,-0.4326893269545762
0.04392465753424646,-0.1454932645352452
0.04417465753424654,0.4461638259055039
0.04442465753424651,0.1463510578538785
0.04467465753424649,-0.4569266825113521
0.04492465753424646,-0.1491454687972251
0.04517465753424654,0.4538002529987346
0.04542465753424652,0.1493392249773166
0.04567465753424649,-0.4516143854030177
0.04592465753424646,-0.1488134502279542
0.04617465753424654,0.4571204386914436
0.04642465753424652,0.1503352806851294
0.04667465753424649,-0.4562626453728103
0.04692465753424646,-0.1491454687972251
0.04717465753424654,0.4574524572607145
0.04742465753424652,0.1503352806851294
0.04767465753424649,-0.4529424596801013
0.04792465753424646,-0.1478173945201415
0.04817465753424655,0.4464958444747748
0.04842465753424652,0.148011150700233
0.04867465753424649,-0.4253849184306163
0.04892465753424646,-0.1378568374420144
0.04917465753424655,0.418274266086748
0.04942465753424652,0.1387146307606477
0.04967465753424649,-0.4074559156899876
0.04992465753424646,-0.1335405960414927
0.05017465753424655,0.4030014119002865
0.05042465753424652,0.1307461850981461
0.05067465753424649,-0.3848786529795662
0.05092465753424646,-0.1298883917795127
0.05117465753424655,0.36382322072632
0.05142465753424652,0.1224457208663735
0.05167465753424649,-0.3526728517602886
0.05192465753424647,-0.1166076490086766
0.05217465753424655,0.3206608067211025
0.05242465753424652,0.1094969966648083
0.05267465753424649,-0.2985538249691314
0.05292465753424647,-0.1023308505300278
0.05317465753424655,0.2924392283330758
0.05342465753424652,0.09422414247834673
0.05367465753424649,-0.2683401351654793
0.05392465753424647,-0.09635451628315155
0.05417465753424655,0.2409763500960858
0.05442465753424652,0.08658771538511598
0.0546746575342465,-0.2195334054826565
0.05492465753424647,-0.07576936498835557
0.05517465753424655,0.1905095275669086
0.05542465753424652,0.07197889833719624
0.0556746575342465,-0.1614301558602485
0.05592465753424647,-0.06248862221751945
0.05617465753424655,0.1533234478085674
0.05642465753424653,0.055709988442922
0.0566746575342465,-0.1345366517493054
0.05692465753424647,-0.05518421369355959
0.05717465753424655,0.1098290152340792
0.05742465753424653,0.04807356134969123
0.0576746575342465,-0.08672597777429536
0.05792465753424647,-0.03360300669095089
0.05817465753424655,0.06102228555125645
0.05842465753424653,0.03512483714812602
0.0586746575342465,-0.03891530379928534
0.05892465753424647,-0.02663061673626193
0.05917465753424656,0.02815244719343705
0.05942465753424653,0.02118005723874809
0.0596746575342465,-0.01999024535084387
0.05992465753424647,-0.01932620821230207
0.06017465753424656,0.004911147344473847
0.06042465753424653,0.009559407314266489
0.0606746575342465,0.02450024293145712
0.06092465753424647,-0.005049409733653241
0.06117465753424656,-0.03360300669095089
0.06142465753424653,0.006239221621557459
0.0616746575342465,0.04276126424135678
0.06192465753424647,-0.00272527974875692
0.06217465753424656,-0.0458876937539743
0.06242465753424653,0.001590961651764818
0.0626746575342465,0.04774154278042032
0.06292465753424648,0.006903258760099265
0.06317465753424645,-0.07444129071127195
0.06342465753424653,-0.00604546544146595
0.0636746575342465,0.07430302832209255
0.06392465753424648,0.006571240190828362
0.06417465753424645,-0.07078908644929202
0.06442465753424653,-0.004717391164382338
0.0646746575342465,0.06533852695177818
0.06492465753424648,0.004579128775202944
0.06517465753424645,-0.09037818203627529
0.06542465753424653,-0.007705558287820465
0.06567465753424651,0.08260349255386513
0.06592465753424648,0.0108874815913501
0.06617465753424645,-0.06580880791022847
0.06642465753424653,-0.003389316887298726
0.06667465753424651,0.0560420070121929
0.06692465753424648,-6.913119458969689e-05
0.06717465753424645,-0.04787980516959972
0.06742465753424653,-0.00272527974875692
0.06767465753424651,0.05737008128927651
0.06792465753424648,0.001922980221035721
0.06817465753424645,-0.04920787944668333
0.06842465753424654,0.006571240190828362
0.06867465753424651,0.0334647443017715
0.06892465753424648,-0.005381428302924144
0.06917465753424645,-0.01500996681178033
0.06942465753424654,0.01354363014551732
0.06967465753424651,0.03114061431687518
0.06992465753424648,-0.009697669703445882
0.07017465753424645,-0.008037576857091368
0.07042465753424654,0.0108874815913501
0.07067465753424651,-0.01932620821230207
0.07092465753424648,-0.02098630105865658
0.07117465753424645,0.01951996439239358
0.07142465753424654,0.01985198296166448
0.07167465753424651,-0.02928676529042916
0.07192465753424648,-0.02165033819719839
0.07217465753424646,0.04541741279552401
0.07242465753424654,0.02981254003979157
0.07267465753424651,-0.05186402800085056
0.07292465753424648,-0.03758722952220173
0.07317465753424646,0.07629513973771798
0.07342465753424654,0.03811300427156414
0.07367465753424651,-0.07676542069616828
0.07392465753424649,-0.03758722952220173
0.07417465753424646,0.0779552325840725
0.07442465753424654,0.04043713425646046
0.07467465753424651,-0.1013347948222151
0.07492465753424649,-0.04455961947689069
0.07517465753424646,0.1048487366950156
0.07542465753424654,0.05205778418094206
0.07567465753424651,-0.115279574731593
0.07592465753424649,-0.04289952663053618
0.07617465753424646,0.1201215908814772
0.07642465753424654,0.05106172847312936
0.07667465753424652,-0.1189317789935729
0.07692465753424649,-0.05086797229303785
0.07717465753424646,0.1360584822064805
0.07742465753424654,0.055709988442922
0.07767465753424652,-0.1272322432253455
0.07792465753424649,-0.05252806513939236
0.07817465753424646,0.1317422408059588
0.07842465753424654,0.0560420070121929
0.07867465753424652,-0.135864726026389
0.07892465753424649,-0.05518421369355959
0.07917465753424646,0.1407067421762732
0.07942465753424655,0.055709988442922
0.07967465753424652,-0.1242440761019074
0.07992465753424649,-0.05186402800085056
0.08017465753424646,0.1257659065590825
0.08042465753424655,0.05238980275021297
0.08067465753424652,-0.1239120575326365
0.08092465753424649,-0.05086797229303785
0.08117465753424646,0.1141452566346009
0.08142465753424655,0.04774154278042032
0.08167465753424652,-0.1010027762529442
0.08192465753424649,-0.04489163804616159
0.08217465753424646,0.1015285510023066
0.08242465753424655,0.04209722710281497
0.08267465753424652,-0.09004616346700439
0.08292465753424649,-0.04356356376907798
0.08317465753424647,0.06633458265959088
0.08342465753424655,0.03545685571739692
0.08367465753424652,-0.06514477077168668
0.08392465753424649,-0.0339350252602218
0.08417465753424647,0.04906961705750394
0.08442465753424655,0.03014455860906247
0.08467465753424652,-0.02131831962792749
0.08492465753424649,-0.02065428248938568
0.08517465753424647,0.0221761129465608
0.08542465753424655,0.02450024293145712
0.08567465753424652,0.002587017359577527
0.0859246575342465,-0.01401391110396762
0.08617465753424647,-0.01733409679667665
0.08642465753424655,0.008231333037182877
0.08667465753424652,0.03047657717833337
0.0869246575342465,-0.005713446872195047
0.08717465753424647,-0.05452017655501778
0.08742465753424655,-0.0004011497638605998
0.08767465753424653,0.06367843410542366
0.0879246575342465,0.01022344445280829
0.08817465753424647,-0.0807496435274191
0.08842465753424655,-0.008037576857091368
0.08867465753424653,0.1015285510023066
0.0889246575342465,0.01785987154603906
0.08917465753424647,-0.1093032404847168
0.08942465753424655,-0.02198235676646929
0.08967465753424653,0.1327382965137715
0.0899246575342465,0.02383620579291532
0.09017465753424647,-0.1395169302883689
0.09042465753424656,-0.03127887670605457
0.09067465753424653,0.1596318006247146
0.0909246575342465,0.03180465145541699
0.09117465753424647,-0.1707266757998338
0.09142465753424656,-0.03625915524511811
0.09167465753424653,0.175568691949718
0.0919246575342465,0.04143318996427317
0.09217465753424647,-0.2002763284649441
0.09242465753424656,-0.04356356376907798
0.09267465753424653,0.2024621960606611
0.0929246575342465,0.04641346850333671
0.09317465753424647,-0.2085767926967168
0.09342465753424656,-0.0452236566154325
0.09367465753424653,0.2276956073252497
0.0939246575342465,0.05205778418094206
0.09417465753424648,-0.2125610155279676
0.09442465753424645,-0.04987191658522513
0.09467465753424653,0.2273635887559788
0.0949246575342465,0.05238980275021297
0.09517465753424648,-0.2304900182685963
0.09542465753424645,-0.05418815798574687
0.09567465753424653,0.2296877187408751
0.0959246575342465,0.04973365419604574
0.09617465753424648,-0.2281658882837
0.09642465753424645,-0.05119999086230875
0.09667465753424653,0.2293557001716042
0.09692465753424651,0.05438191416583839
0.09717465753424648,-0.2105689041123421
