system_design/chorus/chorus_delay_10ms_test.csv

#Digilent WaveForms Oscilloscope Acquisition
#Device Name: Discovery2
#Serial Number: SN:210321B053D5
#Date Time: 2025-05-01 13:49:27.757
#Sample rate: 80000Hz
#Samples: 8192
#Trigger: Source: Channel 1 Type: Edge Condition: Rising Level: 0 V Hyst.: Auto HoldOff: 0 s
#Channel 1: Range: 200 mV/div Offset: 0 V Sample Mode: Average
#Channel 2: Range: 200 mV/div Offset: 0 V Sample Mode: Average
#Wavegen Channel 1: Running
#Mode: Simple
#Type: Pulse
#Frequency: 10 Hz
#Period: 100 ms
#Amplitude: 700 mV
#Offset: 0 V
#Symmetry: 1 %
#Phase: 0 °

Time (s),Channel 1 (V),Channel 2 (V)
0.9648061079545455,0.005243165913745354,-0.002906490571414491
0.9648186079545455,0.004911147344472337,-0.002906490571414491
0.9648311079545455,0.004579128775201434,-0.002906490571414491
0.9648436079545455,0.003915091636661138,-0.002906490571414491
0.9648561079545455,0.005243165913741731,-0.003238371051887443
0.9648686079545454,0.004579128775205964,-0.002906490571416
0.9648811079545455,0.003915091636663553,-0.002906490571414491
0.9648936079545455,0.005243165913744146,-0.002906490571414491
0.9649061079545455,0.004579128775204756,-0.002906490571414491
0.9649186079545455,0.006571240190817491,-0.002906490571415698
0.9649311079545455,0.003583073067392047,-0.003238371051887293
0.9649436079545455,0.004911147344472639,-0.002574610090941387
0.9649561079545455,0.004911147344473847,-0.002906490571413434
0.9649686079545455,0.004579128775202944,-0.002906490571414491
0.9649811079545455,0.004579128775202341,-0.002906490571414189
0.9649936079545455,0.003915091636662043,-0.002574610090941236
0.9650061079545454,0.005575184483009614,-0.002906490571413283
0.9650186079545455,0.004247110205936571,-0.002906490571414491
0.9650311079545455,0.005907203052285197,-0.00290649057141434
0.9650436079545455,0.002919035928853865,-0.002574610090941387
0.9650561079545454,0.006571240190813414,-0.002906490571413132
0.9650686079545455,0.003915091636664157,-0.002906490571415245
0.9650811079545455,0.00524316591374475,-0.003238371051888198
0.9650936079545455,0.003915091636664158,-0.002906490571415245
0.9651061079545455,0.004579128775208984,-0.002906490571414491
0.9651186079545455,0.005907203052282932,-0.002906490571414491
0.9651311079545455,0.003915091636662043,-0.002906490571414491
0.9651436079545455,0.006239221621551118,-0.002906490571414491
0.9651561079545455,0.003915091636666574,-0.00323837105188684
0.9651686079545455,0.005243165913742938,-0.002906490571414491
0.9651811079545455,0.004247110205932948,-0.002906490571414491
0.9651936079545455,0.004911147344471734,-0.002906490571414491
0.9652061079545455,0.004911147344472639,-0.002906490571415698
0.9652186079545455,0.004579128775202492,-0.003238371051888198
0.9652311079545455,0.004247110205932494,-0.003238371051888198
0.9652436079545454,0.003915091636662346,-0.002906490571415698
0.9652561079545455,0.006239221621551118,-0.003238371051887142
0.9652686079545455,0.004247110205934155,-0.002906490571414189
0.9652811079545455,0.006571240190824134,-0.002574610090941387
0.9652936079545454,0.002587017359593833,-0.002906490571413132
0.9653061079545455,0.006239221621552023,-0.002906490571414491
0.9653186079545455,0.004247110205932343,-0.002906490571414642
0.9653311079545455,0.004911147344472639,-0.003238371051887594
0.9653436079545454,0.00524316591374324,-0.002906490571416
0.9653561079545455,0.004247110205933552,-0.003238371051887443
0.9653686079545455,0.004911147344473847,-0.002906490571414491
0.9653811079545455,0.004247110205933552,-0.002906490571414491
0.9653936079545455,0.006239221621547946,-0.002906490571411774
0.9654061079545455,0.003915091636662346,-0.002242729610467679
0.9654186079545455,0.004579128775202643,-0.002574610090940632
0.9654311079545455,0.006239221621552929,-0.002906490571413585
0.9654436079545455,0.00358307306739869,-0.002906490571413283
0.9654561079545455,0.005907203052284291,-0.002574610090941236
0.9654686079545455,0.004247110205933552,-0.002906490571414189
0.9654811079545454,0.00524316591374158,-0.002906490571414491
0.9654936079545455,0.004579128775208229,-0.002574610090939726
0.9655061079545455,0.006239221621555043,-0.002242729610467377
0.9655186079545455,0.003583073067393859,-0.00257461009094033
0.9655311079545454,0.006239221621547796,-0.002242729610468282
0.9655436079545455,0.004579128775206568,-0.002574610090941688
0.9655561079545455,0.005907203052285801,-0.00290649057141434
0.9655686079545455,0.004247110205935061,-0.002574610090941387
0.9655811079545455,0.005907203052282027,-0.002574610090942292
0.9655936079545455,0.004911147344473093,-0.002906490571414491
0.9656061079545455,0.004579128775202944,-0.002906490571414491
0.9656186079545455,0.00690325876009398,-0.002906490571414491
0.9656311079545454,0.002919035928866548,-0.002574610090942292
0.9656436079545455,0.005907203052279308,-0.002906490571413887
0.9656561079545455,0.001922980221037532,-0.002574610090940934
0.9656686079545455,0.006571240190815679,-0.002906490571413585
0.9656811079545455,0.00424711020593325,-0.002906490571414491
0.9656936079545455,0.004579128775204304,-0.002906490571414943
0.9657061079545455,0.005575184483014747,-0.003238371051887896
0.9657186079545454,0.003583073067396577,-0.003238371051888198
0.9657311079545455,0.005907203052280215,-0.002906490571414491
0.9657436079545455,0.003915091636662648,-0.002906490571414793
0.9657561079545455,0.005575184483013388,-0.003238371051887745
0.9657686079545454,0.003915091636667177,-0.003238371051888198
0.9657811079545455,0.005907203052280215,-0.003238371051888198
0.9657936079545455,0.003583073067390235,-0.003238371051888047
0.9658061079545455,0.003583073067390235,-0.002906490571415094
0.9658186079545454,0.004911147344468412,-0.002906490571414491
0.9658311079545455,0.005907203052281271,-0.002906490571413736
0.9658436079545455,0.003583073067390235,-0.002574610090940783
0.9658561079545455,0.002919035928849939,-0.002574610090940783
0.9658686079545455,0.004579128775198415,-0.002574610090940783
0.9658811079545455,0.003583073067392047,-0.002574610090940783
0.9658936079545455,0.004579128775202492,-0.002574610090940783
0.9659061079545455,0.002919035928852959,-0.002574610090940783
0.9659186079545455,0.003583073067401106,-0.002574610090940783
0.9659311079545455,0.006239221621554741,-0.002574610090941688
0.9659436079545455,0.004247110205933853,-0.003238371051887594
0.9659561079545455,0.004579128775201887,-0.002906490571415547
0.9659686079545455,0.003915091636661138,-0.002906490571414491
0.9659811079545455,0.003915091636660232,-0.002906490571414491
0.9659936079545455,0.002919035928849788,-0.002906490571414491
0.9660061079545454,0.00557518448300599,-0.002906490571414491
0.9660186079545455,0.004247110205932042,-0.002906490571415547
0.9660311079545455,0.004247110205931891,-0.003238371051887745
0.9660436079545455,0.003915091636661741,-0.002242729610468886
0.9660561079545454,0.004247110205930682,-0.002906490571411774
0.9660686079545455,0.003915091636663855,-0.002574610090941688
0.9660811079545455,0.004911147344473847,-0.002906490571414491
0.9660936079545455,0.004911147344473847,-0.002574610090941537
0.9661061079545454,0.002919035928857489,-0.002906490571412981
0.9661186079545455,0.004911147344472337,-0.002574610090940028
0.9661311079545455,0.004247110205932042,-0.002242729610467075
0.9661436079545455,0.004911147344472035,-0.002574610090939877
0.9661561079545455,0.004579128775198868,-0.002906490571413132
0.9661686079545455,0.003583073067390839,-0.00257461009094199
0.9661811079545455,0.003915091636660987,-0.003238371051887896
0.9661936079545455,0.003915091636661138,-0.002906490571415547
0.9662061079545455,0.003583073067392651,-0.002906490571413283
0.9662186079545455,0.004247110205931589,-0.002574610090941236
0.9662311079545455,0.00391509163666144,-0.002906490571414189
0.9662436079545454,0.003583073067391443,-0.002906490571414491
0.9662561079545455,0.005575184483005084,-0.002906490571413434
0.9662686079545455,0.002254998790309342,-0.002574610090941085
0.9662811079545455,0.005243165913740674,-0.002906490571414038
0.9662936079545454,0.00258701735958719,-0.002906490571414491
0.9663061079545455,0.005907203052280215,-0.002906490571414491
0.9663186079545455,0.003583073067390235,-0.002906490571414642
0.9663311079545455,0.003583073067390235,-0.003238371051887594
0.9663436079545455,0.005243165913734181,-0.003238371051888198
0.9663561079545455,0.002919035928854469,-0.003238371051887443
0.9663686079545455,0.005575184483015653,-0.002906490571414491
0.9663811079545455,0.003583073067394765,-0.002574610090941537
0.9663936079545455,0.006239221621542512,-0.002906490571414491
0.9664061079545455,0.002587017359582962,-0.002906490571414491
0.9664186079545455,0.005575184483014294,-0.002906490571414491
0.9664311079545455,0.003915091636665667,-0.002574610090941688
0.9664436079545455,0.004247110205934457,-0.002574610090940783
0.9664561079545455,0.004911147344471583,-0.002574610090941236
0.9664686079545455,0.003251054498120842,-0.002906490571414189
0.9664811079545454,0.004579128775198717,-0.003238371051887142
0.9664936079545455,0.005907203052278101,-0.003238371051887142
0.9665061079545455,0.003251054498120238,-0.002906490571414793
0.9665186079545455,0.004247110205930682,-0.003238371051887745
0.9665311079545454,0.005243165913741126,-0.002906490571415698
0.9665436079545455,0.00391509163666295,-0.002906490571414491
0.9665561079545455,0.004579128775203095,-0.002906490571414491
0.9665686079545455,0.004911147344473244,-0.002906490571414491
0.9665811079545454,0.003251054498126127,-0.002574610090942141
0.9665936079545455,0.005907203052282027,-0.002906490571413736
0.9666061079545455,0.003915091636661138,-0.002574610090940783
0.9666186079545455,0.00358307306739099,-0.002574610090940783
0.9666311079545455,0.004911147344469771,-0.002574610090942141
0.9666436079545455,0.003915091636663553,-0.002906490571415094
0.9666561079545455,0.005243165913744146,-0.003238371051888047
0.9666686079545455,0.003251054498124768,-0.003238371051888198
0.9666811079545455,0.005243165913738711,-0.003238371051888198
0.9666936079545455,0.003583073067392047,-0.003238371051887745
0.9667061079545455,0.004911147344472639,-0.002906490571414793
0.9667186079545455,0.004247110205934155,-0.002906490571414491
0.9667311079545455,0.004247110205932042,-0.002906490571414491
0.9667436079545455,0.00424711020593325,-0.002906490571414793
0.9667561079545455,0.005575184483013841,-0.003238371051887745
0.9667686079545454,0.003251054498127787,-0.003238371051888198
0.9667811079545455,0.004579128775205662,-0.003238371051888198
0.9667936079545455,0.005575184483014748,-0.003238371051887896
0.9668061079545455,0.003583073067393859,-0.00257461009094199
0.9668186079545454,0.004911147344468412,-0.002906490571413132
0.9668311079545455,0.004579128775204756,-0.002906490571414491
0.9668436079545455,0.00524316591374475,-0.002906490571414491
0.9668561079545455,0.003915091636664158,-0.003238371051887443
0.9668686079545454,0.005243165913738711,-0.003238371051888198
0.9668811079545455,0.004247110205931287,-0.002906490571414491
0.9668936079545455,0.003915091636661289,-0.002906490571414491
0.9669061079545455,0.00491114734447113,-0.002574610090941688
0.9669186079545455,0.003915091636665214,-0.002906490571413132
0.9669311079545455,0.004911147344470223,-0.002574610090941387
0.9669436079545455,0.002919035928850241,-0.002906490571414189
0.9669561079545455,0.00623922162154689,-0.002906490571414491
0.9669686079545455,0.003583073067397483,-0.002906490571413283
0.9669811079545455,0.005575184483012482,-0.002574610090941688
0.9669936079545455,0.003251054498122503,-0.003238371051887293
0.9670061079545454,0.005243165913737503,-0.003238371051888198
0.9670186079545455,0.003915091636662195,-0.002906490571415547
0.9670311079545455,0.004247110205932343,-0.003238371051887594
0.9670436079545455,0.004579128775202341,-0.00257461009094199
0.9670561079545454,0.003915091636663855,-0.002906490571413132
0.9670686079545455,0.004911147344470223,-0.002906490571414491
0.9670811079545455,0.00358307306739099,-0.00290649057141434
0.9670936079545455,0.005243165913741731,-0.002574610090941387
0.9671061079545455,0.003583073067399294,-0.002574610090943801
0.9671186079545455,0.005575184483011878,-0.003238371051887443
0.9671311079545455,0.003915091636661138,-0.002906490571414491
0.9671436079545455,0.004911147344471583,-0.002906490571414491
0.9671561079545455,0.004911147344472488,-0.002574610090940783
0.9671686079545455,0.004579128775201736,-0.002574610090940783
0.9671811079545455,0.00391509163666144,-0.002574610090940783
0.9671936079545455,0.003583073067391141,-0.002906490571413585
0.9672061079545455,0.004911147344471432,-0.002574610090940783
0.9672186079545455,0.004247110205932947,-0.002574610090941236
0.9672311079545455,0.004911147344473244,-0.002906490571414189
0.9672436079545454,0.004247110205934155,-0.003238371051887142
0.9672561079545455,0.004579128775198717,-0.003238371051888198
0.9672686079545455,0.00325105449812054,-0.003238371051888198
0.9672811079545455,0.004579128775201132,-0.003238371051888198
0.9672936079545454,0.003583073067393859,-0.003570251532360698
0.9673061079545455,0.005575184483012029,-0.003238371051887293
0.9673186079545455,0.004247110205932494,-0.002906490571414642
0.9673311079545455,0.005243165913742938,-0.003238371051887594
0.9673436079545454,0.004247110205936118,-0.002906490571415849
0.9673561079545455,0.002919035928853714,-0.00224272961046783
0.9673686079545455,0.00524316591374475,-0.002574610090940783
0.9673811079545455,0.00358307306739401,-0.00224272961046783
0.9673936079545455,0.006571240190813414,-0.002574610090942141
0.9674061079545455,0.002919035928852657,-0.002906490571413887
0.9674186079545455,0.005243165913743693,-0.002574610090940934
0.9674311079545455,0.002254998790314777,-0.002574610090940783
0.9674436079545455,0.006571240190818698,-0.002906490571414491
0.9674561079545455,0.003915091636663402,-0.002906490571414038
0.9674686079545455,0.005575184483014143,-0.002574610090941085
0.9674811079545454,0.004579128775206115,-0.002906490571413434
0.9674936079545455,0.004247110205933099,-0.002906490571414491
0.9675061079545455,0.004579128775202341,-0.002906490571414491
0.9675186079545455,0.003915091636662043,-0.002906490571414491
0.9675311079545454,0.004579128775200529,-0.002906490571414491
0.9675436079545455,0.004247110205935665,-0.002906490571414491
0.9675561079545455,0.005575184483014898,-0.002906490571414491
0.9675686079545455,0.003915091636664158,-0.002906490571414491
0.9675811079545454,0.004911147344469771,-0.002906490571414491
0.9675936079545455,0.004579128775202944,-0.002906490571414491
0.9676061079545455,0.004579128775202944,-0.002906490571414491
0.9676186079545455,0.005907203052283537,-0.002574610090941537
0.9676311079545454,0.003251054498131411,-0.002906490571412981
0.9676436079545455,0.005575184483014445,-0.002574610090940783
0.9676561079545455,0.004911147344474149,-0.002574610090940783
0.9676686079545455,0.004911147344473847,-0.002574610090940783
0.9676811079545455,0.004579128775202944,-0.002574610090940783
0.9676936079545455,0.004579128775202492,-0.002574610090940783
0.9677061079545455,0.004247110205932343,-0.002574610090940783
0.9677186079545455,0.003915091636662194,-0.002906490571413434
0.9677311079545455,0.004911147344470223,-0.002906490571415698
0.9677436079545455,0.003915091636661741,-0.003238371051887896
0.9677561079545455,0.004579128775202038,-0.002906490571414943
0.9677686079545454,0.005575184483012029,-0.002906490571414491
0.9677811079545455,0.003915091636661138,-0.002574610090939726
0.9677936079545455,0.003915091636660836,-0.002242729610467377
0.9678061079545455,0.003583073067390839,-0.002574610090940179
0.9678186079545454,0.0055751844830075,-0.002574610090940783
0.9678311079545455,0.003251054498123862,-0.002574610090941688
0.9678436079545455,0.004911147344473696,-0.00290649057141434
0.9678561079545455,0.004579128775203699,-0.002574610090941537
0.9678686079545455,0.004579128775202944,-0.002574610090942292
0.9678811079545455,0.00457912877519917,-0.002906490571413736
0.9678936079545455,0.00291903592884843,-0.002574610090940783
0.9679061079545455,0.004911147344468412,-0.002906490571413585
0.9679186079545455,0.003251054498124768,-0.002906490571413132
0.9679311079545455,0.004579128775201132,-0.002574610090940783
0.9679436079545455,0.003583073067390689,-0.002574610090940783
0.9679561079545455,0.005243165913739465,-0.002574610090940783
0.9679686079545455,0.004579128775200529,-0.002574610090940783
0.9679811079545455,0.003915091636662043,-0.002574610090940783
0.9679936079545455,0.004579128775202341,-0.002574610090940783
0.9680061079545454,0.003583073067393859,-0.002574610090940783
0.9680186079545455,0.005575184483009312,-0.002906490571413434
0.9680311079545455,0.003583073067390537,-0.002574610090941085
0.9680436079545455,0.003915091636660685,-0.002906490571414038
0.9680561079545454,0.003251054498121748,-0.00257461009094199
0.9680686079545455,0.004247110205932947,-0.002574610090941688
0.9680811079545455,0.004579128775202793,-0.002906490571414793
0.9680936079545455,0.004247110205932645,-0.003570251532360698
0.9681061079545454,0.00491114734447113,-0.002906490571417207
0.9681186079545455,0.003915091636662648,-0.002906490571414491
0.9681311079545455,0.004579128775202944,-0.002906490571414491
0.9681436079545455,0.004579128775202944,-0.002574610090941537
0.9681561079545455,0.004911147344465694,-0.00323837105188684
0.9681686079545455,0.002919035928852657,-0.002906490571414491
0.9681811079545455,0.005243165913743693,-0.002906490571414491
0.9681936079545455,0.004579128775204756,-0.002906490571414491
0.9682061079545455,0.004579128775200529,-0.002906490571413283
0.9682186079545455,0.003915091636661138,-0.002574610090941236
0.9682311079545455,0.003915091636661138,-0.002906490571414189
0.9682436079545454,0.003915091636661138,-0.002906490571414491
0.9682561079545455,0.004911147344471734,-0.002906490571413434
0.9682686079545455,0.00424711020593174,-0.002574610090941387
0.9682811079545455,0.003915091636661591,-0.003238371051887293
0.9682936079545454,0.003915091636661138,-0.002574610090943198
0.9683061079545455,0.003915091636665667,-0.002574610090941688
0.9683186079545455,0.005575184483014143,-0.002906490571414642
0.9683311079545455,0.002254998790312663,-0.003238371051887594
0.9683436079545455,0.005907203052280516,-0.002906490571416
0.9683561079545455,0.004579128775199925,-0.003238371051888198
0.9683686079545455,0.003251054498119332,-0.003238371051888198
0.9683811079545455,0.006239221621550665,-0.003238371051888198
0.9683936079545454,0.003583073067402314,-0.003570251532360397
0.9684061079545455,0.004579128775202944,-0.002906490571415094
0.9684186079545455,0.004579128775202944,-0.003238371051888047
0.9684311079545455,0.004911147344472942,-0.002906490571415396
0.9684436079545455,0.003583073067395067,-0.002906490571414491
0.9684561079545455,0.004911147344472035,-0.002906490571414491
0.9684686079545455,0.003583073067391443,-0.002906490571414491
0.9684811079545455,0.005243165913739465,-0.003238371051887142
0.9684936079545455,0.003583073067396577,-0.002906490571414491
0.9685061079545455,0.005575184483014445,-0.002906490571414491
0.9685186079545455,0.004247110205933853,-0.002906490571414491
0.9685311079545454,0.003915091636662346,-0.00257461009094199
0.9685436079545455,0.005243165913741126,-0.002574610090940783
0.9685561079545455,0.003915091636662043,-0.002574610090940934
0.9685686079545455,0.005907203052282932,-0.002906490571413887
0.9685811079545454,0.003583073067399747,-0.002574610090942141
0.9685936079545455,0.004911147344472035,-0.002906490571414491
0.9686061079545455,0.004247110205932042,-0.002906490571414491
0.9686186079545455,0.00457912877520219,-0.002906490571414491
0.9686311079545455,0.004247110205935061,-0.002574610090942292
0.9686436079545455,0.004911147344473093,-0.002906490571414491
0.9686561079545455,0.004579128775203095,-0.002906490571414491
0.9686686079545455,0.003251054498122956,-0.002574610090941688
0.9686811079545455,0.006239221621546588,-0.002906490571413132
0.9686936079545455,0.003583073067394463,-0.002574610090940783
0.9687061079545455,0.005907203052284442,-0.002574610090940783
0.9687186079545455,0.003915091636667479,-0.002574610090940783
