guitar_measurement/bridge_hard.csv

#Digilent WaveForms Oscilloscope Acquisition
#Device Name: Discovery2
#Serial Number: SN:210321B053D5
#Date Time: 2025-02-11 09:31:42.746
#Sample rate: 40000Hz
#Samples: 8192
#Trigger: Source: Channel 1 Type: Edge Condition: Rising Level: 50 mV Hyst.: Auto HoldOff: 100 ns
#Channel 1: Range: 500 mV/div Offset: 0 V Attenuation: 1 X Sample Mode: Average

Time (s),Channel 1 (V)
-0.1023923611111111,-0.0009097832415225584
-0.1023673611111111,-0.0009097832415225584
-0.1023423611111111,-0.0009097832415225584
-0.1023173611111111,-0.0009097832415225584
-0.1022923611111111,-0.0009097832415225584
-0.1022673611111111,-0.0009097832415225584
-0.1022423611111111,-0.0005777697384531198
-0.1022173611111111,-0.0009097832415225584
-0.1021923611111111,-0.0009097832415225584
-0.1021673611111111,-0.0009097832415225584
-0.1021423611111111,-0.0009097832415225584
-0.1021173611111111,-0.0009097832415225584
-0.1020923611111111,-0.0009097832415225584
-0.1020673611111111,-0.0005777697384529688
-0.1020423611111111,-0.0005777697384529688
-0.1020173611111111,-0.0002457562353833792
-0.1019923611111111,-0.0005777697384529688
-0.1019673611111111,-0.0005777697384529688
-0.1019423611111111,-0.0005777697384529688
-0.1019173611111111,-0.0002457562353833792
-0.1018923611111111,-0.0005777697384529688
-0.1018673611111111,-0.0005777697384529688
-0.1018423611111111,-0.0005777697384529688
-0.1018173611111111,-0.0005777697384529688
-0.1017923611111111,-0.0005777697384529688
-0.1017673611111111,-0.0005777697384529688
-0.1017423611111111,-0.0005777697384529688
-0.1017173611111111,-0.0005777697384529688
-0.1016923611111111,-0.0005777697384529688
-0.1016673611111111,-0.0002457562353833792
-0.1016423611111111,-0.0005777697384529688
-0.1016173611111111,-0.0005777697384528178
-0.1015923611111111,-0.0002457562353833792
-0.1015673611111111,-0.0005777697384529688
-0.1015423611111111,-0.0002457562353833792
-0.1015173611111111,-0.0002457562353833792
-0.1014923611111111,-0.0005777697384528179
-0.1014673611111111,-0.0005777697384529688
-0.1014423611111111,-0.0005777697384529688
-0.1014173611111111,-0.0005777697384529688
-0.1013923611111111,-0.0005777697384529688
-0.1013673611111111,-0.0005777697384529688
-0.1013423611111111,-0.0005777697384529688
-0.1013173611111111,-0.0009097832415225584
-0.1012923611111111,-0.0005777697384529688
-0.1012673611111111,-0.0002457562353833792
-0.1012423611111111,-0.0005777697384528179
-0.1012173611111111,-0.0005777697384529688
-0.1011923611111111,-0.0005777697384529688
-0.1011673611111111,-0.0005777697384529688
-0.1011423611111111,-0.0005777697384529688
-0.1011173611111111,-0.0005777697384529688
-0.1010923611111111,-0.0005777697384529688
-0.1010673611111111,-0.0005777697384529688
-0.1010423611111111,-0.0005777697384529688
-0.1010173611111111,-0.0005777697384529688
-0.1009923611111111,-0.0005777697384529688
-0.1009673611111111,-0.0002457562353833792
-0.1009423611111111,-0.0005777697384529688
-0.1009173611111111,-0.0002457562353833792
-0.1008923611111111,-0.0005777697384529688
-0.1008673611111111,-0.0005777697384529688
-0.1008423611111111,-0.0005777697384529688
-0.1008173611111111,-0.0005777697384529688
-0.1007923611111111,-0.0002457562353833792
-0.1007673611111111,-0.0005777697384529688
-0.1007423611111111,-0.0005777697384529688
-0.1007173611111111,-0.0005777697384529688
-0.1006923611111111,-0.0005777697384529688
-0.1006673611111111,-0.0005777697384529688
-0.1006423611111111,-0.0005777697384529688
-0.1006173611111111,-0.0005777697384529688
-0.1005923611111111,-0.0005777697384529688
-0.1005673611111111,-0.0005777697384529688
-0.1005423611111111,-0.0005777697384529688
-0.1005173611111111,-0.0009097832415225584
-0.1004923611111111,-0.0009097832415225584
-0.1004673611111111,-0.0009097832415225584
-0.1004423611111111,-0.0009097832415225584
-0.1004173611111111,-0.0009097832415225584
-0.1003923611111111,-0.0009097832415225584
-0.1003673611111111,-0.0009097832415225584
-0.1003423611111111,-0.001241796744592148
-0.1003173611111111,-0.0009097832415225584
-0.1002923611111111,-0.0009097832415225584
-0.1002673611111111,-0.0009097832415225584
-0.1002423611111111,-0.0009097832415225584
-0.1002173611111111,-0.0009097832415225584
-0.1001923611111111,-0.0009097832415225584
-0.1001673611111111,-0.0009097832415225584
-0.1001423611111111,-0.0009097832415225584
-0.1001173611111111,-0.0009097832415225584
-0.1000923611111111,-0.0009097832415225584
-0.1000673611111111,-0.0009097832415225584
-0.1000423611111111,-0.0009097832415225584
-0.1000173611111111,-0.0009097832415225584
-0.09999236111111112,-0.0009097832415225584
-0.09996736111111111,-0.0009097832415225584
-0.09994236111111111,-0.0009097832415225584
-0.09991736111111112,-0.0009097832415225584
-0.09989236111111112,-0.0009097832415225584
-0.09986736111111112,-0.0009097832415225584
-0.09984236111111111,-0.0009097832415225584
-0.09981736111111111,-0.0009097832415225584
-0.09979236111111112,-0.0009097832415225584
-0.09976736111111112,-0.0009097832415225584
-0.09974236111111112,-0.0009097832415225584
-0.09971736111111111,-0.0009097832415225584
-0.09969236111111111,-0.0009097832415225584
-0.09966736111111112,-0.0009097832415225584
-0.09964236111111112,-0.0009097832415225584
-0.09961736111111112,-0.0009097832415225584
-0.09959236111111111,-0.0009097832415225584
-0.09956736111111111,-0.0009097832415225584
-0.09954236111111112,-0.0009097832415225584
-0.09951736111111112,-0.0009097832415225584
-0.09949236111111112,-0.0009097832415225584
-0.09946736111111111,-0.0009097832415224074
-0.09944236111111111,-0.0005777697384529688
-0.09941736111111112,-0.0009097832415225584
-0.09939236111111112,-0.0005777697384529688
-0.09936736111111112,-0.0005777697384529688
-0.09934236111111111,-0.0005777697384529688
-0.09931736111111111,-0.0005777697384529688
-0.09929236111111112,-0.0009097832415225584
-0.09926736111111112,-0.0009097832415225584
-0.09924236111111112,-0.0009097832415225584
-0.09921736111111111,-0.0009097832415225584
-0.09919236111111111,-0.0009097832415225584
-0.09916736111111112,-0.0009097832415225584
-0.09914236111111112,-0.0005777697384529688
-0.09911736111111112,-0.0009097832415225584
-0.09909236111111111,-0.0005777697384529688
-0.09906736111111111,-0.0005777697384529688
-0.09904236111111112,-0.0005777697384529688
-0.09901736111111112,-0.0009097832415225584
-0.09899236111111112,-0.0009097832415225584
-0.09896736111111111,-0.0005777697384529688
-0.09894236111111111,-0.0005777697384529688
-0.09891736111111112,-0.0005777697384529688
-0.09889236111111112,-0.0005777697384529688
-0.09886736111111112,-0.0009097832415225584
-0.09884236111111111,-0.0005777697384529688
-0.09881736111111111,-0.0005777697384529688
-0.09879236111111112,-0.0009097832415225584
-0.09876736111111112,-0.0009097832415225584
-0.09874236111111112,-0.0005777697384529688
-0.09871736111111111,-0.0005777697384529688
-0.09869236111111111,-0.0005777697384529688
-0.09866736111111112,-0.0005777697384529688
-0.09864236111111112,-0.0009097832415225584
-0.09861736111111112,-0.0009097832415225584
-0.09859236111111111,-0.0005777697384531198
-0.09856736111111111,-0.0009097832415225584
-0.09854236111111112,-0.0009097832415225584
-0.09851736111111112,-0.0009097832415225584
-0.09849236111111112,-0.0009097832415225584
-0.09846736111111111,-0.0005777697384531198
-0.09844236111111111,-0.0009097832415225584
-0.09841736111111112,-0.0009097832415225584
-0.09839236111111112,-0.0009097832415225584
-0.09836736111111112,-0.0009097832415225584
-0.09834236111111112,-0.0009097832415225584
-0.09831736111111111,-0.0005777697384529688
-0.09829236111111112,-0.0009097832415225584
-0.09826736111111112,-0.0009097832415225584
-0.09824236111111112,-0.0009097832415225584
-0.09821736111111112,-0.0005777697384531197
-0.09819236111111111,-0.0009097832415225584
-0.09816736111111111,-0.0009097832415225584
-0.09814236111111112,-0.0009097832415225584
-0.09811736111111112,-0.0009097832415225584
-0.09809236111111112,-0.0005777697384531197
-0.09806736111111111,-0.0009097832415225584
-0.09804236111111111,-0.0009097832415225584
-0.09801736111111112,-0.0009097832415225584
-0.09799236111111112,-0.0009097832415225584
-0.09796736111111112,-0.0009097832415225584
-0.09794236111111111,-0.0009097832415225584
-0.09791736111111111,-0.0009097832415225584
-0.09789236111111112,-0.0009097832415225584
-0.09786736111111112,-0.0009097832415225584
-0.09784236111111112,-0.0009097832415225584
-0.09781736111111111,-0.0009097832415225584
-0.09779236111111111,-0.0009097832415225584
-0.09776736111111112,-0.0009097832415225584
-0.09774236111111112,-0.0009097832415225584
-0.09771736111111112,-0.0009097832415225584
-0.09769236111111111,-0.001241796744592148
-0.09766736111111111,-0.0009097832415225584
-0.09764236111111112,-0.0009097832415225584
-0.09761736111111112,-0.0009097832415225584
-0.09759236111111112,-0.001241796744591997
-0.09756736111111111,-0.0009097832415225584
-0.09754236111111111,-0.0009097832415225584
-0.09751736111111112,-0.0009097832415225584
-0.09749236111111112,-0.0009097832415225584
-0.09746736111111112,-0.0009097832415225584
-0.09744236111111111,-0.0009097832415225584
-0.09741736111111111,-0.0009097832415225584
-0.09739236111111112,-0.0009097832415225584
-0.09736736111111112,-0.0009097832415225584
-0.09734236111111112,-0.0009097832415225584
-0.09731736111111111,-0.0009097832415225584
-0.09729236111111111,-0.0009097832415225584
-0.09726736111111112,-0.0009097832415225584
-0.09724236111111112,-0.0009097832415225584
-0.09721736111111112,-0.0009097832415225584
-0.09719236111111111,-0.0009097832415225584
-0.09716736111111111,-0.0009097832415225584
-0.09714236111111112,-0.0005777697384529688
-0.09711736111111112,-0.0005777697384529688
-0.09709236111111112,-0.0005777697384529688
-0.09706736111111111,-0.0009097832415225584
-0.09704236111111111,-0.0009097832415225584
-0.09701736111111112,-0.0009097832415225584
-0.09699236111111112,-0.0009097832415225584
-0.09696736111111112,-0.0009097832415225584
-0.09694236111111111,-0.0005777697384529688
-0.09691736111111111,-0.0005777697384529688
-0.09689236111111112,-0.0005777697384529688
-0.09686736111111112,-0.0005777697384529688
-0.09684236111111112,-0.0005777697384529688
-0.09681736111111111,-0.0005777697384529688
-0.09679236111111111,-0.0005777697384529688
-0.09676736111111112,-0.0009097832415225584
-0.09674236111111112,-0.0005777697384529688
-0.09671736111111112,-0.0005777697384529688
-0.09669236111111111,-0.0005777697384529688
-0.09666736111111111,-0.0005777697384529688
-0.09664236111111112,-0.0009097832415225584
-0.09661736111111112,-0.0005777697384529688
-0.09659236111111112,-0.0009097832415225584
-0.09656736111111111,-0.0009097832415225584
-0.09654236111111111,-0.0009097832415225584
-0.09651736111111112,-0.0005777697384529688
-0.09649236111111112,-0.0009097832415225584
-0.09646736111111112,-0.0005777697384529688
-0.09644236111111111,-0.0005777697384529688
-0.09641736111111111,-0.0005777697384529688
-0.09639236111111112,-0.0005777697384529688
-0.09636736111111112,-0.0005777697384529688
-0.09634236111111112,-0.0005777697384529688
-0.09631736111111111,-0.0005777697384529688
-0.09629236111111111,-0.0005777697384529688
-0.09626736111111112,-0.0005777697384529688
-0.09624236111111112,-0.0005777697384529688
-0.09621736111111112,-0.0009097832415225584
-0.09619236111111111,-0.0009097832415224074
-0.09616736111111111,-0.0005777697384529688
-0.09614236111111112,-0.0005777697384529688
-0.09611736111111112,-0.0009097832415225584
-0.09609236111111112,-0.0009097832415225584
-0.09606736111111111,-0.0005777697384529688
-0.09604236111111111,-0.0005777697384529688
-0.09601736111111112,-0.0009097832415225584
-0.09599236111111112,-0.0009097832415225584
-0.09596736111111112,-0.0009097832415225584
-0.09594236111111111,-0.0009097832415225584
-0.09591736111111111,-0.0009097832415225584
-0.09589236111111112,-0.0005777697384529688
-0.09586736111111112,-0.0009097832415225584
-0.09584236111111112,-0.0009097832415225584
-0.09581736111111111,-0.0009097832415225584
-0.09579236111111111,-0.0009097832415225584
-0.09576736111111112,-0.0009097832415225584
-0.09574236111111112,-0.0009097832415225584
-0.09571736111111112,-0.0005777697384529688
-0.09569236111111111,-0.0009097832415225584
-0.09566736111111111,-0.0009097832415225584
-0.09564236111111112,-0.0009097832415225584
-0.09561736111111112,-0.0009097832415225584
-0.09559236111111112,-0.0005777697384529688
-0.09556736111111111,-0.0005777697384529688
-0.09554236111111111,-0.0005777697384529688
-0.09551736111111112,-0.0005777697384529688
-0.09549236111111112,-0.0005777697384529688
-0.09546736111111112,-0.0005777697384529688
-0.09544236111111111,-0.0005777697384529688
-0.09541736111111111,-0.0005777697384529688
-0.09539236111111112,-0.0005777697384529688
-0.09536736111111112,-0.0005777697384529688
-0.09534236111111112,-0.0005777697384529688
-0.09531736111111111,-0.0005777697384529688
-0.09529236111111111,-0.0005777697384529688
-0.09526736111111112,-0.0005777697384529688
-0.09524236111111112,-0.0005777697384529688
-0.09521736111111112,-0.0005777697384529688
-0.09519236111111112,-0.0005777697384529688
-0.09516736111111111,-0.0005777697384529688
-0.09514236111111112,-0.0005777697384529688
-0.09511736111111112,-0.0009097832415225584
-0.09509236111111112,-0.0009097832415225584
-0.09506736111111112,-0.0009097832415225584
-0.09504236111111111,-0.0005777697384529688
-0.09501736111111111,-0.0005777697384529688
-0.09499236111111112,-0.0005777697384529688
-0.09496736111111112,-0.0005777697384529688
-0.09494236111111112,-0.0005777697384529688
-0.09491736111111111,-0.0009097832415225584
-0.09489236111111111,-0.0005777697384529688
-0.09486736111111112,-0.0009097832415225584
-0.09484236111111112,-0.0005777697384529688
-0.09481736111111112,-0.0005777697384529688
-0.09479236111111111,-0.0005777697384529688
-0.09476736111111111,-0.0005777697384529688
-0.09474236111111112,-0.0005777697384529688
-0.09471736111111112,-0.0005777697384529688
-0.09469236111111112,-0.0005777697384529688
-0.09466736111111111,-0.0005777697384529688
-0.09464236111111111,-0.0009097832415225584
-0.09461736111111112,-0.0005777697384529688
-0.09459236111111112,-0.0009097832415225584
-0.09456736111111112,-0.0005777697384531197
-0.09454236111111111,-0.0005777697384529688
-0.09451736111111111,-0.0005777697384529688
-0.09449236111111112,-0.0005777697384529688
-0.09446736111111112,-0.0005777697384529688
-0.09444236111111112,-0.0005777697384529688
-0.09441736111111111,-0.0005777697384529688
-0.09439236111111111,-0.0002457562353833792
-0.09436736111111112,-0.0005777697384529688
-0.09434236111111112,-0.0005777697384529688
-0.09431736111111112,-0.0005777697384529688
-0.09429236111111111,-0.0005777697384529688
-0.09426736111111111,-0.0005777697384529688
-0.09424236111111112,-0.0005777697384529688
-0.09421736111111112,-0.0005777697384529688
-0.09419236111111112,-0.0005777697384529688
-0.09416736111111111,-0.0005777697384529688
-0.09414236111111111,-0.0009097832415225584
-0.09411736111111112,-0.0005777697384529688
-0.09409236111111112,-0.0009097832415225584
-0.09406736111111112,-0.0005777697384531197
-0.09404236111111111,-0.0005777697384529688
-0.09401736111111111,-0.0005777697384529688
-0.09399236111111112,-0.0009097832415225584
-0.09396736111111112,-0.0005777697384529688
-0.09394236111111112,-0.0009097832415224075
-0.09391736111111111,-0.0009097832415225584
-0.09389236111111111,-0.0009097832415225584
-0.09386736111111112,-0.0009097832415225584
-0.09384236111111112,-0.0009097832415225584
-0.09381736111111112,-0.0009097832415225584
-0.09379236111111111,-0.0009097832415225584
-0.09376736111111111,-0.0009097832415225584
-0.09374236111111112,-0.0009097832415225584
-0.09371736111111112,-0.0009097832415225584
-0.09369236111111112,-0.0009097832415225584
-0.09366736111111111,-0.0009097832415225584
-0.09364236111111111,-0.001241796744592148
-0.09361736111111112,-0.0009097832415225584
-0.09359236111111112,-0.0009097832415225584
-0.09356736111111112,-0.0009097832415225584
-0.09354236111111111,-0.0009097832415225584
-0.09351736111111111,-0.0009097832415225584
-0.09349236111111112,-0.0009097832415225584
-0.09346736111111112,-0.0009097832415225584
-0.09344236111111112,-0.0009097832415225584
-0.09341736111111111,-0.0009097832415227094
-0.09339236111111111,-0.001241796744592148
-0.09336736111111112,-0.0009097832415225584
-0.09334236111111112,-0.001241796744592148
-0.09331736111111112,-0.001241796744592148
-0.09329236111111111,-0.001241796744591997
-0.09326736111111111,-0.0009097832415225584
-0.09324236111111112,-0.001241796744592148
-0.09321736111111112,-0.0009097832415225584
-0.09319236111111112,-0.001241796744592148
-0.09316736111111111,-0.0009097832415227094
-0.09314236111111111,-0.001241796744592148
-0.09311736111111112,-0.001241796744592148
-0.09309236111111112,-0.0009097832415225584
-0.09306736111111112,-0.0009097832415225584
-0.09304236111111111,-0.0009097832415227094
-0.09301736111111111,-0.001241796744592148
-0.09299236111111112,-0.001241796744592148
-0.09296736111111112,-0.0009097832415225584
-0.09294236111111112,-0.001241796744592148
-0.09291736111111111,-0.001241796744591997
-0.09289236111111111,-0.0009097832415225584
-0.09286736111111112,-0.0009097832415225584
-0.09284236111111112,-0.0009097832415225584
-0.09281736111111112,-0.0009097832415225584
-0.09279236111111111,-0.001241796744591997
-0.09276736111111111,-0.0009097832415225584
-0.09274236111111112,-0.0009097832415225584
-0.09271736111111112,-0.0009097832415225584
-0.09269236111111112,-0.0009097832415225584
-0.09266736111111111,-0.0009097832415225584
-0.09264236111111111,-0.0009097832415225584
-0.09261736111111112,-0.0009097832415225584
-0.09259236111111112,-0.0009097832415225584
-0.09256736111111112,-0.0005777697384529688
-0.09254236111111111,-0.0009097832415225584
-0.09251736111111111,-0.0009097832415225584
-0.09249236111111112,-0.0005777697384529688
-0.09246736111111112,-0.0009097832415225584
-0.09244236111111112,-0.0009097832415225584
-0.09241736111111111,-0.0009097832415224074
-0.09239236111111111,-0.0005777697384529688
-0.09236736111111112,-0.0009097832415225584
-0.09234236111111112,-0.0009097832415225584
-0.09231736111111112,-0.0005777697384529688
-0.09229236111111111,-0.0009097832415224074
-0.09226736111111111,-0.0005777697384529688
-0.09224236111111112,-0.0005777697384529688
-0.09221736111111112,-0.0005777697384529688
-0.09219236111111112,-0.0005777697384529688
-0.09216736111111112,-0.0005777697384529688
-0.09214236111111111,-0.0005777697384529688
-0.09211736111111112,-0.0005777697384529688
-0.09209236111111112,-0.0005777697384529688
-0.09206736111111112,-0.0005777697384529688
-0.09204236111111112,-0.0005777697384529688
-0.09201736111111111,-0.0005777697384529688
-0.09199236111111112,-0.0005777697384529688
-0.09196736111111112,-0.0005777697384529688
-0.09194236111111112,-0.0005777697384529688
-0.09191736111111112,-0.0005777697384529688
-0.09189236111111111,-0.0005777697384529688
-0.09186736111111111,-0.0005777697384529688
-0.09184236111111112,-0.0005777697384529688
-0.09181736111111112,-0.0005777697384529688
-0.09179236111111112,-0.0005777697384529688
-0.09176736111111111,-0.0005777697384529688
-0.09174236111111111,-0.0005777697384529688
-0.09171736111111112,-0.0009097832415225584
-0.09169236111111112,-0.0005777697384529688
-0.09166736111111112,-0.0005777697384529688
-0.09164236111111111,-0.0005777697384529688
-0.09161736111111111,-0.0005777697384529688
-0.09159236111111112,-0.0005777697384529688
-0.09156736111111112,-0.0005777697384529688
-0.09154236111111112,-0.0005777697384529688
-0.09151736111111111,-0.0009097832415225584
-0.09149236111111111,-0.0009097832415225584
-0.09146736111111112,-0.0009097832415225584
-0.09144236111111112,-0.0005777697384529688
-0.09141736111111112,-0.0005777697384529688
-0.09139236111111111,-0.0005777697384529688
-0.09136736111111111,-0.0005777697384529688
-0.09134236111111112,-0.0009097832415225584
-0.09131736111111112,-0.0005777697384529688
-0.09129236111111112,-0.0009097832415224075
-0.09126736111111111,-0.0009097832415225584
-0.09124236111111111,-0.0009097832415225584
-0.09121736111111112,-0.0009097832415225584
