guitar_measurement/middle_hard.csv

#Digilent WaveForms Oscilloscope Acquisition
#Device Name: Discovery2
#Serial Number: SN:210321B053D5
#Date Time: 2025-02-11 09:31:00.657
#Sample rate: 40000Hz
#Samples: 8192
#Trigger: Source: Channel 1 Type: Edge Condition: Rising Level: 50 mV Hyst.: Auto HoldOff: 100 ns
#Channel 1: Range: 500 mV/div Offset: 0 V Attenuation: 1 X Sample Mode: Average

Time (s),Channel 1 (V)
-0.1023984375,-0.005889985787566402
-0.1023734375,-0.003897904769147959
-0.1023484375,-0.001905823750731327
-0.1023234375,8.625726768621039e-05
-0.1022984375,0.001414311279964569
-0.1022734375,0.002078338286103748
-0.1022484375,0.001746324783033705
-0.1022234375,0.0007502842738253896
-0.1021984375,-0.0002457562353833792
-0.1021734375,-0.0009097832415225584
-0.1021484375,-0.001241796744592148
-0.1021234375,-0.00157381024766204
-0.1020984375,-0.002237837253800917
-0.1020734375,-0.003233877763009685
-0.1020484375,-0.004893945278357634
-0.1020234375,-0.007550053302914351
-0.1019984375,-0.01053817483054171
-0.1019734375,-0.01286226935202778
-0.1019484375,-0.01452233686737573
-0.1019234375,-0.01419032336430614
-0.1018984375,-0.01286226935202778
-0.1018734375,-0.01053817483053975
-0.1018484375,-0.00854609381212312
-0.1018234375,-0.007218039799844761
-0.1017984375,-0.006886026296775171
-0.1017734375,-0.006886026296775171
-0.1017484375,-0.006886026296774869
-0.1017234375,-0.006221999290635992
-0.1016984375,-0.005225958781427223
-0.1016734375,-0.004561931775288044
-0.1016484375,-0.004229918272218454
-0.1016234375,-0.003897904769148563
-0.1015984375,-0.003233877763009685
-0.1015734375,-0.002237837253800917
-0.1015484375,-0.0009097832415225584
-0.1015234375,0.0004182707707558
-0.1014984375,0.001414311279964116
-0.1014734375,0.001414311279964569
-0.1014484375,0.0007502842738253896
-0.1014234375,-0.0009097832415225584
-0.1013984375,-0.002237837253800917
-0.1013734375,-0.003233877763009233
-0.1013484375,-0.003897904769148865
-0.1013234375,-0.003897904769148865
-0.1012984375,-0.003565891266079275
-0.1012734375,-0.002569850756870507
-0.1012484375,-0.0009097832415233132
-0.1012234375,0.001414311279964569
-0.1011984375,0.004070419304521285
-0.1011734375,0.007058540832147592
-0.1011484375,0.009714648856704309
-0.1011234375,0.01170672987512094
-0.1010984375,0.0133667973904698
-0.1010734375,0.01403082439660897
-0.1010484375,0.0133667973904698
-0.1010234375,0.01137471637205226
-0.1009984375,0.009050621850566187
-0.1009734375,0.006394513826008413
-0.1009484375,0.004402432807590876
-0.1009234375,0.003406392298382107
-0.1008984375,0.004070419304521285
-0.1008734375,0.005066459813729602
-0.1008484375,0.006062500322938823
-0.1008234375,0.006062500322938823
-0.1007984375,0.004734446310660465
-0.1007734375,0.002742365292242927
-0.1007484375,0.0004182707707568569
-0.1007234375,-0.002237837253800917
-0.1006984375,-0.003565891266079275
-0.1006734375,-0.004893945278357634
-0.1006484375,-0.005557972284496813
-0.1006234375,-0.005225958781427374
-0.1005984375,-0.004229918272218454
-0.1005734375,-0.002901864259940096
-0.1005484375,-0.0005777697384529688
-0.1005234375,0.001414311279964569
-0.1004984375,0.003074378795311762
-0.1004734375,0.004070419304521285
-0.1004484375,0.004402432807590876
-0.1004234375,0.003738405801451696
-0.1003984375,0.002742365292242927
-0.1003734375,0.001746324783034611
-0.1003484375,0.001414311279964569
-0.1003234375,0.001082297776894979
-0.1002984375,0.0007502842738253896
-0.1002734375,8.625726768621039e-05
-0.1002484375,-0.001241796744591544
-0.1002234375,-0.003565891266079275
-0.1001984375,-0.006554012793705582
-0.1001734375,-0.009874147824401477
-0.1001484375,-0.0121982423458886
-0.1001234375,-0.01286226935202778
-0.1000984375,-0.0121982423458886
-0.1000734375,-0.01020616132747107
-0.1000484375,-0.00821408030905353
-0.1000234375,-0.006886026296775171
-0.09999843750000001,-0.006221999290635992
-0.0999734375,-0.005889985787566402
-0.0999484375,-0.005889985787566402
-0.0999234375,-0.005557972284496813
-0.09989843750000001,-0.005225958781427223
-0.09987343750000001,-0.004893945278357634
-0.0998484375,-0.004229918272218454
-0.0998234375,-0.003897904769148865
-0.0997984375,-0.003565891266079275
-0.09977343750000001,-0.002901864259940096
-0.09974843750000001,-0.001573810247661738
-0.0997234375,-0.0005777697384525158
-0.0996984375,0.0004182707707558
-0.0996734375,0.001082297776894979
-0.09964843750000001,0.0004182707707558
-0.09962343750000001,-0.0009097832415225584
-0.0995984375,-0.002901864259940549
-0.0995734375,-0.003897904769148865
-0.0995484375,-0.005225958781427223
-0.09952343750000001,-0.005557972284496813
-0.09949843750000001,-0.005557972284496813
-0.0994734375,-0.00489394527835703
-0.0994484375,-0.003565891266079275
-0.0994234375,-0.001573810247661738
-0.09939843750000001,0.0004182707707558
-0.09937343750000001,0.003074378795312517
-0.0993484375,0.00606250032293988
-0.0993234375,0.00838659484442595
-0.0992984375,0.01037867586284349
-0.09927343750000001,0.01170672987512185
-0.09924843750000001,0.01137471637205226
-0.0992234375,0.01004666235977299
-0.0991984375,0.008054581341356361
-0.0991734375,0.005066459813730054
-0.09914843750000001,0.002742365292242927
-0.09912343750000001,0.001414311279964569
-0.0990984375,0.001414311279965022
-0.0990734375,0.002410351789173338
-0.0990484375,0.003406392298382107
-0.09902343750000001,0.004070419304521285
-0.09899843750000001,0.003406392298382107
-0.0989734375,0.002078338286102842
-0.0989484375,8.625726768621039e-05
-0.0989234375,-0.002237837253800917
-0.09889843750000001,-0.004229918272218454
-0.09887343750000001,-0.005889985787566402
-0.0988484375,-0.006554012793705733
-0.0988234375,-0.006886026296775171
-0.0987984375,-0.006221999290635992
-0.09877343750000001,-0.004893945278357634
-0.09874843750000001,-0.002901864259940096
-0.0987234375,-0.0005777697384522139
-0.0986984375,0.001082297776894979
-0.0986734375,0.003074378795312517
-0.09864843750000001,0.003738405801451696
-0.09862343750000001,0.003738405801451696
-0.0985984375,0.003074378795312215
-0.0985734375,0.002410351789173338
-0.0985484375,0.001746324783034158
-0.09852343750000001,0.001746324783034158
-0.09849843750000001,0.001746324783034158
-0.0984734375,0.001414311279964116
-0.0984484375,0.0004182707707558
-0.0984234375,-0.001241796744592148
-0.0983984375,-0.003897904769148865
-0.09837343750000001,-0.006886026296775171
-0.09834843750000001,-0.009542134321330682
-0.0983234375,-0.01120220183667984
-0.0982984375,-0.01087018833361025
-0.0982734375,-0.009542134321331889
-0.09824843750000001,-0.007218039799844761
-0.09822343750000001,-0.005557972284497567
-0.0981984375,-0.004561931775288044
-0.0981734375,-0.004229918272218454
-0.0981484375,-0.003897904769148865
-0.09812343750000001,-0.003897904769148865
-0.09809843750000001,-0.003233877763009987
-0.0980734375,-0.002569850756870507
-0.0980484375,-0.002237837253800917
-0.0980234375,-0.001905823750731327
-0.09799843750000001,-0.001573810247661738
-0.09797343750000001,-0.0009097832415228604
-0.0979484375,-0.0002457562353833792
-0.0979234375,0.001414311279964569
-0.0978984375,0.002410351789173338
-0.09787343750000001,0.003074378795312517
-0.09784843750000001,0.003074378795312517
-0.0978234375,0.002078338286103748
-0.0977984375,0.0004182707707558
-0.0977734375,-0.001241796744592148
-0.09774843750000001,-0.002237837253800917
-0.09772343750000001,-0.003233877763009233
-0.0976984375,-0.003897904769148865
-0.0976734375,-0.003565891266079275
-0.0976484375,-0.002901864259940096
-0.09762343750000001,-0.001573810247661738
-0.09759843750000001,0.000418270770754894
-0.0975734375,0.002742365292242927
-0.0975484375,0.005398473316799644
-0.0975234375,0.008054581341356361
-0.09749843750000001,0.0100466623597739
-0.09747343750000001,0.01170672987512109
-0.0974484375,0.01203874337819144
-0.0974234375,0.01170672987512185
-0.0973984375,0.009714648856704309
-0.09737343750000001,0.007058540832147592
-0.09734843750000001,0.004070419304522644
-0.0973234375,0.002078338286103748
-0.0972984375,0.001082297776894979
-0.0972734375,0.001414311279964569
-0.09724843750000001,0.002078338286103748
-0.09722343750000001,0.003074378795312064
-0.0971984375,0.003074378795312517
-0.0971734375,0.001746324783034158
-0.0971484375,-0.0002457562353833792
-0.09712343750000001,-0.002569850756870507
-0.09709843750000001,-0.004893945278356578
-0.0970734375,-0.006554012793705582
-0.0970484375,-0.007882066805983939
-0.0970234375,-0.00854609381212312
-0.09699843750000001,-0.00854609381212312
-0.09697343750000001,-0.007882066805983939
-0.0969484375,-0.006554012793705582
-0.0969234375,-0.004229918272218454
-0.0968984375,-0.001905823750731327
-0.09687343750000001,-0.0002457562353833792
-0.09684843750000001,0.001082297776894979
-0.0968234375,0.001414311279964569
-0.0967984375,0.001082297776894979
-0.0967734375,0.0004182707707558
-0.09674843750000001,-0.0002457562353833792
-0.09672343750000001,-0.0005777697384529688
-0.0966984375,-0.0009097832415224074
-0.0966734375,-0.0005777697384529688
-0.0966484375,-0.001241796744592148
-0.09662343750000001,-0.002569850756870507
-0.09659843750000001,-0.004561931775288044
-0.0965734375,-0.00721803979984612
-0.0965484375,-0.01020616132747107
-0.0965234375,-0.0121982423458886
-0.09649843750000001,-0.01286226935202778
-0.09647343750000001,-0.0121982423458886
-0.0964484375,-0.01020616132747016
-0.0964234375,-0.00821408030905353
-0.0963984375,-0.006554012793705582
-0.09637343750000001,-0.005889985787566402
-0.09634843750000001,-0.005557972284496813
-0.0963234375,-0.005225958781426922
-0.0962984375,-0.004561931775288044
-0.0962734375,-0.003897904769148865
-0.09624843750000001,-0.003233877763009685
-0.09622343750000001,-0.002569850756870507
-0.0961984375,-0.002237837253800615
-0.0961734375,-0.001573810247661738
-0.0961484375,-0.0009097832415225584
-0.09612343750000001,0.0004182707707558
-0.09609843750000001,0.002078338286103748
-0.0960734375,0.003406392298382258
-0.0960484375,0.003738405801451696
-0.0960234375,0.003406392298382107
-0.09599843750000001,0.002078338286103748
-0.09597343750000001,0.0007502842738253896
-0.0959484375,-0.0005777697384534218
-0.0959234375,-0.001573810247661738
-0.0958984375,-0.002237837253800917
-0.09587343750000001,-0.002237837253800917
-0.09584843750000001,-0.001905823750731327
-0.0958234375,-0.0005777697384522139
-0.0957984375,0.001082297776894979
-0.0957734375,0.003406392298382107
-0.09574843750000001,0.006062500322938823
-0.09572343750000001,0.00838659484442595
-0.0956984375,0.01104270286898357
-0.0956734375,0.0130347838874002
-0.0956484375,0.01436283789967856
-0.09562343750000001,0.01436283789967856
-0.09559843750000001,0.0130347838874002
-0.0955734375,0.01071068936591187
-0.0955484375,0.008054581341356361
-0.0955234375,0.005398473316799644
-0.09549843750000001,0.003738405801451696
-0.09547343750000001,0.003738405801451696
-0.0954484375,0.004402432807591177
-0.0954234375,0.005066459813730054
-0.0953984375,0.005730486819869233
-0.09537343750000001,0.005066459813730054
-0.09534843750000001,0.003074378795312517
-0.0953234375,0.001082297776893771
-0.0952984375,-0.001573810247661738
-0.0952734375,-0.003565891266079275
-0.0952484375,-0.005225958781427223
-0.09522343750000001,-0.006554012793705582
-0.09519843750000001,-0.007218039799844459
-0.0951734375,-0.006886026296775171
-0.0951484375,-0.005889985787566402
-0.0951234375,-0.004229918272218454
-0.09509843750000001,-0.002237837253800917
-0.09507343750000001,-0.0002457562353842852
-0.0950484375,0.001414311279964569
-0.0950234375,0.001746324783034158
-0.0949984375,0.001746324783034158
-0.09497343750000001,0.0007502842738253896
-0.09494843750000001,0.000418270770755951
-0.0949234375,-0.0005777697384529688
-0.0948984375,-0.0009097832415225584
-0.0948734375,-0.0009097832415225584
-0.09484843750000001,-0.001241796744592148
-0.09482343750000001,-0.001905823750731025
-0.0947984375,-0.003897904769148865
-0.0947734375,-0.006554012793705582
-0.0947484375,-0.009874147824401477
-0.09472343750000001,-0.01253025584895819
-0.09469843750000001,-0.01385830986123595
-0.0946734375,-0.01385830986123655
-0.0946484375,-0.01253025584895819
-0.0946234375,-0.01087018833361025
-0.09459843750000001,-0.009210120818262299
-0.09457343750000001,-0.008214080309053982
-0.0945484375,-0.007550053302914351
-0.0945234375,-0.007550053302914351
-0.0944984375,-0.006886026296775171
-0.09447343750000001,-0.006221999290635992
-0.09444843750000001,-0.005557972284497115
-0.0944234375,-0.005225958781427223
-0.0943984375,-0.004893945278357634
-0.0943734375,-0.004561931775288044
-0.09434843750000001,-0.003897904769148865
-0.09432343750000001,-0.002901864259940549
-0.0942984375,-0.001241796744592148
-0.0942734375,0.0004182707707558
-0.0942484375,0.001414311279964569
-0.09422343750000001,0.001414311279964569
-0.09419843750000001,0.000418270770756253
-0.0941734375,-0.0005777697384529688
-0.0941484375,-0.001905823750731327
-0.0941234375,-0.003233877763009685
-0.09409843750000001,-0.003897904769148865
-0.09407343750000001,-0.004229918272218304
-0.0940484375,-0.004229918272218454
-0.0940234375,-0.003233877763009685
-0.0939984375,-0.001573810247661738
-0.09397343750000001,0.0004182707707558
-0.09394843750000001,0.003074378795311309
-0.0939234375,0.005730486819869233
-0.0938984375,0.00838659484442595
-0.0938734375,0.01104270286898267
-0.09384843750000001,0.01270277038433061
-0.09382343750000001,0.01403082439660897
-0.0937984375,0.0133667973904698
-0.0937734375,0.01170672987512185
-0.0937484375,0.009382635353634719
-0.09372343750000001,0.006726527329078002
-0.09369843750000001,0.004734446310660465
-0.0936734375,0.004070419304521285
-0.0936484375,0.004402432807590876
-0.0936234375,0.005398473316799644
-0.09359843750000001,0.006062500322938823
-0.09357343750000001,0.006394513826008413
-0.0935484375,0.005398473316798738
-0.0935234375,0.003406392298382107
-0.0934984375,0.001082297776894979
-0.09347343750000001,-0.0009097832415225584
-0.09344843750000001,-0.002569850756870507
-0.0934234375,-0.004229918272218907
-0.0933984375,-0.005225958781427223
-0.0933734375,-0.005225958781427223
-0.09334843750000001,-0.004561931775288044
-0.09332343750000001,-0.003233877763009685
-0.0932984375,-0.001241796744591091
-0.0932734375,0.001082297776894979
-0.0932484375,0.003074378795312517
-0.09322343750000001,0.004070419304521285
-0.09319843750000001,0.004402432807590876
-0.0931734375,0.003738405801451394
-0.0931484375,0.003074378795312517
-0.0931234375,0.002410351789173338
-0.09309843750000001,0.002078338286103748
-0.09307343750000001,0.001746324783034158
-0.0930484375,0.001414311279964418
-0.0930234375,0.001082297776894979
-0.0929984375,-0.0002457562353833792
-0.09297343750000001,-0.002569850756870507
-0.09294843750000001,-0.005557972284496813
-0.0929234375,-0.008878107315193916
-0.0928984375,-0.01153421533974943
-0.0928734375,-0.0121982423458886
-0.09284843750000001,-0.01153421533974943
-0.09282343750000001,-0.01020616132747107
-0.0927984375,-0.008214080309053077
-0.0927734375,-0.007218039799844761
-0.0927484375,-0.006554012793705582
-0.09272343750000001,-0.006221999290635992
-0.09269843750000001,-0.005889985787566402
-0.0926734375,-0.005889985787565949
-0.0926484375,-0.004893945278357634
-0.0926234375,-0.004561931775288044
-0.09259843750000001,-0.004229918272218454
-0.09257343750000001,-0.003897904769148865
-0.0925484375,-0.003565891266079124
-0.0925234375,-0.003233877763009685
-0.0924984375,-0.001905823750731327
-0.09247343750000001,-0.0002457562353833792
-0.09244843750000001,0.0007502842738253896
-0.0924234375,0.001082297776894677
-0.0923984375,0.0004182707707558
-0.0923734375,-0.0005777697384529688
-0.09234843750000001,-0.002237837253800917
-0.09232343750000001,-0.003565891266079275
-0.0922984375,-0.004561931775288497
-0.0922734375,-0.005557972284496813
-0.0922484375,-0.005889985787566402
-0.09222343750000001,-0.005557972284496813
-0.09219843750000001,-0.004561931775288044
-0.09217343750000001,-0.002901864259940851
-0.0921484375,-0.0005777697384529688
-0.0921234375,0.001746324783034158
-0.0920984375,0.004734446310660465
-0.09207343750000001,0.007390554335217182
-0.09204843750000001,0.009714648856703253
-0.0920234375,0.01104270286898267
-0.0919984375,0.01137471637205226
-0.0919734375,0.01037867586284349
-0.09194843750000001,0.00838659484442595
-0.09192343750000001,0.005730486819870441
-0.0918984375,0.003074378795312517
-0.0918734375,0.001746324783034158
-0.0918484375,0.001746324783034158
-0.09182343750000001,0.002410351789173338
-0.09179843750000001,0.003406392298381654
-0.0917734375,0.004070419304521285
-0.0917484375,0.003406392298382107
-0.0917234375,0.002410351789173338
-0.09169843750000001,8.625726768621039e-05
-0.09167343750000001,-0.001905823750730421
-0.0916484375,-0.003897904769148865
-0.0916234375,-0.005225958781427223
-0.0915984375,-0.006554012793705582
-0.09157343750000001,-0.006886026296775171
-0.09154843750000001,-0.006554012793705733
-0.0915234375,-0.005557972284496813
-0.0914984375,-0.003897904769148865
-0.0914734375,-0.001573810247661738
-0.09144843750000001,0.0007502842738253896
-0.09142343750000001,0.002410351789172583
-0.0913984375,0.003074378795312517
-0.0913734375,0.003074378795312517
-0.0913484375,0.003074378795312517
-0.09132343750000001,0.002078338286103748
-0.09129843750000001,0.002078338286103748
-0.0912734375,0.001746324783034158
-0.0912484375,0.001746324783034158
-0.0912234375,0.001746324783034158
-0.09119843750000001,0.001082297776894979
-0.09117343750000001,-0.000577769738452214
-0.0911484375,-0.003233877763009685
-0.0911234375,-0.006221999290635992
-0.0910984375,-0.009210120818262299
-0.09107343750000001,-0.01087018833361025
-0.09104843750000001,-0.01087018833361025
-0.0910234375,-0.009542134321331889
-0.0909984375,-0.007550053302914351
-0.0909734375,-0.005889985787566402
-0.09094843750000001,-0.004893945278357634
-0.09092343750000001,-0.004561931775288195
-0.0908984375,-0.004229918272218454
-0.0908734375,-0.003897904769148865
-0.0908484375,-0.002901864259940096
-0.09082343750000001,-0.002569850756870507
-0.09079843750000001,-0.002569850756870507
-0.0907734375,-0.001905823750731327
-0.0907484375,-0.001905823750731327
-0.0907234375,-0.001241796744592148
-0.09069843750000001,-0.0002457562353833792
-0.09067343750000001,0.001082297776894979
-0.0906484375,0.002742365292242927
-0.0906234375,0.003406392298382107
-0.0905984375,0.003406392298382107
-0.09057343750000001,0.002410351789173338
-0.09054843750000001,0.001082297776894979
-0.0905234375,-0.0002457562353833792
-0.0904984375,-0.001905823750731327
-0.0904734375,-0.002901864259940096
-0.09044843750000001,-0.003565891266079275
-0.09042343750000001,-0.003565891266079275
-0.0903984375,-0.003233877763009233
-0.0903734375,-0.002237837253800917
-0.0903484375,-0.0005777697384529688
-0.09032343750000001,0.002078338286103748
-0.09029843750000001,0.004402432807590876
-0.0902734375,0.007390554335218087
-0.0902484375,0.009382635353634719
-0.0902234375,0.01137471637205226
-0.09019843750000001,0.01237075688126103
-0.09017343750000001,0.01170672987512185
-0.0901484375,0.01004666235977269
-0.0901234375,0.007390554335217182
-0.0900984375,0.004734446310660465
-0.09007343750000001,0.002742365292242927
-0.09004843750000001,0.001746324783034158
-0.0900234375,0.00207833828610405
-0.0899984375,0.002742365292242927
-0.0899734375,0.003406392298382107
-0.08994843750000001,0.003406392298382107
-0.08992343750000001,0.002410351789173338
-0.0898984375,0.0004182707707548941
-0.0898734375,-0.001573810247661738
-0.0898484375,-0.003897904769148865
-0.08982343750000001,-0.005889985787566402
-0.08979843750000001,-0.007218039799844761
-0.0897734375,-0.00854609381212312
-0.0897484375,-0.00854609381212312
-0.0897234375,-0.00821408030905353
-0.08969843750000001,-0.006554012793705582
-0.08967343750000001,-0.004893945278357634
-0.0896484375,-0.002237837253800162
-0.0896234375,-0.0005777697384529688
-0.0895984375,0.0007502842738253896
-0.08957343750000001,0.001082297776894979
-0.08954843750000001,0.0007502842738253896
-0.0895234375,8.625726768605941e-05
-0.0894984375,-0.0002457562353833792
-0.0894734375,-0.0005777697384529688
-0.08944843750000001,-0.0005777697384529688
