guitar_measurement/neck_hard.csv

#Digilent WaveForms Oscilloscope Acquisition
#Device Name: Discovery2
#Serial Number: SN:210321B053D5
#Date Time: 2025-02-11 09:28:11.793
#Sample rate: 40000Hz
#Samples: 8192
#Trigger: Source: Channel 1 Type: Edge Condition: Rising Level: 50 mV Hyst.: Auto HoldOff: 100 ns
#Channel 1: Range: 500 mV/div Offset: 0 V Attenuation: 1 X Sample Mode: Average

Time (s),Channel 1 (V)
-0.1023956666666667,-0.0009097832415225584
-0.1023706666666667,-0.0009097832415227094
-0.1023456666666667,-0.001241796744592148
-0.1023206666666667,-0.0009097832415225584
-0.1022956666666667,-0.0009097832415225584
-0.1022706666666667,-0.0009097832415225584
-0.1022456666666667,-0.0009097832415225584
-0.1022206666666667,-0.0009097832415225584
-0.1021956666666667,-0.0009097832415225584
-0.1021706666666667,-0.0009097832415225584
-0.1021456666666667,-0.0005777697384529688
-0.1021206666666667,-0.0009097832415224074
-0.1020956666666667,-0.0005777697384529688
-0.1020706666666667,-0.0005777697384529688
-0.1020456666666667,-0.0005777697384529688
-0.1020206666666667,-0.0005777697384529688
-0.1019956666666667,-0.0005777697384529688
-0.1019706666666667,-0.0005777697384529688
-0.1019456666666667,-0.0005777697384529688
-0.1019206666666667,-0.0005777697384529688
-0.1018956666666667,-0.0005777697384529688
-0.1018706666666667,-0.0005777697384529688
-0.1018456666666667,-0.0005777697384529688
-0.1018206666666667,-0.0005777697384529688
-0.1017956666666667,-0.0005777697384529688
-0.1017706666666667,-0.0005777697384529688
-0.1017456666666667,-0.0005777697384529688
-0.1017206666666667,-0.0005777697384529688
-0.1016956666666667,-0.0009097832415225584
-0.1016706666666667,-0.0005777697384529688
-0.1016456666666667,-0.0005777697384529688
-0.1016206666666667,-0.0009097832415224074
-0.1015956666666667,-0.0005777697384529688
-0.1015706666666667,-0.0009097832415225584
-0.1015456666666667,-0.0005777697384529688
-0.1015206666666667,-0.0005777697384529688
-0.1014956666666667,-0.0005777697384529688
-0.1014706666666667,-0.0005777697384529688
-0.1014456666666667,-0.0002457562353833792
-0.1014206666666667,-0.0005777697384529688
-0.1013956666666667,-0.0005777697384529688
-0.1013706666666667,-0.0002457562353835302
-0.1013456666666667,-0.0002457562353833792
-0.1013206666666667,-0.0002457562353833792
-0.1012956666666667,-0.0002457562353833792
-0.1012706666666667,-0.0002457562353833792
-0.1012456666666667,-0.0002457562353833792
-0.1012206666666667,-0.0002457562353833792
-0.1011956666666667,-0.0002457562353833792
-0.1011706666666667,-0.0002457562353833792
-0.1011456666666667,-0.0002457562353833792
-0.1011206666666667,-0.0002457562353833792
-0.1010956666666667,-0.0002457562353833792
-0.1010706666666667,-0.0002457562353833792
-0.1010456666666667,-0.0002457562353833792
-0.1010206666666667,-0.0002457562353833792
-0.1009956666666667,-0.0002457562353833792
-0.1009706666666667,8.625726768621039e-05
-0.1009456666666667,-0.0002457562353833792
-0.1009206666666667,8.625726768621039e-05
-0.1008956666666667,8.625726768621039e-05
-0.1008706666666667,8.625726768621039e-05
-0.1008456666666667,-0.0002457562353833792
-0.1008206666666667,-0.0002457562353833792
-0.1007956666666667,8.625726768621039e-05
-0.1007706666666667,-0.0002457562353833792
-0.1007456666666667,8.625726768605942e-05
-0.1007206666666667,8.625726768621039e-05
-0.1006956666666667,-0.0002457562353833792
-0.1006706666666667,-0.0002457562353833792
-0.1006456666666667,-0.0002457562353833792
-0.1006206666666667,-0.0002457562353833792
-0.1005956666666667,-0.0002457562353833792
-0.1005706666666667,-0.0002457562353833792
-0.1005456666666667,-0.0005777697384529688
-0.1005206666666667,-0.0005777697384529688
-0.1004956666666667,-0.0005777697384529688
-0.1004706666666667,-0.0002457562353833792
-0.1004456666666667,-0.0005777697384529688
-0.1004206666666667,-0.0005777697384529688
-0.1003956666666667,-0.0005777697384529688
-0.1003706666666667,-0.0005777697384529688
-0.1003456666666667,-0.0002457562353833792
-0.1003206666666667,-0.0005777697384529688
-0.1002956666666667,-0.0002457562353833792
-0.1002706666666667,-0.0005777697384529688
-0.1002456666666667,-0.0005777697384529688
-0.1002206666666667,-0.0005777697384529688
-0.1001956666666667,-0.0005777697384529688
-0.1001706666666667,-0.0005777697384529688
-0.1001456666666667,-0.0005777697384529688
-0.1001206666666667,-0.0005777697384529688
-0.1000956666666667,-0.0005777697384529688
-0.1000706666666667,-0.0002457562353833792
-0.1000456666666667,-0.0005777697384529688
-0.1000206666666667,-0.0009097832415225584
-0.09999566666666668,-0.0009097832415225584
-0.09997066666666667,-0.0009097832415225584
-0.09994566666666667,-0.0009097832415225584
-0.09992066666666667,-0.0009097832415225584
-0.09989566666666667,-0.0009097832415225584
-0.09987066666666668,-0.0009097832415225584
-0.09984566666666667,-0.001241796744592148
-0.09982066666666667,-0.001241796744592148
-0.09979566666666667,-0.0009097832415225584
-0.09977066666666667,-0.0009097832415225584
-0.09974566666666668,-0.001241796744592148
-0.09972066666666667,-0.001241796744592148
-0.09969566666666667,-0.001241796744592148
-0.09967066666666667,-0.001241796744592148
-0.09964566666666667,-0.001241796744592148
-0.09962066666666668,-0.001241796744592148
-0.09959566666666667,-0.001573810247661738
-0.09957066666666667,-0.001573810247661738
-0.09954566666666667,-0.001241796744592148
-0.09952066666666667,-0.001241796744592148
-0.09949566666666668,-0.001573810247661738
-0.09947066666666667,-0.001573810247661738
-0.09944566666666667,-0.001573810247661738
-0.09942066666666667,-0.001573810247661738
-0.09939566666666667,-0.001241796744592148
-0.09937066666666668,-0.001241796744592148
-0.09934566666666667,-0.001573810247661738
-0.09932066666666667,-0.001573810247661738
-0.09929566666666667,-0.001573810247661738
-0.09927066666666667,-0.001573810247661738
-0.09924566666666668,-0.001905823750731327
-0.09922066666666667,-0.001573810247661738
-0.09919566666666667,-0.001573810247661738
-0.09917066666666667,-0.001573810247661738
-0.09914566666666667,-0.001905823750731327
-0.09912066666666668,-0.001905823750731327
-0.09909566666666667,-0.001905823750731327
-0.09907066666666667,-0.001905823750731327
-0.09904566666666667,-0.001905823750731327
-0.09902066666666667,-0.001905823750731327
-0.09899566666666668,-0.001573810247661738
-0.09897066666666667,-0.001905823750731327
-0.09894566666666667,-0.001905823750731327
-0.09892066666666667,-0.001905823750731327
-0.09889566666666667,-0.001905823750731327
-0.09887066666666668,-0.001905823750731327
-0.09884566666666667,-0.001905823750731327
-0.09882066666666667,-0.001905823750731327
-0.09879566666666667,-0.001905823750731327
-0.09877066666666667,-0.001905823750731327
-0.09874566666666668,-0.001905823750731327
-0.09872066666666666,-0.001905823750731176
-0.09869566666666667,-0.001573810247661738
-0.09867066666666667,-0.001573810247661738
-0.09864566666666667,-0.001573810247661738
-0.09862066666666668,-0.001905823750731327
-0.09859566666666666,-0.001573810247661889
-0.09857066666666667,-0.001905823750731327
-0.09854566666666667,-0.001573810247661738
-0.09852066666666667,-0.001573810247661738
-0.09849566666666668,-0.001573810247661738
-0.09847066666666666,-0.001573810247661738
-0.09844566666666667,-0.001573810247661738
-0.09842066666666667,-0.001573810247661738
-0.09839566666666667,-0.001573810247661738
-0.09837066666666668,-0.001573810247661738
-0.09834566666666668,-0.001573810247661738
-0.09832066666666667,-0.001905823750731327
-0.09829566666666667,-0.001573810247661738
-0.09827066666666667,-0.001905823750731327
-0.09824566666666668,-0.001905823750731327
-0.09822066666666668,-0.001905823750731327
-0.09819566666666667,-0.002237837253800917
-0.09817066666666667,-0.002237837253800917
-0.09814566666666667,-0.001905823750731327
-0.09812066666666668,-0.002237837253800917
-0.09809566666666668,-0.002237837253800917
-0.09807066666666667,-0.002237837253800917
-0.09804566666666667,-0.002237837253800917
-0.09802066666666667,-0.002237837253800917
-0.09799566666666668,-0.002237837253800917
-0.09797066666666668,-0.002237837253800917
-0.09794566666666667,-0.002237837253800917
-0.09792066666666667,-0.002237837253800917
-0.09789566666666667,-0.002237837253800917
-0.09787066666666668,-0.002237837253800917
-0.09784566666666668,-0.001905823750731478
-0.09782066666666667,-0.001905823750731327
-0.09779566666666667,-0.001905823750731327
-0.09777066666666667,-0.002237837253800917
-0.09774566666666668,-0.001905823750731327
-0.09772066666666668,-0.002237837253800766
-0.09769566666666667,-0.002237837253800917
-0.09767066666666667,-0.001905823750731327
-0.09764566666666667,-0.001905823750731327
-0.09762066666666668,-0.002237837253800917
-0.09759566666666668,-0.002237837253800917
-0.09757066666666667,-0.001905823750731327
-0.09754566666666667,-0.001905823750731327
-0.09752066666666667,-0.001573810247661738
-0.09749566666666667,-0.001573810247661738
-0.09747066666666668,-0.001573810247661738
-0.09744566666666667,-0.001573810247661738
-0.09742066666666667,-0.001905823750731327
-0.09739566666666667,-0.001573810247661738
-0.09737066666666667,-0.001573810247661738
-0.09734566666666668,-0.001573810247661738
-0.09732066666666667,-0.001573810247661738
-0.09729566666666667,-0.001573810247661738
-0.09727066666666667,-0.001573810247661738
-0.09724566666666667,-0.001573810247661738
-0.09722066666666668,-0.001241796744592299
-0.09719566666666667,-0.001241796744592148
-0.09717066666666667,-0.001241796744592148
-0.09714566666666667,-0.001241796744592148
-0.09712066666666667,-0.001241796744592148
-0.09709566666666668,-0.001241796744592148
-0.09707066666666667,-0.001241796744592148
-0.09704566666666667,-0.001241796744592148
-0.09702066666666667,-0.001241796744592148
-0.09699566666666667,-0.001241796744592148
-0.09697066666666668,-0.001241796744592148
-0.09694566666666667,-0.001241796744592148
-0.09692066666666667,-0.001241796744592148
-0.09689566666666667,-0.0009097832415225584
-0.09687066666666667,-0.001241796744592148
-0.09684566666666668,-0.0009097832415225584
-0.09682066666666667,-0.0009097832415225584
-0.09679566666666667,-0.0009097832415225584
-0.09677066666666667,-0.0009097832415225584
-0.09674566666666667,-0.0009097832415225584
-0.09672066666666668,-0.0009097832415225584
-0.09669566666666667,-0.0009097832415225584
-0.09667066666666667,-0.0009097832415225584
-0.09664566666666667,-0.0005777697384529688
-0.09662066666666667,-0.0005777697384529688
-0.09659566666666668,-0.0005777697384529688
-0.09657066666666667,-0.0005777697384529688
-0.09654566666666667,-0.0005777697384529688
-0.09652066666666667,-0.0005777697384529688
-0.09649566666666667,-0.0005777697384529688
-0.09647066666666668,-0.0005777697384529688
-0.09644566666666667,-0.0005777697384529688
-0.09642066666666667,-0.0005777697384529688
-0.09639566666666667,-0.0005777697384529688
-0.09637066666666667,-0.0005777697384529688
-0.09634566666666668,-0.0009097832415225584
-0.09632066666666667,-0.0009097832415224074
-0.09629566666666667,-0.0005777697384529688
-0.09627066666666667,-0.0005777697384529688
-0.09624566666666667,-0.0005777697384529688
-0.09622066666666668,-0.0005777697384529688
-0.09619566666666667,-0.0005777697384529688
-0.09617066666666667,-0.0005777697384529688
-0.09614566666666667,-0.0002457562353833792
-0.09612066666666667,-0.0002457562353833792
-0.09609566666666668,-0.0005777697384529688
-0.09607066666666667,-0.0002457562353833792
-0.09604566666666667,-0.0002457562353833792
-0.09602066666666667,-0.0002457562353833792
-0.09599566666666667,-0.0002457562353833792
-0.09597066666666668,-0.0005777697384529688
-0.09594566666666667,-0.0002457562353833792
-0.09592066666666667,-0.0002457562353833792
-0.09589566666666667,-0.0002457562353833792
-0.09587066666666667,-0.0002457562353833792
-0.09584566666666668,-0.0002457562353833792
-0.09582066666666667,-0.0002457562353833792
-0.09579566666666667,-0.0002457562353833792
-0.09577066666666667,-0.0002457562353833792
-0.09574566666666667,8.625726768621039e-05
-0.09572066666666668,-0.0002457562353833792
-0.09569566666666666,-0.0002457562353833792
-0.09567066666666667,-0.0002457562353833792
-0.09564566666666667,-0.0002457562353833792
-0.09562066666666667,-0.0002457562353833792
-0.09559566666666668,-0.0002457562353833792
-0.09557066666666666,-0.0002457562353833792
-0.09554566666666667,-0.0002457562353833792
-0.09552066666666667,-0.0002457562353833792
-0.09549566666666667,-0.0002457562353833792
-0.09547066666666668,-0.0002457562353833792
-0.09544566666666666,-0.0002457562353833792
-0.09542066666666667,-0.0002457562353833792
-0.09539566666666667,-0.0002457562353833792
-0.09537066666666667,-0.0005777697384529688
-0.09534566666666668,-0.0005777697384529688
-0.09532066666666666,-0.0005777697384529688
-0.09529566666666667,-0.0005777697384529688
-0.09527066666666667,-0.0005777697384529688
-0.09524566666666667,-0.0005777697384529688
-0.09522066666666668,-0.0009097832415225584
-0.09519566666666668,-0.0009097832415225584
-0.09517066666666667,-0.0009097832415225584
-0.09514566666666667,-0.0005777697384529688
-0.09512066666666667,-0.0009097832415225584
-0.09509566666666668,-0.0009097832415225584
-0.09507066666666668,-0.0009097832415225584
-0.09504566666666667,-0.0005777697384529688
-0.09502066666666667,-0.0005777697384529688
-0.09499566666666667,-0.0005777697384529688
-0.09497066666666668,-0.0009097832415225584
-0.09494566666666668,-0.0009097832415225584
-0.09492066666666667,-0.0009097832415225584
-0.09489566666666667,-0.0009097832415225584
-0.09487066666666667,-0.0009097832415225584
-0.09484566666666668,-0.0005777697384529688
-0.09482066666666668,-0.0005777697384529688
-0.09479566666666667,-0.0005777697384529688
-0.09477066666666667,-0.0005777697384529688
-0.09474566666666667,-0.0009097832415225584
-0.09472066666666668,-0.0005777697384529688
-0.09469566666666668,-0.0005777697384529688
-0.09467066666666667,-0.0005777697384529688
-0.09464566666666667,-0.0009097832415225584
-0.09462066666666667,-0.0005777697384529688
-0.09459566666666668,-0.0009097832415225584
-0.09457066666666668,-0.0009097832415225584
-0.09454566666666667,-0.0009097832415225584
-0.09452066666666667,-0.0009097832415225584
-0.09449566666666667,-0.0009097832415225584
-0.09447066666666668,-0.0009097832415225584
-0.09444566666666668,-0.0009097832415225584
-0.09442066666666667,-0.0009097832415225584
-0.09439566666666667,-0.001241796744592148
-0.09437066666666667,-0.001241796744592148
-0.09434566666666667,-0.0009097832415225584
-0.09432066666666668,-0.001241796744591997
-0.09429566666666667,-0.0009097832415225584
-0.09427066666666667,-0.0009097832415225584
-0.09424566666666667,-0.001241796744592148
-0.09422066666666667,-0.0009097832415225584
-0.09419566666666668,-0.001241796744591997
-0.09417066666666667,-0.001241796744592148
-0.09414566666666667,-0.001241796744592148
-0.09412066666666667,-0.001241796744592148
-0.09409566666666667,-0.001241796744592148
-0.09407066666666668,-0.001573810247661587
-0.09404566666666667,-0.001573810247661738
-0.09402066666666667,-0.001241796744592148
-0.09399566666666667,-0.001241796744592148
-0.09397066666666667,-0.001573810247661738
-0.09394566666666668,-0.001241796744592299
-0.09392066666666667,-0.001573810247661738
-0.09389566666666667,-0.001573810247661738
-0.09387066666666667,-0.001573810247661738
-0.09384566666666667,-0.001573810247661738
-0.09382066666666668,-0.001573810247661738
-0.09379566666666667,-0.001573810247661738
-0.09377066666666667,-0.001573810247661738
-0.09374566666666667,-0.001573810247661738
-0.09372066666666667,-0.001573810247661738
-0.09369566666666668,-0.001241796744592148
-0.09367066666666667,-0.001241796744592148
-0.09364566666666667,-0.001241796744592148
-0.09362066666666667,-0.001573810247661738
-0.09359566666666667,-0.001241796744592148
-0.09357066666666668,-0.001573810247661738
-0.09354566666666667,-0.001241796744592299
-0.09352066666666667,-0.001573810247661738
-0.09349566666666667,-0.001573810247661738
-0.09347066666666667,-0.001573810247661738
-0.09344566666666668,-0.001573810247661738
-0.09342066666666667,-0.001573810247661738
-0.09339566666666667,-0.001573810247661738
-0.09337066666666667,-0.001573810247661738
-0.09334566666666667,-0.001573810247661738
-0.09332066666666668,-0.001573810247661738
-0.09329566666666667,-0.001573810247661587
-0.09327066666666667,-0.001241796744592148
-0.09324566666666667,-0.001573810247661738
-0.09322066666666667,-0.001241796744592148
-0.09319566666666668,-0.001241796744592148
-0.09317066666666667,-0.001241796744592299
-0.09314566666666667,-0.001573810247661738
-0.09312066666666667,-0.001241796744592148
-0.09309566666666667,-0.001241796744592148
-0.09307066666666668,-0.001241796744592148
-0.09304566666666667,-0.001573810247661738
-0.09302066666666667,-0.001573810247661738
-0.09299566666666667,-0.001573810247661738
-0.09297066666666667,-0.001573810247661738
-0.09294566666666668,-0.001573810247661738
-0.09292066666666667,-0.001573810247661738
-0.09289566666666667,-0.001573810247661738
-0.09287066666666667,-0.001573810247661738
-0.09284566666666667,-0.001573810247661738
-0.09282066666666668,-0.001573810247661738
-0.09279566666666667,-0.001905823750731327
-0.09277066666666667,-0.001905823750731327
-0.09274566666666667,-0.001905823750731327
-0.09272066666666667,-0.001905823750731327
-0.09269566666666668,-0.001905823750731327
-0.09267066666666667,-0.001905823750731478
-0.09264566666666667,-0.002237837253800917
-0.09262066666666667,-0.002237837253800917
-0.09259566666666667,-0.002237837253800917
-0.09257066666666668,-0.002237837253800917
-0.09254566666666666,-0.002237837253800917
-0.09252066666666667,-0.002237837253800917
-0.09249566666666667,-0.002237837253800917
-0.09247066666666667,-0.002237837253800917
-0.09244566666666668,-0.002237837253800917
-0.09242066666666666,-0.002237837253800917
-0.09239566666666667,-0.002237837253800917
-0.09237066666666667,-0.002237837253800917
-0.09234566666666667,-0.002237837253800917
-0.09232066666666668,-0.002237837253800917
-0.09229566666666666,-0.001905823750731478
-0.09227066666666667,-0.002237837253800917
-0.09224566666666667,-0.002237837253800917
-0.09222066666666667,-0.002237837253800917
-0.09219566666666668,-0.002237837253800917
-0.09217066666666668,-0.002237837253800917
-0.09214566666666667,-0.002237837253800917
-0.09212066666666667,-0.001905823750731327
-0.09209566666666667,-0.001905823750731327
-0.09207066666666668,-0.001905823750731327
-0.09204566666666668,-0.001905823750731327
-0.09202066666666667,-0.001905823750731327
-0.09199566666666667,-0.001573810247661738
-0.09197066666666667,-0.001573810247661738
-0.09194566666666668,-0.001573810247661738
-0.09192066666666668,-0.001573810247661738
-0.09189566666666667,-0.001241796744592148
-0.09187066666666667,-0.001241796744592148
-0.09184566666666667,-0.001241796744592148
-0.09182066666666668,-0.001241796744592148
-0.09179566666666668,-0.001241796744592148
-0.09177066666666667,-0.001241796744592148
-0.09174566666666667,-0.001241796744592148
-0.09172066666666667,-0.001241796744592148
-0.09169566666666668,-0.001241796744592148
-0.09167066666666668,-0.001241796744592148
-0.09164566666666667,-0.001241796744592148
-0.09162066666666667,-0.001241796744592148
-0.09159566666666667,-0.001241796744592148
-0.09157066666666668,-0.001241796744592148
-0.09154566666666668,-0.001241796744592148
-0.09152066666666667,-0.001241796744592148
-0.09149566666666667,-0.0009097832415225584
-0.09147066666666667,-0.001241796744592148
-0.09144566666666668,-0.0009097832415225584
-0.09142066666666668,-0.0009097832415225584
-0.09139566666666667,-0.001241796744592148
-0.09137066666666667,-0.0009097832415225584
-0.09134566666666667,-0.0009097832415225584
-0.09132066666666667,-0.0009097832415225584
-0.09129566666666668,-0.0009097832415225584
-0.09127066666666667,-0.0009097832415225584
-0.09124566666666667,-0.0005777697384529688
-0.09122066666666667,-0.0005777697384529688
-0.09119566666666667,-0.0005777697384529688
-0.09117066666666668,-0.0005777697384529688
-0.09114566666666667,-0.0005777697384529688
-0.09112066666666667,-0.0002457562353833792
-0.09109566666666667,-0.0005777697384529688
